%!PS-Adobe-3.0
%%Creator: PCBNEW
%%CreationDate: Mon Oct 19 11:07:49 2020
%%Title: /home/jhunacek/gdrive/research-caltech/cable-tester/pcb/cable-tester-adapters/dsub44p/production/20160812-v1.0/adapter-dsub44p-drl_map.ps
%%Pages: 1
%%PageOrder: Ascend
%%BoundingBox: 0 0 596 842
%%DocumentMedia: A4 595 842 0 () ()
%%Orientation: Landscape
%%EndComments
%%BeginProlog
/line { newpath moveto lineto stroke } bind def
/cir0 { newpath 0 360 arc stroke } bind def
/cir1 { newpath 0 360 arc gsave fill grestore stroke } bind def
/cir2 { newpath 0 360 arc gsave fill grestore stroke } bind def
/arc0 { newpath arc stroke } bind def
/arc1 { newpath 4 index 4 index moveto arc closepath gsave fill
    grestore stroke } bind def
/arc2 { newpath 4 index 4 index moveto arc closepath gsave fill
    grestore stroke } bind def
/poly0 { stroke } bind def
/poly1 { closepath gsave fill grestore stroke } bind def
/poly2 { closepath gsave fill grestore stroke } bind def
/rect0 { rectstroke } bind def
/rect1 { rectfill } bind def
/rect2 { rectfill } bind def
/linemode0 { 0 setlinecap 0 setlinejoin 0 setlinewidth } bind def
/linemode1 { 1 setlinecap 1 setlinejoin } bind def
/dashedline { [200] 100 setdash } bind def
/solidline { [] 0 setdash } bind def
/phantomshow { moveto
    /KicadFont findfont 0.000001 scalefont setfont
    show } bind def
/textshow { gsave
    findfont exch scalefont setfont concat 1 scale 0 0 moveto show
    } bind def
/reencodefont {
  findfont dup length dict begin
  { 1 index /FID ne
    { def }
    { pop pop } ifelse
  } forall
  /Encoding ISOLatin1Encoding def
  currentdict
  end } bind def
/KicadFont /Helvetica reencodefont definefont pop
/KicadFont-Bold /Helvetica-Bold reencodefont definefont pop
/KicadFont-Oblique /Helvetica-Oblique reencodefont definefont pop
/KicadFont-BoldOblique /Helvetica-BoldOblique reencodefont definefont pop
%%EndProlog
%%Page: 1 1
%%BeginPageSetup
gsave
0.0072 0.0072 scale
linemode1
82680 0 translate 90 rotate
63.1204 setlinewidth
%%EndPageSetup
0 0 0 setrgbcolor
74.5516 setlinewidth
newpath
40160.1 37046.3 moveto
40160.1 78705.7 lineto
stroke
0 0 0 setrgbcolor
newpath
76769.9 37046.3 moveto
40160.1 37046.3 lineto
stroke
0 0 0 setrgbcolor
newpath
76769.9 78705.7 moveto
76769.9 37046.3 lineto
stroke
0 0 0 setrgbcolor
newpath
40160.1 78705.7 moveto
76769.9 78705.7 lineto
stroke
78.7399 setlinewidth
newpath
48460.7 59954.7 moveto
48612.2 59803.2 lineto
stroke
newpath
48612.2 59954.7 moveto
48460.7 59803.2 lineto
stroke
newpath
48763.7 57718.1 moveto
48915.2 57566.7 lineto
stroke
newpath
48915.2 57718.1 moveto
48763.7 57566.7 lineto
stroke
newpath
49040.5 61048.1 moveto
49192 60896.6 lineto
stroke
newpath
49192 61048.1 moveto
49040.5 60896.6 lineto
stroke
newpath
49073.6 56475.6 moveto
49225.1 56324.1 lineto
stroke
newpath
49225.1 56475.6 moveto
49073.6 56324.1 lineto
stroke
newpath
49139.9 58960.7 moveto
49291.4 58809.2 lineto
stroke
newpath
49291.4 58960.7 moveto
49139.9 58809.2 lineto
stroke
newpath
49289 57320.5 moveto
49440.5 57169.1 lineto
stroke
newpath
49440.5 57320.5 moveto
49289 57169.1 lineto
stroke
newpath
49338.7 60302.6 moveto
49490.2 60151.1 lineto
stroke
newpath
49490.2 60302.6 moveto
49338.7 60151.1 lineto
stroke
newpath
49984.8 72628.5 moveto
50136.3 72477 lineto
stroke
newpath
50136.3 72628.5 moveto
49984.8 72477 lineto
stroke
newpath
50183.6 47032.4 moveto
50335.1 46880.9 lineto
stroke
newpath
50335.1 47032.4 moveto
50183.6 46880.9 lineto
stroke
newpath
50531.5 43553.3 moveto
50683 43401.9 lineto
stroke
newpath
50683 43553.3 moveto
50531.5 43401.9 lineto
stroke
newpath
51177.6 48274.9 moveto
51329.1 48123.5 lineto
stroke
newpath
51329.1 48274.9 moveto
51177.6 48123.5 lineto
stroke
newpath
51724.3 43801.9 moveto
51875.8 43650.4 lineto
stroke
newpath
51875.8 43801.9 moveto
51724.3 43650.4 lineto
stroke
newpath
52271.1 47976.7 moveto
52422.5 47825.3 lineto
stroke
newpath
52422.5 47976.7 moveto
52271.1 47825.3 lineto
stroke
newpath
52867.5 43801.9 moveto
53019 43650.4 lineto
stroke
newpath
53019 43801.9 moveto
52867.5 43650.4 lineto
stroke
newpath
53314.8 50014.5 moveto
53466.3 49863 lineto
stroke
newpath
53466.3 50014.5 moveto
53314.8 49863 lineto
stroke
newpath
54010.6 44000.7 moveto
54162.1 43849.2 lineto
stroke
newpath
54162.1 44000.7 moveto
54010.6 43849.2 lineto
stroke
newpath
54421.7 49779.5 moveto
54573.2 49628 lineto
stroke
newpath
54573.2 49779.5 moveto
54421.7 49628 lineto
stroke
newpath
55104 44050.4 moveto
55255.5 43898.9 lineto
stroke
newpath
55255.5 44050.4 moveto
55104 43898.9 lineto
stroke
newpath
55377.4 50809.7 moveto
55528.9 50658.2 lineto
stroke
newpath
55528.9 50809.7 moveto
55377.4 50658.2 lineto
stroke
newpath
56296.8 43594.8 moveto
56448.3 43443.3 lineto
stroke
newpath
56448.3 43594.8 moveto
56296.8 43443.3 lineto
stroke
newpath
56843.6 50412.1 moveto
56995 50260.6 lineto
stroke
newpath
56995 50412.1 moveto
56843.6 50260.6 lineto
stroke
newpath
57390.3 43746.3 moveto
57541.8 43594.8 lineto
stroke
newpath
57541.8 43746.3 moveto
57390.3 43594.8 lineto
stroke
newpath
58061.2 52449.8 moveto
58212.7 52298.3 lineto
stroke
newpath
58212.7 52449.8 moveto
58061.2 52298.3 lineto
stroke
newpath
58479.2 43746.3 moveto
58630.7 43594.8 lineto
stroke
newpath
58630.7 43746.3 moveto
58479.2 43594.8 lineto
stroke
newpath
59129.8 52300.7 moveto
59281.3 52149.2 lineto
stroke
newpath
59281.3 52300.7 moveto
59129.8 52149.2 lineto
stroke
newpath
59676.5 44049.3 moveto
59828 43897.8 lineto
stroke
newpath
59828 44049.3 moveto
59676.5 43897.8 lineto
stroke
newpath
60322.6 54015.4 moveto
60474.1 53863.9 lineto
stroke
newpath
60474.1 54015.4 moveto
60322.6 53863.9 lineto
stroke
newpath
60825.1 44049.3 moveto
60976.6 43897.8 lineto
stroke
newpath
60976.6 44049.3 moveto
60825.1 43897.8 lineto
stroke
newpath
61391.2 53543.3 moveto
61542.7 53391.8 lineto
stroke
newpath
61542.7 53543.3 moveto
61391.2 53391.8 lineto
stroke
newpath
61937.9 45069.2 moveto
62089.4 44917.7 lineto
stroke
newpath
62089.4 45069.2 moveto
61937.9 44917.7 lineto
stroke
newpath
62360.4 55208.2 moveto
62511.9 55056.8 lineto
stroke
newpath
62511.9 55208.2 moveto
62360.4 55056.8 lineto
stroke
newpath
63130.7 44572.2 moveto
63282.2 44420.7 lineto
stroke
newpath
63282.2 44572.2 moveto
63130.7 44420.7 lineto
stroke
newpath
63652.6 54711.2 moveto
63804.1 54559.7 lineto
stroke
newpath
63804.1 54711.2 moveto
63652.6 54559.7 lineto
stroke
newpath
64373.3 46411.2 moveto
64524.8 46259.7 lineto
stroke
newpath
64524.8 46411.2 moveto
64373.3 46259.7 lineto
stroke
newpath
64845.4 56376.2 moveto
64996.9 56224.7 lineto
stroke
newpath
64996.9 56376.2 moveto
64845.4 56224.7 lineto
stroke
newpath
65441.8 45814.7 moveto
65593.3 45663.3 lineto
stroke
newpath
65593.3 45814.7 moveto
65441.8 45663.3 lineto
stroke
newpath
65963.7 56003.5 moveto
66115.2 55852 lineto
stroke
newpath
66115.2 56003.5 moveto
65963.7 55852 lineto
stroke
newpath
66510.4 47703.4 moveto
66661.9 47551.9 lineto
stroke
newpath
66661.9 47703.4 moveto
66510.4 47551.9 lineto
stroke
newpath
67181.4 64974.5 moveto
67332.9 64823 lineto
stroke
newpath
67332.9 64974.5 moveto
67181.4 64823 lineto
stroke
newpath
67827.5 65471.5 moveto
67979 65320 lineto
stroke
newpath
67979 65471.5 moveto
67827.5 65320 lineto
stroke
newpath
67877.2 63582.9 moveto
68028.7 63431.4 lineto
stroke
newpath
68028.7 63582.9 moveto
67877.2 63431.4 lineto
stroke
newpath
68225.1 64079.9 moveto
68376.6 63928.4 lineto
stroke
newpath
68376.6 64079.9 moveto
68225.1 63928.4 lineto
stroke
newpath
68771.8 62439.8 moveto
68923.3 62288.3 lineto
stroke
newpath
68923.3 62439.8 moveto
68771.8 62288.3 lineto
stroke
newpath
71107.8 62936.8 moveto
71259.2 62785.3 lineto
stroke
newpath
71259.2 62936.8 moveto
71107.8 62785.3 lineto
stroke
newpath
72068.7 60998.4 moveto
72220.2 60846.9 lineto
stroke
newpath
72220.2 60998.4 moveto
72068.7 60846.9 lineto
stroke
46979.1 68278.4 100.993 cir0
47227.6 67334.1 100.993 cir0
48216.8 66886.8 100.993 cir0
48420.4 64004.1 100.993 cir0
48519.8 66041.9 100.993 cir0
48519.8 65097.6 100.993 cir0
49464.1 63457.4 100.993 cir0
50756.4 71906.6 100.993 cir0
51253.4 71707.8 100.993 cir0
51998.9 72304.2 100.993 cir0
52479 72140 100.993 cir0
52943.2 72552.7 100.993 cir0
53390.5 70614.4 100.993 cir0
54136 72503 100.993 cir0
54682.7 71260.5 100.993 cir0
55328.9 73397.6 100.993 cir0
55627.1 70216.8 100.993 cir0
56422.3 73397.6 100.993 cir0
56919.3 70415.6 100.993 cir0
57615.1 73352.7 100.993 cir0
58112.1 68825.1 100.993 cir0
58708.5 73352.7 100.993 cir0
59205.5 69173.1 100.993 cir0
59851.7 73352.7 100.993 cir0
60398.4 68377.8 100.993 cir0
60994.8 73397.6 100.993 cir0
61044.5 63010.1 100.993 cir0
61243.3 63556.8 100.993 cir0
61442.1 68477.2 100.993 cir0
61591.2 64103.5 100.993 cir0
62088.2 73546.7 100.993 cir0
62088.2 64550.9 100.993 cir0
62585.2 67334.1 100.993 cir0
62684.6 64898.8 100.993 cir0
63131.9 73998.8 100.993 cir0
63231.3 65395.8 100.993 cir0
63579.2 65992.2 100.993 cir0
63778 67637.1 100.993 cir0
64324.8 73149.1 100.993 cir0
65020.6 66041.9 100.993 cir0
65567.3 73392.9 100.993 cir0
66064.3 66638.3 100.993 cir0
66710.4 72353.9 100.993 cir0
newpath
50130.1 75336 moveto
50130.1 74839 lineto
stroke
newpath
49881.6 75087.5 moveto
50378.6 75087.5 lineto
stroke
newpath
50699.2 76320.1 moveto
50699.2 75823.1 lineto
stroke
newpath
50450.7 76071.6 moveto
50947.7 76071.6 lineto
stroke
newpath
51268.3 77304.1 moveto
51268.3 76807.1 lineto
stroke
newpath
51019.8 77055.6 moveto
51516.8 77055.6 lineto
stroke
newpath
51268.3 75336 moveto
51268.3 74839 lineto
stroke
newpath
51019.8 75087.5 moveto
51516.8 75087.5 lineto
stroke
newpath
51837.4 76320.1 moveto
51837.4 75823.1 lineto
stroke
newpath
51588.9 76071.6 moveto
52085.9 76071.6 lineto
stroke
newpath
52406.4 77304.1 moveto
52406.4 76807.1 lineto
stroke
newpath
52157.9 77055.6 moveto
52654.9 77055.6 lineto
stroke
newpath
52406.4 75336 moveto
52406.4 74839 lineto
stroke
newpath
52157.9 75087.5 moveto
52654.9 75087.5 lineto
stroke
newpath
52975.5 76320.1 moveto
52975.5 75823.1 lineto
stroke
newpath
52727 76071.6 moveto
53224 76071.6 lineto
stroke
newpath
53544.6 77304.1 moveto
53544.6 76807.1 lineto
stroke
newpath
53296.1 77055.6 moveto
53793.1 77055.6 lineto
stroke
newpath
53544.6 75336 moveto
53544.6 74839 lineto
stroke
newpath
53296.1 75087.5 moveto
53793.1 75087.5 lineto
stroke
newpath
54113.7 76320.1 moveto
54113.7 75823.1 lineto
stroke
newpath
53865.2 76071.6 moveto
54362.2 76071.6 lineto
stroke
newpath
54682.7 77304.1 moveto
54682.7 76807.1 lineto
stroke
newpath
54434.2 77055.6 moveto
54931.3 77055.6 lineto
stroke
newpath
54682.7 75336 moveto
54682.7 74839 lineto
stroke
newpath
54434.2 75087.5 moveto
54931.3 75087.5 lineto
stroke
newpath
55251.8 76320.1 moveto
55251.8 75823.1 lineto
stroke
newpath
55003.3 76071.6 moveto
55500.3 76071.6 lineto
stroke
newpath
55820.9 77304.1 moveto
55820.9 76807.1 lineto
stroke
newpath
55572.4 77055.6 moveto
56069.4 77055.6 lineto
stroke
newpath
55820.9 75336 moveto
55820.9 74839 lineto
stroke
newpath
55572.4 75087.5 moveto
56069.4 75087.5 lineto
stroke
newpath
56390 76320.1 moveto
56390 75823.1 lineto
stroke
newpath
56141.5 76071.6 moveto
56638.5 76071.6 lineto
stroke
newpath
56959.1 77304.1 moveto
56959.1 76807.1 lineto
stroke
newpath
56710.6 77055.6 moveto
57207.6 77055.6 lineto
stroke
newpath
56959.1 75336 moveto
56959.1 74839 lineto
stroke
newpath
56710.6 75087.5 moveto
57207.6 75087.5 lineto
stroke
newpath
57528.1 76320.1 moveto
57528.1 75823.1 lineto
stroke
newpath
57279.6 76071.6 moveto
57776.6 76071.6 lineto
stroke
newpath
58097.2 77304.1 moveto
58097.2 76807.1 lineto
stroke
newpath
57848.7 77055.6 moveto
58345.7 77055.6 lineto
stroke
newpath
58097.2 75336 moveto
58097.2 74839 lineto
stroke
newpath
57848.7 75087.5 moveto
58345.7 75087.5 lineto
stroke
newpath
58666.3 76320.1 moveto
58666.3 75823.1 lineto
stroke
newpath
58417.8 76071.6 moveto
58914.8 76071.6 lineto
stroke
newpath
59235.4 77304.1 moveto
59235.4 76807.1 lineto
stroke
newpath
58986.9 77055.6 moveto
59483.9 77055.6 lineto
stroke
newpath
59235.4 75336 moveto
59235.4 74839 lineto
stroke
newpath
58986.9 75087.5 moveto
59483.9 75087.5 lineto
stroke
newpath
59804.4 76320.1 moveto
59804.4 75823.1 lineto
stroke
newpath
59555.9 76071.6 moveto
60052.9 76071.6 lineto
stroke
newpath
60373.5 77304.1 moveto
60373.5 76807.1 lineto
stroke
newpath
60125 77055.6 moveto
60622 77055.6 lineto
stroke
newpath
60373.5 75336 moveto
60373.5 74839 lineto
stroke
newpath
60125 75087.5 moveto
60622 75087.5 lineto
stroke
newpath
60942.6 76320.1 moveto
60942.6 75823.1 lineto
stroke
newpath
60694.1 76071.6 moveto
61191.1 76071.6 lineto
stroke
newpath
61511.7 77304.1 moveto
61511.7 76807.1 lineto
stroke
newpath
61263.2 77055.6 moveto
61760.2 77055.6 lineto
stroke
newpath
61511.7 75336 moveto
61511.7 74839 lineto
stroke
newpath
61263.2 75087.5 moveto
61760.2 75087.5 lineto
stroke
newpath
62080.8 76320.1 moveto
62080.8 75823.1 lineto
stroke
newpath
61832.2 76071.6 moveto
62329.3 76071.6 lineto
stroke
newpath
62649.8 77304.1 moveto
62649.8 76807.1 lineto
stroke
newpath
62401.3 77055.6 moveto
62898.3 77055.6 lineto
stroke
newpath
62649.8 75336 moveto
62649.8 74839 lineto
stroke
newpath
62401.3 75087.5 moveto
62898.3 75087.5 lineto
stroke
newpath
63218.9 76320.1 moveto
63218.9 75823.1 lineto
stroke
newpath
62970.4 76071.6 moveto
63467.4 76071.6 lineto
stroke
newpath
63788 77304.1 moveto
63788 76807.1 lineto
stroke
newpath
63539.5 77055.6 moveto
64036.5 77055.6 lineto
stroke
newpath
63788 75336 moveto
63788 74839 lineto
stroke
newpath
63539.5 75087.5 moveto
64036.5 75087.5 lineto
stroke
newpath
64357.1 76320.1 moveto
64357.1 75823.1 lineto
stroke
newpath
64108.6 76071.6 moveto
64605.6 76071.6 lineto
stroke
newpath
64926.1 77304.1 moveto
64926.1 76807.1 lineto
stroke
newpath
64677.6 77055.6 moveto
65174.6 77055.6 lineto
stroke
newpath
64926.1 75336 moveto
64926.1 74839 lineto
stroke
newpath
64677.6 75087.5 moveto
65174.6 75087.5 lineto
stroke
newpath
65495.2 76320.1 moveto
65495.2 75823.1 lineto
stroke
newpath
65246.7 76071.6 moveto
65743.7 76071.6 lineto
stroke
newpath
66064.3 77304.1 moveto
66064.3 76807.1 lineto
stroke
newpath
65815.8 77055.6 moveto
66312.8 77055.6 lineto
stroke
newpath
66064.3 75336 moveto
66064.3 74839 lineto
stroke
newpath
65815.8 75087.5 moveto
66312.8 75087.5 lineto
stroke
newpath
66633.4 76320.1 moveto
66633.4 75823.1 lineto
stroke
newpath
66384.9 76071.6 moveto
66881.9 76071.6 lineto
stroke
newpath
50087.9 40058.2 moveto
50087.9 39561.2 lineto
stroke
newpath
49839.4 39809.7 moveto
50336.4 39809.7 lineto
stroke
newpath
50657 41042.2 moveto
50657 40545.2 lineto
stroke
newpath
50408.5 40793.7 moveto
50905.5 40793.7 lineto
stroke
newpath
50657 39074.1 moveto
50657 38577.1 lineto
stroke
newpath
50408.5 38825.6 moveto
50905.5 38825.6 lineto
stroke
newpath
51226 40058.2 moveto
51226 39561.2 lineto
stroke
newpath
50977.5 39809.7 moveto
51474.5 39809.7 lineto
stroke
newpath
51795.1 41042.2 moveto
51795.1 40545.2 lineto
stroke
newpath
51546.6 40793.7 moveto
52043.6 40793.7 lineto
stroke
newpath
51795.1 39074.1 moveto
51795.1 38577.1 lineto
stroke
newpath
51546.6 38825.6 moveto
52043.6 38825.6 lineto
stroke
newpath
52364.2 40058.2 moveto
52364.2 39561.2 lineto
stroke
newpath
52115.7 39809.7 moveto
52612.7 39809.7 lineto
stroke
newpath
52933.3 41042.2 moveto
52933.3 40545.2 lineto
stroke
newpath
52684.8 40793.7 moveto
53181.8 40793.7 lineto
stroke
newpath
52933.3 39074.1 moveto
52933.3 38577.1 lineto
stroke
newpath
52684.8 38825.6 moveto
53181.8 38825.6 lineto
stroke
newpath
53502.3 40058.2 moveto
53502.3 39561.2 lineto
stroke
newpath
53253.8 39809.7 moveto
53750.9 39809.7 lineto
stroke
newpath
54071.4 41042.2 moveto
54071.4 40545.2 lineto
stroke
newpath
53822.9 40793.7 moveto
54319.9 40793.7 lineto
stroke
newpath
54071.4 39074.1 moveto
54071.4 38577.1 lineto
stroke
newpath
53822.9 38825.6 moveto
54319.9 38825.6 lineto
stroke
newpath
54640.5 40058.2 moveto
54640.5 39561.2 lineto
stroke
newpath
54392 39809.7 moveto
54889 39809.7 lineto
stroke
newpath
55209.6 41042.2 moveto
55209.6 40545.2 lineto
stroke
newpath
54961.1 40793.7 moveto
55458.1 40793.7 lineto
stroke
newpath
55209.6 39074.1 moveto
55209.6 38577.1 lineto
stroke
newpath
54961.1 38825.6 moveto
55458.1 38825.6 lineto
stroke
newpath
55778.7 40058.2 moveto
55778.7 39561.2 lineto
stroke
newpath
55530.2 39809.7 moveto
56027.2 39809.7 lineto
stroke
newpath
56347.7 41042.2 moveto
56347.7 40545.2 lineto
stroke
newpath
56099.2 40793.7 moveto
56596.2 40793.7 lineto
stroke
newpath
56347.7 39074.1 moveto
56347.7 38577.1 lineto
stroke
newpath
56099.2 38825.6 moveto
56596.2 38825.6 lineto
stroke
newpath
56916.8 40058.2 moveto
56916.8 39561.2 lineto
stroke
newpath
56668.3 39809.7 moveto
57165.3 39809.7 lineto
stroke
newpath
57485.9 41042.2 moveto
57485.9 40545.2 lineto
stroke
newpath
57237.4 40793.7 moveto
57734.4 40793.7 lineto
stroke
newpath
57485.9 39074.1 moveto
57485.9 38577.1 lineto
stroke
newpath
57237.4 38825.6 moveto
57734.4 38825.6 lineto
stroke
newpath
58055 40058.2 moveto
58055 39561.2 lineto
stroke
newpath
57806.5 39809.7 moveto
58303.5 39809.7 lineto
stroke
newpath
58624 41042.2 moveto
58624 40545.2 lineto
stroke
newpath
58375.5 40793.7 moveto
58872.5 40793.7 lineto
stroke
newpath
58624 39074.1 moveto
58624 38577.1 lineto
stroke
newpath
58375.5 38825.6 moveto
58872.5 38825.6 lineto
stroke
newpath
59193.1 40058.2 moveto
59193.1 39561.2 lineto
stroke
newpath
58944.6 39809.7 moveto
59441.6 39809.7 lineto
stroke
newpath
59762.2 41042.2 moveto
59762.2 40545.2 lineto
stroke
newpath
59513.7 40793.7 moveto
60010.7 40793.7 lineto
stroke
newpath
59762.2 39074.1 moveto
59762.2 38577.1 lineto
stroke
newpath
59513.7 38825.6 moveto
60010.7 38825.6 lineto
stroke
newpath
60331.3 40058.2 moveto
60331.3 39561.2 lineto
stroke
newpath
60082.8 39809.7 moveto
60579.8 39809.7 lineto
stroke
newpath
60900.4 41042.2 moveto
60900.4 40545.2 lineto
stroke
newpath
60651.8 40793.7 moveto
61148.9 40793.7 lineto
stroke
newpath
60900.4 39074.1 moveto
60900.4 38577.1 lineto
stroke
newpath
60651.8 38825.6 moveto
61148.9 38825.6 lineto
stroke
newpath
61469.4 40058.2 moveto
61469.4 39561.2 lineto
stroke
newpath
61220.9 39809.7 moveto
61717.9 39809.7 lineto
stroke
newpath
62038.5 41042.2 moveto
62038.5 40545.2 lineto
stroke
newpath
61790 40793.7 moveto
62287 40793.7 lineto
stroke
newpath
62038.5 39074.1 moveto
62038.5 38577.1 lineto
stroke
newpath
61790 38825.6 moveto
62287 38825.6 lineto
stroke
newpath
62607.6 40058.2 moveto
62607.6 39561.2 lineto
stroke
newpath
62359.1 39809.7 moveto
62856.1 39809.7 lineto
stroke
newpath
63176.7 41042.2 moveto
63176.7 40545.2 lineto
stroke
newpath
62928.2 40793.7 moveto
63425.2 40793.7 lineto
stroke
newpath
63176.7 39074.1 moveto
63176.7 38577.1 lineto
stroke
newpath
62928.2 38825.6 moveto
63425.2 38825.6 lineto
stroke
newpath
63745.7 40058.2 moveto
63745.7 39561.2 lineto
stroke
newpath
63497.2 39809.7 moveto
63994.2 39809.7 lineto
stroke
newpath
64314.8 41042.2 moveto
64314.8 40545.2 lineto
stroke
newpath
64066.3 40793.7 moveto
64563.3 40793.7 lineto
stroke
newpath
64314.8 39074.1 moveto
64314.8 38577.1 lineto
stroke
newpath
64066.3 38825.6 moveto
64563.3 38825.6 lineto
stroke
newpath
64883.9 40058.2 moveto
64883.9 39561.2 lineto
stroke
newpath
64635.4 39809.7 moveto
65132.4 39809.7 lineto
stroke
newpath
65453 41042.2 moveto
65453 40545.2 lineto
stroke
newpath
65204.5 40793.7 moveto
65701.5 40793.7 lineto
stroke
newpath
65453 39074.1 moveto
65453 38577.1 lineto
stroke
newpath
65204.5 38825.6 moveto
65701.5 38825.6 lineto
stroke
newpath
66022 40058.2 moveto
66022 39561.2 lineto
stroke
newpath
65773.5 39809.7 moveto
66270.6 39809.7 lineto
stroke
newpath
66591.1 41042.2 moveto
66591.1 40545.2 lineto
stroke
newpath
66342.6 40793.7 moveto
66839.6 40793.7 lineto
stroke
newpath
41601 77264.8 moveto
41601 77621.8 lineto
41244 77621.8 lineto
41244 77264.8 lineto
41601 77264.8 lineto
poly0
newpath
41601 76002.4 moveto
41601 76359.4 lineto
41244 76359.4 lineto
41244 76002.4 lineto
41601 76002.4 lineto
poly0
newpath
41601 74740 moveto
41601 75097 lineto
41244 75097 lineto
41244 74740 lineto
41601 74740 lineto
poly0
newpath
41601 73477.6 moveto
41601 73834.6 lineto
41244 73834.6 lineto
41244 73477.6 lineto
41601 73477.6 lineto
poly0
newpath
41601 72215.1 moveto
41601 72572.2 lineto
41244 72572.2 lineto
41244 72215.1 lineto
41601 72215.1 lineto
poly0
newpath
41601 70952.7 moveto
41601 71309.8 lineto
41244 71309.8 lineto
41244 70952.7 lineto
41601 70952.7 lineto
poly0
newpath
41601 69690.3 moveto
41601 70047.4 lineto
41244 70047.4 lineto
41244 69690.3 lineto
41601 69690.3 lineto
poly0
newpath
41601 68427.9 moveto
41601 68785 lineto
41244 68785 lineto
41244 68427.9 lineto
41601 68427.9 lineto
poly0
newpath
41601 67165.5 moveto
41601 67522.6 lineto
41244 67522.6 lineto
41244 67165.5 lineto
41601 67165.5 lineto
poly0
newpath
41601 65903.1 moveto
41601 66260.2 lineto
41244 66260.2 lineto
41244 65903.1 lineto
41601 65903.1 lineto
poly0
newpath
41601 64640.7 moveto
41601 64997.8 lineto
41244 64997.8 lineto
41244 64640.7 lineto
41601 64640.7 lineto
poly0
newpath
41601 63378.3 moveto
41601 63735.4 lineto
41244 63735.4 lineto
41244 63378.3 lineto
41601 63378.3 lineto
poly0
newpath
41601 62115.9 moveto
41601 62473 lineto
41244 62473 lineto
41244 62115.9 lineto
41601 62115.9 lineto
poly0
newpath
41601 60853.5 moveto
41601 61210.6 lineto
41244 61210.6 lineto
41244 60853.5 lineto
41601 60853.5 lineto
poly0
newpath
41601 59591.1 moveto
41601 59948.1 lineto
41244 59948.1 lineto
41244 59591.1 lineto
41601 59591.1 lineto
poly0
newpath
41601 58328.7 moveto
41601 58685.7 lineto
41244 58685.7 lineto
41244 58328.7 lineto
41601 58328.7 lineto
poly0
newpath
41601 57066.3 moveto
41601 57423.3 lineto
41244 57423.3 lineto
41244 57066.3 lineto
41601 57066.3 lineto
poly0
newpath
41601 55803.9 moveto
41601 56160.9 lineto
41244 56160.9 lineto
41244 55803.9 lineto
41601 55803.9 lineto
poly0
newpath
41601 54541.4 moveto
41601 54898.5 lineto
41244 54898.5 lineto
41244 54541.4 lineto
41601 54541.4 lineto
poly0
newpath
41601 53279 moveto
41601 53636.1 lineto
41244 53636.1 lineto
41244 53279 lineto
41601 53279 lineto
poly0
newpath
41601 52016.6 moveto
41601 52373.7 lineto
41244 52373.7 lineto
41244 52016.6 lineto
41601 52016.6 lineto
poly0
newpath
41601 50754.2 moveto
41601 51111.3 lineto
41244 51111.3 lineto
41244 50754.2 lineto
41601 50754.2 lineto
poly0
newpath
41601 49491.8 moveto
41601 49848.9 lineto
41244 49848.9 lineto
41244 49491.8 lineto
41601 49491.8 lineto
poly0
newpath
41601 48229.4 moveto
41601 48586.5 lineto
41244 48586.5 lineto
41244 48229.4 lineto
41601 48229.4 lineto
poly0
newpath
41601 46967 moveto
41601 47324.1 lineto
41244 47324.1 lineto
41244 46967 lineto
41601 46967 lineto
poly0
newpath
41601 45704.6 moveto
41601 46061.7 lineto
41244 46061.7 lineto
41244 45704.6 lineto
41601 45704.6 lineto
poly0
newpath
41601 44442.2 moveto
41601 44799.3 lineto
41244 44799.3 lineto
41244 44442.2 lineto
41601 44442.2 lineto
poly0
newpath
41601 43179.8 moveto
41601 43536.9 lineto
41244 43536.9 lineto
41244 43179.8 lineto
41601 43179.8 lineto
poly0
newpath
41601 41917.4 moveto
41601 42274.4 lineto
41244 42274.4 lineto
41244 41917.4 lineto
41601 41917.4 lineto
poly0
newpath
41601 40655 moveto
41601 41012 lineto
41244 41012 lineto
41244 40655 lineto
41601 40655 lineto
poly0
newpath
41601 39392.6 moveto
41601 39749.6 lineto
41244 39749.6 lineto
41244 39392.6 lineto
41601 39392.6 lineto
poly0
newpath
41601 38130.2 moveto
41601 38487.2 lineto
41244 38487.2 lineto
41244 38130.2 lineto
41601 38130.2 lineto
poly0
newpath
42863.4 77264.8 moveto
42863.4 77621.8 lineto
42506.4 77621.8 lineto
42506.4 77264.8 lineto
42863.4 77264.8 lineto
poly0
newpath
42863.4 76002.4 moveto
42863.4 76359.4 lineto
42506.4 76359.4 lineto
42506.4 76002.4 lineto
42863.4 76002.4 lineto
poly0
newpath
42863.4 74740 moveto
42863.4 75097 lineto
42506.4 75097 lineto
42506.4 74740 lineto
42863.4 74740 lineto
poly0
newpath
42863.4 73477.6 moveto
42863.4 73834.6 lineto
42506.4 73834.6 lineto
42506.4 73477.6 lineto
42863.4 73477.6 lineto
poly0
newpath
42863.4 72215.1 moveto
42863.4 72572.2 lineto
42506.4 72572.2 lineto
42506.4 72215.1 lineto
42863.4 72215.1 lineto
poly0
newpath
42863.4 70952.7 moveto
42863.4 71309.8 lineto
42506.4 71309.8 lineto
42506.4 70952.7 lineto
42863.4 70952.7 lineto
poly0
newpath
42863.4 69690.3 moveto
42863.4 70047.4 lineto
42506.4 70047.4 lineto
42506.4 69690.3 lineto
42863.4 69690.3 lineto
poly0
newpath
42863.4 68427.9 moveto
42863.4 68785 lineto
42506.4 68785 lineto
42506.4 68427.9 lineto
42863.4 68427.9 lineto
poly0
newpath
42863.4 67165.5 moveto
42863.4 67522.6 lineto
42506.4 67522.6 lineto
42506.4 67165.5 lineto
42863.4 67165.5 lineto
poly0
newpath
42863.4 65903.1 moveto
42863.4 66260.2 lineto
42506.4 66260.2 lineto
42506.4 65903.1 lineto
42863.4 65903.1 lineto
poly0
newpath
42863.4 64640.7 moveto
42863.4 64997.8 lineto
42506.4 64997.8 lineto
42506.4 64640.7 lineto
42863.4 64640.7 lineto
poly0
newpath
42863.4 63378.3 moveto
42863.4 63735.4 lineto
42506.4 63735.4 lineto
42506.4 63378.3 lineto
42863.4 63378.3 lineto
poly0
newpath
42863.4 62115.9 moveto
42863.4 62473 lineto
42506.4 62473 lineto
42506.4 62115.9 lineto
42863.4 62115.9 lineto
poly0
newpath
42863.4 60853.5 moveto
42863.4 61210.6 lineto
42506.4 61210.6 lineto
42506.4 60853.5 lineto
42863.4 60853.5 lineto
poly0
newpath
42863.4 59591.1 moveto
42863.4 59948.1 lineto
42506.4 59948.1 lineto
42506.4 59591.1 lineto
42863.4 59591.1 lineto
poly0
newpath
42863.4 58328.7 moveto
42863.4 58685.7 lineto
42506.4 58685.7 lineto
42506.4 58328.7 lineto
42863.4 58328.7 lineto
poly0
newpath
42863.4 57066.3 moveto
42863.4 57423.3 lineto
42506.4 57423.3 lineto
42506.4 57066.3 lineto
42863.4 57066.3 lineto
poly0
newpath
42863.4 55803.9 moveto
42863.4 56160.9 lineto
42506.4 56160.9 lineto
42506.4 55803.9 lineto
42863.4 55803.9 lineto
poly0
newpath
42863.4 54541.4 moveto
42863.4 54898.5 lineto
42506.4 54898.5 lineto
42506.4 54541.4 lineto
42863.4 54541.4 lineto
poly0
newpath
42863.4 53279 moveto
42863.4 53636.1 lineto
42506.4 53636.1 lineto
42506.4 53279 lineto
42863.4 53279 lineto
poly0
newpath
42863.4 52016.6 moveto
42863.4 52373.7 lineto
42506.4 52373.7 lineto
42506.4 52016.6 lineto
42863.4 52016.6 lineto
poly0
newpath
42863.4 50754.2 moveto
42863.4 51111.3 lineto
42506.4 51111.3 lineto
42506.4 50754.2 lineto
42863.4 50754.2 lineto
poly0
newpath
42863.4 49491.8 moveto
42863.4 49848.9 lineto
42506.4 49848.9 lineto
42506.4 49491.8 lineto
42863.4 49491.8 lineto
poly0
newpath
42863.4 48229.4 moveto
42863.4 48586.5 lineto
42506.4 48586.5 lineto
42506.4 48229.4 lineto
42863.4 48229.4 lineto
poly0
newpath
42863.4 46967 moveto
42863.4 47324.1 lineto
42506.4 47324.1 lineto
42506.4 46967 lineto
42863.4 46967 lineto
poly0
newpath
42863.4 45704.6 moveto
42863.4 46061.7 lineto
42506.4 46061.7 lineto
42506.4 45704.6 lineto
42863.4 45704.6 lineto
poly0
newpath
42863.4 44442.2 moveto
42863.4 44799.3 lineto
42506.4 44799.3 lineto
42506.4 44442.2 lineto
42863.4 44442.2 lineto
poly0
newpath
42863.4 43179.8 moveto
42863.4 43536.9 lineto
42506.4 43536.9 lineto
42506.4 43179.8 lineto
42863.4 43179.8 lineto
poly0
newpath
42863.4 41917.4 moveto
42863.4 42274.4 lineto
42506.4 42274.4 lineto
42506.4 41917.4 lineto
42863.4 41917.4 lineto
poly0
newpath
42863.4 40655 moveto
42863.4 41012 lineto
42506.4 41012 lineto
42506.4 40655 lineto
42863.4 40655 lineto
poly0
newpath
42863.4 39392.6 moveto
42863.4 39749.6 lineto
42506.4 39749.6 lineto
42506.4 39392.6 lineto
42863.4 39392.6 lineto
poly0
newpath
42863.4 38130.2 moveto
42863.4 38487.2 lineto
42506.4 38487.2 lineto
42506.4 38130.2 lineto
42863.4 38130.2 lineto
poly0
newpath
74423.6 77264.8 moveto
74423.6 77621.8 lineto
74066.6 77621.8 lineto
74066.6 77264.8 lineto
74423.6 77264.8 lineto
poly0
newpath
74423.6 76002.4 moveto
74423.6 76359.4 lineto
74066.6 76359.4 lineto
74066.6 76002.4 lineto
74423.6 76002.4 lineto
poly0
newpath
74423.6 74740 moveto
74423.6 75097 lineto
74066.6 75097 lineto
74066.6 74740 lineto
74423.6 74740 lineto
poly0
newpath
74423.6 73477.6 moveto
74423.6 73834.6 lineto
74066.6 73834.6 lineto
74066.6 73477.6 lineto
74423.6 73477.6 lineto
poly0
newpath
74423.6 72215.1 moveto
74423.6 72572.2 lineto
74066.6 72572.2 lineto
74066.6 72215.1 lineto
74423.6 72215.1 lineto
poly0
newpath
74423.6 70952.7 moveto
74423.6 71309.8 lineto
74066.6 71309.8 lineto
74066.6 70952.7 lineto
74423.6 70952.7 lineto
poly0
newpath
74423.6 69690.3 moveto
74423.6 70047.4 lineto
74066.6 70047.4 lineto
74066.6 69690.3 lineto
74423.6 69690.3 lineto
poly0
newpath
74423.6 68427.9 moveto
74423.6 68785 lineto
74066.6 68785 lineto
74066.6 68427.9 lineto
74423.6 68427.9 lineto
poly0
newpath
74423.6 67165.5 moveto
74423.6 67522.6 lineto
74066.6 67522.6 lineto
74066.6 67165.5 lineto
74423.6 67165.5 lineto
poly0
newpath
74423.6 65903.1 moveto
74423.6 66260.2 lineto
74066.6 66260.2 lineto
74066.6 65903.1 lineto
74423.6 65903.1 lineto
poly0
newpath
74423.6 64640.7 moveto
74423.6 64997.8 lineto
74066.6 64997.8 lineto
74066.6 64640.7 lineto
74423.6 64640.7 lineto
poly0
newpath
74423.6 63378.3 moveto
74423.6 63735.4 lineto
74066.6 63735.4 lineto
74066.6 63378.3 lineto
74423.6 63378.3 lineto
poly0
newpath
74423.6 62115.9 moveto
74423.6 62473 lineto
74066.6 62473 lineto
74066.6 62115.9 lineto
74423.6 62115.9 lineto
poly0
newpath
74423.6 60853.5 moveto
74423.6 61210.6 lineto
74066.6 61210.6 lineto
74066.6 60853.5 lineto
74423.6 60853.5 lineto
poly0
newpath
74423.6 59591.1 moveto
74423.6 59948.1 lineto
74066.6 59948.1 lineto
74066.6 59591.1 lineto
74423.6 59591.1 lineto
poly0
newpath
74423.6 58328.7 moveto
74423.6 58685.7 lineto
74066.6 58685.7 lineto
74066.6 58328.7 lineto
74423.6 58328.7 lineto
poly0
newpath
74423.6 57066.3 moveto
74423.6 57423.3 lineto
74066.6 57423.3 lineto
74066.6 57066.3 lineto
74423.6 57066.3 lineto
poly0
newpath
74423.6 55803.9 moveto
74423.6 56160.9 lineto
74066.6 56160.9 lineto
74066.6 55803.9 lineto
74423.6 55803.9 lineto
poly0
newpath
74423.6 54541.4 moveto
74423.6 54898.5 lineto
74066.6 54898.5 lineto
74066.6 54541.4 lineto
74423.6 54541.4 lineto
poly0
newpath
74423.6 53279 moveto
74423.6 53636.1 lineto
74066.6 53636.1 lineto
74066.6 53279 lineto
74423.6 53279 lineto
poly0
newpath
74423.6 52016.6 moveto
74423.6 52373.7 lineto
74066.6 52373.7 lineto
74066.6 52016.6 lineto
74423.6 52016.6 lineto
poly0
newpath
74423.6 50754.2 moveto
74423.6 51111.3 lineto
74066.6 51111.3 lineto
74066.6 50754.2 lineto
74423.6 50754.2 lineto
poly0
newpath
74423.6 49491.8 moveto
74423.6 49848.9 lineto
74066.6 49848.9 lineto
74066.6 49491.8 lineto
74423.6 49491.8 lineto
poly0
newpath
74423.6 48229.4 moveto
74423.6 48586.5 lineto
74066.6 48586.5 lineto
74066.6 48229.4 lineto
74423.6 48229.4 lineto
poly0
newpath
74423.6 46967 moveto
74423.6 47324.1 lineto
74066.6 47324.1 lineto
74066.6 46967 lineto
74423.6 46967 lineto
poly0
newpath
74423.6 45704.6 moveto
74423.6 46061.7 lineto
74066.6 46061.7 lineto
74066.6 45704.6 lineto
74423.6 45704.6 lineto
poly0
newpath
74423.6 44442.2 moveto
74423.6 44799.3 lineto
74066.6 44799.3 lineto
74066.6 44442.2 lineto
74423.6 44442.2 lineto
poly0
newpath
74423.6 43179.8 moveto
74423.6 43536.9 lineto
74066.6 43536.9 lineto
74066.6 43179.8 lineto
74423.6 43179.8 lineto
poly0
newpath
74423.6 41917.4 moveto
74423.6 42274.4 lineto
74066.6 42274.4 lineto
74066.6 41917.4 lineto
74423.6 41917.4 lineto
poly0
newpath
74423.6 40655 moveto
74423.6 41012 lineto
74066.6 41012 lineto
74066.6 40655 lineto
74423.6 40655 lineto
poly0
newpath
74423.6 39392.6 moveto
74423.6 39749.6 lineto
74066.6 39749.6 lineto
74066.6 39392.6 lineto
74423.6 39392.6 lineto
poly0
newpath
74423.6 38130.2 moveto
74423.6 38487.2 lineto
74066.6 38487.2 lineto
74066.6 38130.2 lineto
74423.6 38130.2 lineto
poly0
newpath
75686 77264.8 moveto
75686 77621.8 lineto
75329 77621.8 lineto
75329 77264.8 lineto
75686 77264.8 lineto
poly0
newpath
75686 76002.4 moveto
75686 76359.4 lineto
75329 76359.4 lineto
75329 76002.4 lineto
75686 76002.4 lineto
poly0
newpath
75686 74740 moveto
75686 75097 lineto
75329 75097 lineto
75329 74740 lineto
75686 74740 lineto
poly0
newpath
75686 73477.6 moveto
75686 73834.6 lineto
75329 73834.6 lineto
75329 73477.6 lineto
75686 73477.6 lineto
poly0
newpath
75686 72215.1 moveto
75686 72572.2 lineto
75329 72572.2 lineto
75329 72215.1 lineto
75686 72215.1 lineto
poly0
newpath
75686 70952.7 moveto
75686 71309.8 lineto
75329 71309.8 lineto
75329 70952.7 lineto
75686 70952.7 lineto
poly0
newpath
75686 69690.3 moveto
75686 70047.4 lineto
75329 70047.4 lineto
75329 69690.3 lineto
75686 69690.3 lineto
poly0
newpath
75686 68427.9 moveto
75686 68785 lineto
75329 68785 lineto
75329 68427.9 lineto
75686 68427.9 lineto
poly0
newpath
75686 67165.5 moveto
75686 67522.6 lineto
75329 67522.6 lineto
75329 67165.5 lineto
75686 67165.5 lineto
poly0
newpath
75686 65903.1 moveto
75686 66260.2 lineto
75329 66260.2 lineto
75329 65903.1 lineto
75686 65903.1 lineto
poly0
newpath
75686 64640.7 moveto
75686 64997.8 lineto
75329 64997.8 lineto
75329 64640.7 lineto
75686 64640.7 lineto
poly0
newpath
75686 63378.3 moveto
75686 63735.4 lineto
75329 63735.4 lineto
75329 63378.3 lineto
75686 63378.3 lineto
poly0
newpath
75686 62115.9 moveto
75686 62473 lineto
75329 62473 lineto
75329 62115.9 lineto
75686 62115.9 lineto
poly0
newpath
75686 60853.5 moveto
75686 61210.6 lineto
75329 61210.6 lineto
75329 60853.5 lineto
75686 60853.5 lineto
poly0
newpath
75686 59591.1 moveto
75686 59948.1 lineto
75329 59948.1 lineto
75329 59591.1 lineto
75686 59591.1 lineto
poly0
newpath
75686 58328.7 moveto
75686 58685.7 lineto
75329 58685.7 lineto
75329 58328.7 lineto
75686 58328.7 lineto
poly0
newpath
75686 57066.3 moveto
75686 57423.3 lineto
75329 57423.3 lineto
75329 57066.3 lineto
75686 57066.3 lineto
poly0
newpath
75686 55803.9 moveto
75686 56160.9 lineto
75329 56160.9 lineto
75329 55803.9 lineto
75686 55803.9 lineto
poly0
newpath
75686 54541.4 moveto
75686 54898.5 lineto
75329 54898.5 lineto
75329 54541.4 lineto
75686 54541.4 lineto
poly0
newpath
75686 53279 moveto
75686 53636.1 lineto
75329 53636.1 lineto
75329 53279 lineto
75686 53279 lineto
poly0
newpath
75686 52016.6 moveto
75686 52373.7 lineto
75329 52373.7 lineto
75329 52016.6 lineto
75686 52016.6 lineto
poly0
newpath
75686 50754.2 moveto
75686 51111.3 lineto
75329 51111.3 lineto
75329 50754.2 lineto
75686 50754.2 lineto
poly0
newpath
75686 49491.8 moveto
75686 49848.9 lineto
75329 49848.9 lineto
75329 49491.8 lineto
75686 49491.8 lineto
poly0
newpath
75686 48229.4 moveto
75686 48586.5 lineto
75329 48586.5 lineto
75329 48229.4 lineto
75686 48229.4 lineto
poly0
newpath
75686 46967 moveto
75686 47324.1 lineto
75329 47324.1 lineto
75329 46967 lineto
75686 46967 lineto
poly0
newpath
75686 45704.6 moveto
75686 46061.7 lineto
75329 46061.7 lineto
75329 45704.6 lineto
75686 45704.6 lineto
poly0
newpath
75686 44442.2 moveto
75686 44799.3 lineto
75329 44799.3 lineto
75329 44442.2 lineto
75686 44442.2 lineto
poly0
newpath
75686 43179.8 moveto
75686 43536.9 lineto
75329 43536.9 lineto
75329 43179.8 lineto
75686 43179.8 lineto
poly0
newpath
75686 41917.4 moveto
75686 42274.4 lineto
75329 42274.4 lineto
75329 41917.4 lineto
75686 41917.4 lineto
poly0
newpath
75686 40655 moveto
75686 41012 lineto
75329 41012 lineto
75329 40655 lineto
75686 40655 lineto
poly0
newpath
75686 39392.6 moveto
75686 39749.6 lineto
75329 39749.6 lineto
75329 39392.6 lineto
75686 39392.6 lineto
poly0
newpath
75686 38130.2 moveto
75686 38487.2 lineto
75329 38487.2 lineto
75329 38130.2 lineto
75686 38130.2 lineto
poly0
newpath
46643.6 75311.1 moveto
47438.8 76106.4 lineto
46643.6 76901.6 lineto
45848.4 76106.4 lineto
46643.6 75311.1 lineto
poly0
newpath
70052.8 75311.1 moveto
70848 76106.4 lineto
70052.8 76901.6 lineto
69257.6 76106.4 lineto
70052.8 75311.1 lineto
poly0
newpath
46668.5 38979.7 moveto
47463.7 39774.9 lineto
46668.5 40570.1 lineto
45873.2 39774.9 lineto
46668.5 38979.7 lineto
poly0
newpath
70077.7 38979.7 moveto
70872.9 39774.9 lineto
70077.7 40570.1 lineto
69282.4 39774.9 lineto
70077.7 38979.7 lineto
poly0
118.11 setlinewidth
0 0 0 setrgbcolor
0 0 0 setrgbcolor
newpath
41250.5 35175.5 moveto
41250.5 36356.6 lineto
41531.7 36356.6 lineto
41700.4 36300.3 lineto
41812.9 36187.9 lineto
41869.2 36075.4 lineto
41925.4 35850.4 lineto
41925.4 35681.7 lineto
41869.2 35456.7 lineto
41812.9 35344.2 lineto
41700.4 35231.7 lineto
41531.7 35175.5 lineto
41250.5 35175.5 lineto
stroke
newpath
42431.6 35175.5 moveto
42431.6 35962.9 lineto
stroke
newpath
42431.6 35737.9 moveto
42487.8 35850.4 lineto
42544.1 35906.6 lineto
42656.6 35962.9 lineto
42769.1 35962.9 lineto
stroke
newpath
43162.8 35175.5 moveto
43162.8 35962.9 lineto
stroke
newpath
43162.8 36356.6 moveto
43106.5 36300.3 lineto
43162.8 36244.1 lineto
43219 36300.3 lineto
43162.8 36356.6 lineto
43162.8 36244.1 lineto
stroke
newpath
43893.9 35175.5 moveto
43781.4 35231.7 lineto
43725.2 35344.2 lineto
43725.2 36356.6 lineto
stroke
newpath
44512.6 35175.5 moveto
44400.1 35231.7 lineto
44343.9 35344.2 lineto
44343.9 36356.6 lineto
stroke
newpath
45862.4 35175.5 moveto
45862.4 36356.6 lineto
46256.1 35512.9 lineto
46649.8 36356.6 lineto
46649.8 35175.5 lineto
stroke
newpath
47718.4 35175.5 moveto
47718.4 35794.2 lineto
47662.2 35906.6 lineto
47549.7 35962.9 lineto
47324.7 35962.9 lineto
47212.2 35906.6 lineto
stroke
newpath
47718.4 35231.7 moveto
47605.9 35175.5 lineto
47324.7 35175.5 lineto
47212.2 35231.7 lineto
47156 35344.2 lineto
47156 35456.7 lineto
47212.2 35569.2 lineto
47324.7 35625.4 lineto
47605.9 35625.4 lineto
47718.4 35681.7 lineto
stroke
newpath
48280.9 35962.9 moveto
48280.9 34781.8 lineto
stroke
newpath
48280.9 35906.6 moveto
48393.4 35962.9 lineto
48618.3 35962.9 lineto
48730.8 35906.6 lineto
48787.1 35850.4 lineto
48843.3 35737.9 lineto
48843.3 35400.5 lineto
48787.1 35288 lineto
48730.8 35231.7 lineto
48618.3 35175.5 lineto
48393.4 35175.5 lineto
48280.9 35231.7 lineto
stroke
newpath
49349.5 35288 moveto
49405.7 35231.7 lineto
49349.5 35175.5 lineto
49293.2 35231.7 lineto
49349.5 35288 lineto
49349.5 35175.5 lineto
stroke
newpath
49349.5 35906.6 moveto
49405.7 35850.4 lineto
49349.5 35794.2 lineto
49293.2 35850.4 lineto
49349.5 35906.6 lineto
49349.5 35794.2 lineto
stroke
newpath
39971.3 33305.2 moveto
40122.8 33153.7 lineto
stroke
newpath
40122.8 33305.2 moveto
39971.3 33153.7 lineto
stroke
0 0 0 setrgbcolor
0 0 0 setrgbcolor
newpath
41475.5 33876.3 moveto
41588 33876.3 lineto
41700.4 33820 lineto
41756.7 33763.8 lineto
41812.9 33651.3 lineto
41869.2 33426.3 lineto
41869.2 33145.1 lineto
41812.9 32920.1 lineto
41756.7 32807.7 lineto
41700.4 32751.4 lineto
41588 32695.2 lineto
41475.5 32695.2 lineto
41363 32751.4 lineto
41306.7 32807.7 lineto
41250.5 32920.1 lineto
41194.3 33145.1 lineto
41194.3 33426.3 lineto
41250.5 33651.3 lineto
41306.7 33763.8 lineto
41363 33820 lineto
41475.5 33876.3 lineto
stroke
newpath
42375.4 32807.7 moveto
42431.6 32751.4 lineto
42375.4 32695.2 lineto
42319.1 32751.4 lineto
42375.4 32807.7 lineto
42375.4 32695.2 lineto
stroke
newpath
42825.3 33876.3 moveto
43556.5 33876.3 lineto
43162.8 33426.3 lineto
43331.5 33426.3 lineto
43444 33370.1 lineto
43500.2 33313.8 lineto
43556.5 33201.4 lineto
43556.5 32920.1 lineto
43500.2 32807.7 lineto
43444 32751.4 lineto
43331.5 32695.2 lineto
42994 32695.2 lineto
42881.5 32751.4 lineto
42825.3 32807.7 lineto
stroke
newpath
44287.6 33876.3 moveto
44400.1 33876.3 lineto
44512.6 33820 lineto
44568.8 33763.8 lineto
44625.1 33651.3 lineto
44681.3 33426.3 lineto
44681.3 33145.1 lineto
44625.1 32920.1 lineto
44568.8 32807.7 lineto
44512.6 32751.4 lineto
44400.1 32695.2 lineto
44287.6 32695.2 lineto
44175.1 32751.4 lineto
44118.9 32807.7 lineto
44062.6 32920.1 lineto
44006.4 33145.1 lineto
44006.4 33426.3 lineto
44062.6 33651.3 lineto
44118.9 33763.8 lineto
44175.1 33820 lineto
44287.6 33876.3 lineto
stroke
newpath
45187.5 32695.2 moveto
45187.5 33482.6 lineto
stroke
newpath
45187.5 33370.1 moveto
45243.7 33426.3 lineto
45356.2 33482.6 lineto
45525 33482.6 lineto
45637.4 33426.3 lineto
45693.7 33313.8 lineto
45693.7 32695.2 lineto
stroke
newpath
45693.7 33313.8 moveto
45749.9 33426.3 lineto
45862.4 33482.6 lineto
46031.1 33482.6 lineto
46143.6 33426.3 lineto
46199.9 33313.8 lineto
46199.9 32695.2 lineto
stroke
newpath
46762.3 32695.2 moveto
46762.3 33482.6 lineto
stroke
newpath
46762.3 33370.1 moveto
46818.5 33426.3 lineto
46931 33482.6 lineto
47099.8 33482.6 lineto
47212.2 33426.3 lineto
47268.5 33313.8 lineto
47268.5 32695.2 lineto
stroke
newpath
47268.5 33313.8 moveto
47324.7 33426.3 lineto
47437.2 33482.6 lineto
47605.9 33482.6 lineto
47718.4 33426.3 lineto
47774.7 33313.8 lineto
47774.7 32695.2 lineto
stroke
newpath
50080.6 33932.5 moveto
49068.3 32414 lineto
stroke
newpath
51599.2 33876.3 moveto
51711.7 33876.3 lineto
51824.2 33820 lineto
51880.4 33763.8 lineto
51936.7 33651.3 lineto
51992.9 33426.3 lineto
51992.9 33145.1 lineto
51936.7 32920.1 lineto
51880.4 32807.7 lineto
51824.2 32751.4 lineto
51711.7 32695.2 lineto
51599.2 32695.2 lineto
51486.7 32751.4 lineto
51430.5 32807.7 lineto
51374.2 32920.1 lineto
51318 33145.1 lineto
51318 33426.3 lineto
51374.2 33651.3 lineto
51430.5 33763.8 lineto
51486.7 33820 lineto
51599.2 33876.3 lineto
stroke
newpath
52499.1 32807.7 moveto
52555.3 32751.4 lineto
52499.1 32695.2 lineto
52442.8 32751.4 lineto
52499.1 32807.7 lineto
52499.1 32695.2 lineto
stroke
newpath
53286.5 33876.3 moveto
53399 33876.3 lineto
53511.5 33820 lineto
53567.7 33763.8 lineto
53623.9 33651.3 lineto
53680.2 33426.3 lineto
53680.2 33145.1 lineto
53623.9 32920.1 lineto
53567.7 32807.7 lineto
53511.5 32751.4 lineto
53399 32695.2 lineto
53286.5 32695.2 lineto
53174 32751.4 lineto
53117.8 32807.7 lineto
53061.5 32920.1 lineto
53005.3 33145.1 lineto
53005.3 33426.3 lineto
53061.5 33651.3 lineto
53117.8 33763.8 lineto
53174 33820 lineto
53286.5 33876.3 lineto
stroke
newpath
54805.1 32695.2 moveto
54130.1 32695.2 lineto
stroke
newpath
54467.6 32695.2 moveto
54467.6 33876.3 lineto
54355.1 33707.5 lineto
54242.6 33595.1 lineto
54130.1 33538.8 lineto
stroke
newpath
55255 33763.8 moveto
55311.2 33820 lineto
55423.7 33876.3 lineto
55704.9 33876.3 lineto
55817.4 33820 lineto
55873.7 33763.8 lineto
55929.9 33651.3 lineto
55929.9 33538.8 lineto
55873.7 33370.1 lineto
55198.8 32695.2 lineto
55929.9 32695.2 lineto
stroke
newpath
56379.9 33876.3 moveto
56379.9 33651.3 lineto
stroke
newpath
56829.8 33876.3 moveto
56829.8 33651.3 lineto
stroke
newpath
58573.3 32245.2 moveto
58517.1 32301.5 lineto
58404.6 32470.2 lineto
58348.4 32582.7 lineto
58292.1 32751.4 lineto
58235.9 33032.6 lineto
58235.9 33257.6 lineto
58292.1 33538.8 lineto
58348.4 33707.5 lineto
58404.6 33820 lineto
58517.1 33988.8 lineto
58573.3 34045 lineto
stroke
newpath
59529.5 33482.6 moveto
59529.5 32695.2 lineto
stroke
newpath
59248.2 33932.5 moveto
58967 33088.9 lineto
59698.2 33088.9 lineto
stroke
newpath
60710.6 33876.3 moveto
60148.1 33876.3 lineto
60091.9 33313.8 lineto
60148.1 33370.1 lineto
60260.6 33426.3 lineto
60541.8 33426.3 lineto
60654.3 33370.1 lineto
60710.6 33313.8 lineto
60766.8 33201.4 lineto
60766.8 32920.1 lineto
60710.6 32807.7 lineto
60654.3 32751.4 lineto
60541.8 32695.2 lineto
60260.6 32695.2 lineto
60148.1 32751.4 lineto
60091.9 32807.7 lineto
stroke
newpath
62172.9 32695.2 moveto
62172.9 33876.3 lineto
stroke
newpath
62679.1 32695.2 moveto
62679.1 33313.8 lineto
62622.8 33426.3 lineto
62510.3 33482.6 lineto
62341.6 33482.6 lineto
62229.1 33426.3 lineto
62172.9 33370.1 lineto
stroke
newpath
63410.2 32695.2 moveto
63297.7 32751.4 lineto
63241.5 32807.7 lineto
63185.3 32920.1 lineto
63185.3 33257.6 lineto
63241.5 33370.1 lineto
63297.7 33426.3 lineto
63410.2 33482.6 lineto
63579 33482.6 lineto
63691.4 33426.3 lineto
63747.7 33370.1 lineto
63803.9 33257.6 lineto
63803.9 32920.1 lineto
63747.7 32807.7 lineto
63691.4 32751.4 lineto
63579 32695.2 lineto
63410.2 32695.2 lineto
stroke
newpath
64478.8 32695.2 moveto
64366.4 32751.4 lineto
64310.1 32863.9 lineto
64310.1 33876.3 lineto
stroke
newpath
65378.7 32751.4 moveto
65266.2 32695.2 lineto
65041.3 32695.2 lineto
64928.8 32751.4 lineto
64872.5 32863.9 lineto
64872.5 33313.8 lineto
64928.8 33426.3 lineto
65041.3 33482.6 lineto
65266.2 33482.6 lineto
65378.7 33426.3 lineto
65435 33313.8 lineto
65435 33201.4 lineto
64872.5 33088.9 lineto
stroke
newpath
65884.9 32751.4 moveto
65997.4 32695.2 lineto
66222.4 32695.2 lineto
66334.9 32751.4 lineto
66391.1 32863.9 lineto
66391.1 32920.1 lineto
66334.9 33032.6 lineto
66222.4 33088.9 lineto
66053.6 33088.9 lineto
65941.2 33145.1 lineto
65884.9 33257.6 lineto
65884.9 33313.8 lineto
65941.2 33426.3 lineto
66053.6 33482.6 lineto
66222.4 33482.6 lineto
66334.9 33426.3 lineto
stroke
newpath
66784.8 32245.2 moveto
66841 32301.5 lineto
66953.5 32470.2 lineto
67009.8 32582.7 lineto
67066 32751.4 lineto
67122.3 33032.6 lineto
67122.3 33257.6 lineto
67066 33538.8 lineto
67009.8 33707.5 lineto
66953.5 33820 lineto
66841 33988.8 lineto
66784.8 34045 lineto
stroke
40021.8 31670.4 100.993 cir0
0 0 0 setrgbcolor
0 0 0 setrgbcolor
newpath
41475.5 32317.2 moveto
41588 32317.2 lineto
41700.4 32261 lineto
41756.7 32204.7 lineto
41812.9 32092.2 lineto
41869.2 31867.3 lineto
41869.2 31586.1 lineto
41812.9 31361.1 lineto
41756.7 31248.6 lineto
41700.4 31192.4 lineto
41588 31136.1 lineto
41475.5 31136.1 lineto
41363 31192.4 lineto
41306.7 31248.6 lineto
41250.5 31361.1 lineto
41194.3 31586.1 lineto
41194.3 31867.3 lineto
41250.5 32092.2 lineto
41306.7 32204.7 lineto
41363 32261 lineto
41475.5 32317.2 lineto
stroke
newpath
42375.4 31248.6 moveto
42431.6 31192.4 lineto
42375.4 31136.1 lineto
42319.1 31192.4 lineto
42375.4 31248.6 lineto
42375.4 31136.1 lineto
stroke
newpath
43444 31923.5 moveto
43444 31136.1 lineto
stroke
newpath
43162.8 32373.5 moveto
42881.5 31529.8 lineto
43612.7 31529.8 lineto
stroke
newpath
44681.3 31136.1 moveto
44006.4 31136.1 lineto
stroke
newpath
44343.9 31136.1 moveto
44343.9 32317.2 lineto
44231.4 32148.5 lineto
44118.9 32036 lineto
44006.4 31979.8 lineto
stroke
newpath
45187.5 31136.1 moveto
45187.5 31923.5 lineto
stroke
newpath
45187.5 31811 moveto
45243.7 31867.3 lineto
45356.2 31923.5 lineto
45525 31923.5 lineto
45637.4 31867.3 lineto
45693.7 31754.8 lineto
45693.7 31136.1 lineto
stroke
newpath
45693.7 31754.8 moveto
45749.9 31867.3 lineto
45862.4 31923.5 lineto
46031.1 31923.5 lineto
46143.6 31867.3 lineto
46199.9 31754.8 lineto
46199.9 31136.1 lineto
stroke
newpath
46762.3 31136.1 moveto
46762.3 31923.5 lineto
stroke
newpath
46762.3 31811 moveto
46818.5 31867.3 lineto
46931 31923.5 lineto
47099.8 31923.5 lineto
47212.2 31867.3 lineto
47268.5 31754.8 lineto
47268.5 31136.1 lineto
stroke
newpath
47268.5 31754.8 moveto
47324.7 31867.3 lineto
47437.2 31923.5 lineto
47605.9 31923.5 lineto
47718.4 31867.3 lineto
47774.7 31754.8 lineto
47774.7 31136.1 lineto
stroke
newpath
50080.6 32373.5 moveto
49068.3 30854.9 lineto
stroke
newpath
51599.2 32317.2 moveto
51711.7 32317.2 lineto
51824.2 32261 lineto
51880.4 32204.7 lineto
51936.7 32092.2 lineto
51992.9 31867.3 lineto
51992.9 31586.1 lineto
51936.7 31361.1 lineto
51880.4 31248.6 lineto
51824.2 31192.4 lineto
51711.7 31136.1 lineto
51599.2 31136.1 lineto
51486.7 31192.4 lineto
51430.5 31248.6 lineto
51374.2 31361.1 lineto
51318 31586.1 lineto
51318 31867.3 lineto
51374.2 32092.2 lineto
51430.5 32204.7 lineto
51486.7 32261 lineto
51599.2 32317.2 lineto
stroke
newpath
52499.1 31248.6 moveto
52555.3 31192.4 lineto
52499.1 31136.1 lineto
52442.8 31192.4 lineto
52499.1 31248.6 lineto
52499.1 31136.1 lineto
stroke
newpath
53286.5 32317.2 moveto
53399 32317.2 lineto
53511.5 32261 lineto
53567.7 32204.7 lineto
53623.9 32092.2 lineto
53680.2 31867.3 lineto
53680.2 31586.1 lineto
53623.9 31361.1 lineto
53567.7 31248.6 lineto
53511.5 31192.4 lineto
53399 31136.1 lineto
53286.5 31136.1 lineto
53174 31192.4 lineto
53117.8 31248.6 lineto
53061.5 31361.1 lineto
53005.3 31586.1 lineto
53005.3 31867.3 lineto
53061.5 32092.2 lineto
53117.8 32204.7 lineto
53174 32261 lineto
53286.5 32317.2 lineto
stroke
newpath
54805.1 31136.1 moveto
54130.1 31136.1 lineto
stroke
newpath
54467.6 31136.1 moveto
54467.6 32317.2 lineto
54355.1 32148.5 lineto
54242.6 32036 lineto
54130.1 31979.8 lineto
stroke
newpath
55817.4 32317.2 moveto
55592.5 32317.2 lineto
55480 32261 lineto
55423.7 32204.7 lineto
55311.2 32036 lineto
55255 31811 lineto
55255 31361.1 lineto
55311.2 31248.6 lineto
55367.5 31192.4 lineto
55480 31136.1 lineto
55704.9 31136.1 lineto
55817.4 31192.4 lineto
55873.7 31248.6 lineto
55929.9 31361.1 lineto
55929.9 31642.3 lineto
55873.7 31754.8 lineto
55817.4 31811 lineto
55704.9 31867.3 lineto
55480 31867.3 lineto
55367.5 31811 lineto
55311.2 31754.8 lineto
55255 31642.3 lineto
stroke
newpath
56379.9 32317.2 moveto
56379.9 32092.2 lineto
stroke
newpath
56829.8 32317.2 moveto
56829.8 32092.2 lineto
stroke
newpath
58573.3 30686.2 moveto
58517.1 30742.4 lineto
58404.6 30911.1 lineto
58348.4 31023.6 lineto
58292.1 31192.4 lineto
58235.9 31473.6 lineto
58235.9 31698.5 lineto
58292.1 31979.8 lineto
58348.4 32148.5 lineto
58404.6 32261 lineto
58517.1 32429.7 lineto
58573.3 32485.9 lineto
stroke
newpath
59529.5 31923.5 moveto
59529.5 31136.1 lineto
stroke
newpath
59248.2 32373.5 moveto
58967 31529.8 lineto
59698.2 31529.8 lineto
stroke
newpath
60035.6 32317.2 moveto
60766.8 32317.2 lineto
60373.1 31867.3 lineto
60541.8 31867.3 lineto
60654.3 31811 lineto
60710.6 31754.8 lineto
60766.8 31642.3 lineto
60766.8 31361.1 lineto
60710.6 31248.6 lineto
60654.3 31192.4 lineto
60541.8 31136.1 lineto
60204.4 31136.1 lineto
60091.9 31192.4 lineto
60035.6 31248.6 lineto
stroke
newpath
62172.9 31136.1 moveto
62172.9 32317.2 lineto
stroke
newpath
62679.1 31136.1 moveto
62679.1 31754.8 lineto
62622.8 31867.3 lineto
62510.3 31923.5 lineto
62341.6 31923.5 lineto
62229.1 31867.3 lineto
62172.9 31811 lineto
stroke
newpath
63410.2 31136.1 moveto
63297.7 31192.4 lineto
63241.5 31248.6 lineto
63185.3 31361.1 lineto
63185.3 31698.5 lineto
63241.5 31811 lineto
63297.7 31867.3 lineto
63410.2 31923.5 lineto
63579 31923.5 lineto
63691.4 31867.3 lineto
63747.7 31811 lineto
63803.9 31698.5 lineto
63803.9 31361.1 lineto
63747.7 31248.6 lineto
63691.4 31192.4 lineto
63579 31136.1 lineto
63410.2 31136.1 lineto
stroke
newpath
64478.8 31136.1 moveto
64366.4 31192.4 lineto
64310.1 31304.8 lineto
64310.1 32317.2 lineto
stroke
newpath
65378.7 31192.4 moveto
65266.2 31136.1 lineto
65041.3 31136.1 lineto
64928.8 31192.4 lineto
64872.5 31304.8 lineto
64872.5 31754.8 lineto
64928.8 31867.3 lineto
65041.3 31923.5 lineto
65266.2 31923.5 lineto
65378.7 31867.3 lineto
65435 31754.8 lineto
65435 31642.3 lineto
64872.5 31529.8 lineto
stroke
newpath
65884.9 31192.4 moveto
65997.4 31136.1 lineto
66222.4 31136.1 lineto
66334.9 31192.4 lineto
66391.1 31304.8 lineto
66391.1 31361.1 lineto
66334.9 31473.6 lineto
66222.4 31529.8 lineto
66053.6 31529.8 lineto
65941.2 31586.1 lineto
65884.9 31698.5 lineto
65884.9 31754.8 lineto
65941.2 31867.3 lineto
66053.6 31923.5 lineto
66222.4 31923.5 lineto
66334.9 31867.3 lineto
stroke
newpath
66784.8 30686.2 moveto
66841 30742.4 lineto
66953.5 30911.1 lineto
67009.8 31023.6 lineto
67066 31192.4 lineto
67122.3 31473.6 lineto
67122.3 31698.5 lineto
67066 31979.8 lineto
67009.8 32148.5 lineto
66953.5 32261 lineto
66841 32429.7 lineto
66784.8 32485.9 lineto
stroke
newpath
39874.3 30359.9 moveto
39874.3 29862.9 lineto
stroke
newpath
39625.8 30111.4 moveto
40122.8 30111.4 lineto
stroke
0 0 0 setrgbcolor
0 0 0 setrgbcolor
newpath
41869.2 29577.1 moveto
41194.3 29577.1 lineto
stroke
newpath
41531.7 29577.1 moveto
41531.7 30758.2 lineto
41419.2 30589.4 lineto
41306.7 30477 lineto
41194.3 30420.7 lineto
stroke
newpath
42375.4 29689.5 moveto
42431.6 29633.3 lineto
42375.4 29577.1 lineto
42319.1 29633.3 lineto
42375.4 29689.5 lineto
42375.4 29577.1 lineto
stroke
newpath
43162.8 30758.2 moveto
43275.2 30758.2 lineto
43387.7 30701.9 lineto
43444 30645.7 lineto
43500.2 30533.2 lineto
43556.5 30308.2 lineto
43556.5 30027 lineto
43500.2 29802 lineto
43444 29689.5 lineto
43387.7 29633.3 lineto
43275.2 29577.1 lineto
43162.8 29577.1 lineto
43050.3 29633.3 lineto
42994 29689.5 lineto
42937.8 29802 lineto
42881.5 30027 lineto
42881.5 30308.2 lineto
42937.8 30533.2 lineto
42994 30645.7 lineto
43050.3 30701.9 lineto
43162.8 30758.2 lineto
stroke
newpath
44287.6 30758.2 moveto
44400.1 30758.2 lineto
44512.6 30701.9 lineto
44568.8 30645.7 lineto
44625.1 30533.2 lineto
44681.3 30308.2 lineto
44681.3 30027 lineto
44625.1 29802 lineto
44568.8 29689.5 lineto
44512.6 29633.3 lineto
44400.1 29577.1 lineto
44287.6 29577.1 lineto
44175.1 29633.3 lineto
44118.9 29689.5 lineto
44062.6 29802 lineto
44006.4 30027 lineto
44006.4 30308.2 lineto
44062.6 30533.2 lineto
44118.9 30645.7 lineto
44175.1 30701.9 lineto
44287.6 30758.2 lineto
stroke
newpath
45187.5 29577.1 moveto
45187.5 30364.5 lineto
stroke
newpath
45187.5 30252 moveto
45243.7 30308.2 lineto
45356.2 30364.5 lineto
45525 30364.5 lineto
45637.4 30308.2 lineto
45693.7 30195.7 lineto
45693.7 29577.1 lineto
stroke
newpath
45693.7 30195.7 moveto
45749.9 30308.2 lineto
45862.4 30364.5 lineto
46031.1 30364.5 lineto
46143.6 30308.2 lineto
46199.9 30195.7 lineto
46199.9 29577.1 lineto
stroke
newpath
46762.3 29577.1 moveto
46762.3 30364.5 lineto
stroke
newpath
46762.3 30252 moveto
46818.5 30308.2 lineto
46931 30364.5 lineto
47099.8 30364.5 lineto
47212.2 30308.2 lineto
47268.5 30195.7 lineto
47268.5 29577.1 lineto
stroke
newpath
47268.5 30195.7 moveto
47324.7 30308.2 lineto
47437.2 30364.5 lineto
47605.9 30364.5 lineto
47718.4 30308.2 lineto
47774.7 30195.7 lineto
47774.7 29577.1 lineto
stroke
newpath
50080.6 30814.4 moveto
49068.3 29295.8 lineto
stroke
newpath
51599.2 30758.2 moveto
51711.7 30758.2 lineto
51824.2 30701.9 lineto
51880.4 30645.7 lineto
51936.7 30533.2 lineto
51992.9 30308.2 lineto
51992.9 30027 lineto
51936.7 29802 lineto
51880.4 29689.5 lineto
51824.2 29633.3 lineto
51711.7 29577.1 lineto
51599.2 29577.1 lineto
51486.7 29633.3 lineto
51430.5 29689.5 lineto
51374.2 29802 lineto
51318 30027 lineto
51318 30308.2 lineto
51374.2 30533.2 lineto
51430.5 30645.7 lineto
51486.7 30701.9 lineto
51599.2 30758.2 lineto
stroke
newpath
52499.1 29689.5 moveto
52555.3 29633.3 lineto
52499.1 29577.1 lineto
52442.8 29633.3 lineto
52499.1 29689.5 lineto
52499.1 29577.1 lineto
stroke
newpath
53286.5 30758.2 moveto
53399 30758.2 lineto
53511.5 30701.9 lineto
53567.7 30645.7 lineto
53623.9 30533.2 lineto
53680.2 30308.2 lineto
53680.2 30027 lineto
53623.9 29802 lineto
53567.7 29689.5 lineto
53511.5 29633.3 lineto
53399 29577.1 lineto
53286.5 29577.1 lineto
53174 29633.3 lineto
53117.8 29689.5 lineto
53061.5 29802 lineto
53005.3 30027 lineto
53005.3 30308.2 lineto
53061.5 30533.2 lineto
53117.8 30645.7 lineto
53174 30701.9 lineto
53286.5 30758.2 lineto
stroke
newpath
54073.9 30758.2 moveto
54805.1 30758.2 lineto
54411.3 30308.2 lineto
54580.1 30308.2 lineto
54692.6 30252 lineto
54748.8 30195.7 lineto
54805.1 30083.2 lineto
54805.1 29802 lineto
54748.8 29689.5 lineto
54692.6 29633.3 lineto
54580.1 29577.1 lineto
54242.6 29577.1 lineto
54130.1 29633.3 lineto
54073.9 29689.5 lineto
stroke
newpath
55367.5 29577.1 moveto
55592.5 29577.1 lineto
55704.9 29633.3 lineto
55761.2 29689.5 lineto
55873.7 29858.3 lineto
55929.9 30083.2 lineto
55929.9 30533.2 lineto
55873.7 30645.7 lineto
55817.4 30701.9 lineto
55704.9 30758.2 lineto
55480 30758.2 lineto
55367.5 30701.9 lineto
55311.2 30645.7 lineto
55255 30533.2 lineto
55255 30252 lineto
55311.2 30139.5 lineto
55367.5 30083.2 lineto
55480 30027 lineto
55704.9 30027 lineto
55817.4 30083.2 lineto
55873.7 30139.5 lineto
55929.9 30252 lineto
stroke
newpath
56379.9 30758.2 moveto
56379.9 30533.2 lineto
stroke
newpath
56829.8 30758.2 moveto
56829.8 30533.2 lineto
stroke
newpath
58573.3 29127.1 moveto
58517.1 29183.4 lineto
58404.6 29352.1 lineto
58348.4 29464.6 lineto
58292.1 29633.3 lineto
58235.9 29914.5 lineto
58235.9 30139.5 lineto
58292.1 30420.7 lineto
58348.4 30589.4 lineto
58404.6 30701.9 lineto
58517.1 30870.7 lineto
58573.3 30926.9 lineto
stroke
newpath
59192 30252 moveto
59079.5 30308.2 lineto
59023.3 30364.5 lineto
58967 30477 lineto
58967 30533.2 lineto
59023.3 30645.7 lineto
59079.5 30701.9 lineto
59192 30758.2 lineto
59417 30758.2 lineto
59529.5 30701.9 lineto
59585.7 30645.7 lineto
59641.9 30533.2 lineto
59641.9 30477 lineto
59585.7 30364.5 lineto
59529.5 30308.2 lineto
59417 30252 lineto
59192 30252 lineto
59079.5 30195.7 lineto
59023.3 30139.5 lineto
58967 30027 lineto
58967 29802 lineto
59023.3 29689.5 lineto
59079.5 29633.3 lineto
59192 29577.1 lineto
59417 29577.1 lineto
59529.5 29633.3 lineto
59585.7 29689.5 lineto
59641.9 29802 lineto
59641.9 30027 lineto
59585.7 30139.5 lineto
59529.5 30195.7 lineto
59417 30252 lineto
stroke
newpath
60316.9 30252 moveto
60204.4 30308.2 lineto
60148.1 30364.5 lineto
60091.9 30477 lineto
60091.9 30533.2 lineto
60148.1 30645.7 lineto
60204.4 30701.9 lineto
60316.9 30758.2 lineto
60541.8 30758.2 lineto
60654.3 30701.9 lineto
60710.6 30645.7 lineto
60766.8 30533.2 lineto
60766.8 30477 lineto
60710.6 30364.5 lineto
60654.3 30308.2 lineto
60541.8 30252 lineto
60316.9 30252 lineto
60204.4 30195.7 lineto
60148.1 30139.5 lineto
60091.9 30027 lineto
60091.9 29802 lineto
60148.1 29689.5 lineto
60204.4 29633.3 lineto
60316.9 29577.1 lineto
60541.8 29577.1 lineto
60654.3 29633.3 lineto
60710.6 29689.5 lineto
60766.8 29802 lineto
60766.8 30027 lineto
60710.6 30139.5 lineto
60654.3 30195.7 lineto
60541.8 30252 lineto
stroke
newpath
62172.9 29577.1 moveto
62172.9 30758.2 lineto
stroke
newpath
62679.1 29577.1 moveto
62679.1 30195.7 lineto
62622.8 30308.2 lineto
62510.3 30364.5 lineto
62341.6 30364.5 lineto
62229.1 30308.2 lineto
62172.9 30252 lineto
stroke
newpath
63410.2 29577.1 moveto
63297.7 29633.3 lineto
63241.5 29689.5 lineto
63185.3 29802 lineto
63185.3 30139.5 lineto
63241.5 30252 lineto
63297.7 30308.2 lineto
63410.2 30364.5 lineto
63579 30364.5 lineto
63691.4 30308.2 lineto
63747.7 30252 lineto
63803.9 30139.5 lineto
63803.9 29802 lineto
63747.7 29689.5 lineto
63691.4 29633.3 lineto
63579 29577.1 lineto
63410.2 29577.1 lineto
stroke
newpath
64478.8 29577.1 moveto
64366.4 29633.3 lineto
64310.1 29745.8 lineto
64310.1 30758.2 lineto
stroke
newpath
65378.7 29633.3 moveto
65266.2 29577.1 lineto
65041.3 29577.1 lineto
64928.8 29633.3 lineto
64872.5 29745.8 lineto
64872.5 30195.7 lineto
64928.8 30308.2 lineto
65041.3 30364.5 lineto
65266.2 30364.5 lineto
65378.7 30308.2 lineto
65435 30195.7 lineto
65435 30083.2 lineto
64872.5 29970.8 lineto
stroke
newpath
65884.9 29633.3 moveto
65997.4 29577.1 lineto
66222.4 29577.1 lineto
66334.9 29633.3 lineto
66391.1 29745.8 lineto
66391.1 29802 lineto
66334.9 29914.5 lineto
66222.4 29970.8 lineto
66053.6 29970.8 lineto
65941.2 30027 lineto
65884.9 30139.5 lineto
65884.9 30195.7 lineto
65941.2 30308.2 lineto
66053.6 30364.5 lineto
66222.4 30364.5 lineto
66334.9 30308.2 lineto
stroke
newpath
66784.8 29127.1 moveto
66841 29183.4 lineto
66953.5 29352.1 lineto
67009.8 29464.6 lineto
67066 29633.3 lineto
67122.3 29914.5 lineto
67122.3 30139.5 lineto
67066 30420.7 lineto
67009.8 30589.4 lineto
66953.5 30701.9 lineto
66841 30870.7 lineto
66784.8 30926.9 lineto
stroke
newpath
40048.9 28373.8 moveto
40048.9 28730.8 lineto
39691.8 28730.8 lineto
39691.8 28373.8 lineto
40048.9 28373.8 lineto
poly0
0 0 0 setrgbcolor
0 0 0 setrgbcolor
newpath
41869.2 28018 moveto
41194.3 28018 lineto
stroke
newpath
41531.7 28018 moveto
41531.7 29199.1 lineto
41419.2 29030.4 lineto
41306.7 28917.9 lineto
41194.3 28861.7 lineto
stroke
newpath
42375.4 28130.5 moveto
42431.6 28074.3 lineto
42375.4 28018 lineto
42319.1 28074.3 lineto
42375.4 28130.5 lineto
42375.4 28018 lineto
stroke
newpath
43162.8 29199.1 moveto
43275.2 29199.1 lineto
43387.7 29142.9 lineto
43444 29086.6 lineto
43500.2 28974.1 lineto
43556.5 28749.2 lineto
43556.5 28468 lineto
43500.2 28243 lineto
43444 28130.5 lineto
43387.7 28074.3 lineto
43275.2 28018 lineto
43162.8 28018 lineto
43050.3 28074.3 lineto
42994 28130.5 lineto
42937.8 28243 lineto
42881.5 28468 lineto
42881.5 28749.2 lineto
42937.8 28974.1 lineto
42994 29086.6 lineto
43050.3 29142.9 lineto
43162.8 29199.1 lineto
stroke
newpath
44006.4 29086.6 moveto
44062.6 29142.9 lineto
44175.1 29199.1 lineto
44456.3 29199.1 lineto
44568.8 29142.9 lineto
44625.1 29086.6 lineto
44681.3 28974.1 lineto
44681.3 28861.7 lineto
44625.1 28692.9 lineto
43950.2 28018 lineto
44681.3 28018 lineto
stroke
newpath
45187.5 28018 moveto
45187.5 28805.4 lineto
stroke
newpath
45187.5 28692.9 moveto
45243.7 28749.2 lineto
45356.2 28805.4 lineto
45525 28805.4 lineto
45637.4 28749.2 lineto
45693.7 28636.7 lineto
45693.7 28018 lineto
stroke
newpath
45693.7 28636.7 moveto
45749.9 28749.2 lineto
45862.4 28805.4 lineto
46031.1 28805.4 lineto
46143.6 28749.2 lineto
46199.9 28636.7 lineto
46199.9 28018 lineto
stroke
newpath
46762.3 28018 moveto
46762.3 28805.4 lineto
stroke
newpath
46762.3 28692.9 moveto
46818.5 28749.2 lineto
46931 28805.4 lineto
47099.8 28805.4 lineto
47212.2 28749.2 lineto
47268.5 28636.7 lineto
47268.5 28018 lineto
stroke
newpath
47268.5 28636.7 moveto
47324.7 28749.2 lineto
47437.2 28805.4 lineto
47605.9 28805.4 lineto
47718.4 28749.2 lineto
47774.7 28636.7 lineto
47774.7 28018 lineto
stroke
newpath
50080.6 29255.4 moveto
49068.3 27736.8 lineto
stroke
newpath
51599.2 29199.1 moveto
51711.7 29199.1 lineto
51824.2 29142.9 lineto
51880.4 29086.6 lineto
51936.7 28974.1 lineto
51992.9 28749.2 lineto
51992.9 28468 lineto
51936.7 28243 lineto
51880.4 28130.5 lineto
51824.2 28074.3 lineto
51711.7 28018 lineto
51599.2 28018 lineto
51486.7 28074.3 lineto
51430.5 28130.5 lineto
51374.2 28243 lineto
51318 28468 lineto
51318 28749.2 lineto
51374.2 28974.1 lineto
51430.5 29086.6 lineto
51486.7 29142.9 lineto
51599.2 29199.1 lineto
stroke
newpath
52499.1 28130.5 moveto
52555.3 28074.3 lineto
52499.1 28018 lineto
52442.8 28074.3 lineto
52499.1 28130.5 lineto
52499.1 28018 lineto
stroke
newpath
53286.5 29199.1 moveto
53399 29199.1 lineto
53511.5 29142.9 lineto
53567.7 29086.6 lineto
53623.9 28974.1 lineto
53680.2 28749.2 lineto
53680.2 28468 lineto
53623.9 28243 lineto
53567.7 28130.5 lineto
53511.5 28074.3 lineto
53399 28018 lineto
53286.5 28018 lineto
53174 28074.3 lineto
53117.8 28130.5 lineto
53061.5 28243 lineto
53005.3 28468 lineto
53005.3 28749.2 lineto
53061.5 28974.1 lineto
53117.8 29086.6 lineto
53174 29142.9 lineto
53286.5 29199.1 lineto
stroke
newpath
54692.6 28805.4 moveto
54692.6 28018 lineto
stroke
newpath
54411.3 29255.4 moveto
54130.1 28411.7 lineto
54861.3 28411.7 lineto
stroke
newpath
55536.2 29199.1 moveto
55648.7 29199.1 lineto
55761.2 29142.9 lineto
55817.4 29086.6 lineto
55873.7 28974.1 lineto
55929.9 28749.2 lineto
55929.9 28468 lineto
55873.7 28243 lineto
55817.4 28130.5 lineto
55761.2 28074.3 lineto
55648.7 28018 lineto
55536.2 28018 lineto
55423.7 28074.3 lineto
55367.5 28130.5 lineto
55311.2 28243 lineto
55255 28468 lineto
55255 28749.2 lineto
55311.2 28974.1 lineto
55367.5 29086.6 lineto
55423.7 29142.9 lineto
55536.2 29199.1 lineto
stroke
newpath
56379.9 29199.1 moveto
56379.9 28974.1 lineto
stroke
newpath
56829.8 29199.1 moveto
56829.8 28974.1 lineto
stroke
newpath
58573.3 27568.1 moveto
58517.1 27624.3 lineto
58404.6 27793 lineto
58348.4 27905.5 lineto
58292.1 28074.3 lineto
58235.9 28355.5 lineto
58235.9 28580.4 lineto
58292.1 28861.7 lineto
58348.4 29030.4 lineto
58404.6 29142.9 lineto
58517.1 29311.6 lineto
58573.3 29367.8 lineto
stroke
newpath
59641.9 28018 moveto
58967 28018 lineto
stroke
newpath
59304.5 28018 moveto
59304.5 29199.1 lineto
59192 29030.4 lineto
59079.5 28917.9 lineto
58967 28861.7 lineto
stroke
newpath
60091.9 29086.6 moveto
60148.1 29142.9 lineto
60260.6 29199.1 lineto
60541.8 29199.1 lineto
60654.3 29142.9 lineto
60710.6 29086.6 lineto
60766.8 28974.1 lineto
60766.8 28861.7 lineto
60710.6 28692.9 lineto
60035.6 28018 lineto
60766.8 28018 lineto
stroke
newpath
61441.7 28692.9 moveto
61329.2 28749.2 lineto
61273 28805.4 lineto
61216.8 28917.9 lineto
61216.8 28974.1 lineto
61273 29086.6 lineto
61329.2 29142.9 lineto
61441.7 29199.1 lineto
61666.7 29199.1 lineto
61779.2 29142.9 lineto
61835.4 29086.6 lineto
61891.7 28974.1 lineto
61891.7 28917.9 lineto
61835.4 28805.4 lineto
61779.2 28749.2 lineto
61666.7 28692.9 lineto
61441.7 28692.9 lineto
61329.2 28636.7 lineto
61273 28580.4 lineto
61216.8 28468 lineto
61216.8 28243 lineto
61273 28130.5 lineto
61329.2 28074.3 lineto
61441.7 28018 lineto
61666.7 28018 lineto
61779.2 28074.3 lineto
61835.4 28130.5 lineto
61891.7 28243 lineto
61891.7 28468 lineto
61835.4 28580.4 lineto
61779.2 28636.7 lineto
61666.7 28692.9 lineto
stroke
newpath
63297.7 28018 moveto
63297.7 29199.1 lineto
stroke
newpath
63803.9 28018 moveto
63803.9 28636.7 lineto
63747.7 28749.2 lineto
63635.2 28805.4 lineto
63466.5 28805.4 lineto
63354 28749.2 lineto
63297.7 28692.9 lineto
stroke
newpath
64535.1 28018 moveto
64422.6 28074.3 lineto
64366.4 28130.5 lineto
64310.1 28243 lineto
64310.1 28580.4 lineto
64366.4 28692.9 lineto
64422.6 28749.2 lineto
64535.1 28805.4 lineto
64703.8 28805.4 lineto
64816.3 28749.2 lineto
64872.5 28692.9 lineto
64928.8 28580.4 lineto
64928.8 28243 lineto
64872.5 28130.5 lineto
64816.3 28074.3 lineto
64703.8 28018 lineto
64535.1 28018 lineto
stroke
newpath
65603.7 28018 moveto
65491.2 28074.3 lineto
65435 28186.7 lineto
65435 29199.1 lineto
stroke
newpath
66503.6 28074.3 moveto
66391.1 28018 lineto
66166.1 28018 lineto
66053.6 28074.3 lineto
65997.4 28186.7 lineto
65997.4 28636.7 lineto
66053.6 28749.2 lineto
66166.1 28805.4 lineto
66391.1 28805.4 lineto
66503.6 28749.2 lineto
66559.8 28636.7 lineto
66559.8 28524.2 lineto
65997.4 28411.7 lineto
stroke
newpath
67009.8 28074.3 moveto
67122.3 28018 lineto
67347.2 28018 lineto
67459.7 28074.3 lineto
67516 28186.7 lineto
67516 28243 lineto
67459.7 28355.5 lineto
67347.2 28411.7 lineto
67178.5 28411.7 lineto
67066 28468 lineto
67009.8 28580.4 lineto
67009.8 28636.7 lineto
67066 28749.2 lineto
67178.5 28805.4 lineto
67347.2 28805.4 lineto
67459.7 28749.2 lineto
stroke
newpath
67909.7 27568.1 moveto
67965.9 27624.3 lineto
68078.4 27793 lineto
68134.6 27905.5 lineto
68190.9 28074.3 lineto
68247.1 28355.5 lineto
68247.1 28580.4 lineto
68190.9 28861.7 lineto
68134.6 29030.4 lineto
68078.4 29142.9 lineto
67965.9 29311.6 lineto
67909.7 29367.8 lineto
stroke
newpath
39327.6 26198 moveto
40122.8 26993.3 lineto
39327.6 27788.5 lineto
38532.4 26993.3 lineto
39327.6 26198 lineto
poly0
0 0 0 setrgbcolor
0 0 0 setrgbcolor
newpath
41138 27640.1 moveto
41869.2 27640.1 lineto
41475.5 27190.1 lineto
41644.2 27190.1 lineto
41756.7 27133.9 lineto
41812.9 27077.6 lineto
41869.2 26965.1 lineto
41869.2 26683.9 lineto
41812.9 26571.4 lineto
41756.7 26515.2 lineto
41644.2 26459 lineto
41306.7 26459 lineto
41194.3 26515.2 lineto
41138 26571.4 lineto
stroke
newpath
42375.4 26571.4 moveto
42431.6 26515.2 lineto
42375.4 26459 lineto
42319.1 26515.2 lineto
42375.4 26571.4 lineto
42375.4 26459 lineto
stroke
newpath
42881.5 27527.6 moveto
42937.8 27583.8 lineto
43050.3 27640.1 lineto
43331.5 27640.1 lineto
43444 27583.8 lineto
43500.2 27527.6 lineto
43556.5 27415.1 lineto
43556.5 27302.6 lineto
43500.2 27133.9 lineto
42825.3 26459 lineto
43556.5 26459 lineto
stroke
newpath
44287.6 27640.1 moveto
44400.1 27640.1 lineto
44512.6 27583.8 lineto
44568.8 27527.6 lineto
44625.1 27415.1 lineto
44681.3 27190.1 lineto
44681.3 26908.9 lineto
44625.1 26683.9 lineto
44568.8 26571.4 lineto
44512.6 26515.2 lineto
44400.1 26459 lineto
44287.6 26459 lineto
44175.1 26515.2 lineto
44118.9 26571.4 lineto
44062.6 26683.9 lineto
44006.4 26908.9 lineto
44006.4 27190.1 lineto
44062.6 27415.1 lineto
44118.9 27527.6 lineto
44175.1 27583.8 lineto
44287.6 27640.1 lineto
stroke
newpath
45187.5 26459 moveto
45187.5 27246.4 lineto
stroke
newpath
45187.5 27133.9 moveto
45243.7 27190.1 lineto
45356.2 27246.4 lineto
45525 27246.4 lineto
45637.4 27190.1 lineto
45693.7 27077.6 lineto
45693.7 26459 lineto
stroke
newpath
45693.7 27077.6 moveto
45749.9 27190.1 lineto
45862.4 27246.4 lineto
46031.1 27246.4 lineto
46143.6 27190.1 lineto
46199.9 27077.6 lineto
46199.9 26459 lineto
stroke
newpath
46762.3 26459 moveto
46762.3 27246.4 lineto
stroke
newpath
46762.3 27133.9 moveto
46818.5 27190.1 lineto
46931 27246.4 lineto
47099.8 27246.4 lineto
47212.2 27190.1 lineto
47268.5 27077.6 lineto
47268.5 26459 lineto
stroke
newpath
47268.5 27077.6 moveto
47324.7 27190.1 lineto
47437.2 27246.4 lineto
47605.9 27246.4 lineto
47718.4 27190.1 lineto
47774.7 27077.6 lineto
47774.7 26459 lineto
stroke
newpath
50080.6 27696.3 moveto
49068.3 26177.7 lineto
stroke
newpath
51599.2 27640.1 moveto
51711.7 27640.1 lineto
51824.2 27583.8 lineto
51880.4 27527.6 lineto
51936.7 27415.1 lineto
51992.9 27190.1 lineto
51992.9 26908.9 lineto
51936.7 26683.9 lineto
51880.4 26571.4 lineto
51824.2 26515.2 lineto
51711.7 26459 lineto
51599.2 26459 lineto
51486.7 26515.2 lineto
51430.5 26571.4 lineto
51374.2 26683.9 lineto
51318 26908.9 lineto
51318 27190.1 lineto
51374.2 27415.1 lineto
51430.5 27527.6 lineto
51486.7 27583.8 lineto
51599.2 27640.1 lineto
stroke
newpath
52499.1 26571.4 moveto
52555.3 26515.2 lineto
52499.1 26459 lineto
52442.8 26515.2 lineto
52499.1 26571.4 lineto
52499.1 26459 lineto
stroke
newpath
53680.2 26459 moveto
53005.3 26459 lineto
stroke
newpath
53342.7 26459 moveto
53342.7 27640.1 lineto
53230.2 27471.3 lineto
53117.8 27358.8 lineto
53005.3 27302.6 lineto
stroke
newpath
54130.1 27527.6 moveto
54186.4 27583.8 lineto
54298.9 27640.1 lineto
54580.1 27640.1 lineto
54692.6 27583.8 lineto
54748.8 27527.6 lineto
54805.1 27415.1 lineto
54805.1 27302.6 lineto
54748.8 27133.9 lineto
54073.9 26459 lineto
54805.1 26459 lineto
stroke
newpath
55817.4 27640.1 moveto
55592.5 27640.1 lineto
55480 27583.8 lineto
55423.7 27527.6 lineto
55311.2 27358.8 lineto
55255 27133.9 lineto
55255 26683.9 lineto
55311.2 26571.4 lineto
55367.5 26515.2 lineto
55480 26459 lineto
55704.9 26459 lineto
55817.4 26515.2 lineto
55873.7 26571.4 lineto
55929.9 26683.9 lineto
55929.9 26965.1 lineto
55873.7 27077.6 lineto
55817.4 27133.9 lineto
55704.9 27190.1 lineto
55480 27190.1 lineto
55367.5 27133.9 lineto
55311.2 27077.6 lineto
55255 26965.1 lineto
stroke
newpath
56379.9 27640.1 moveto
56379.9 27415.1 lineto
stroke
newpath
56829.8 27640.1 moveto
56829.8 27415.1 lineto
stroke
newpath
58573.3 26009 moveto
58517.1 26065.3 lineto
58404.6 26234 lineto
58348.4 26346.5 lineto
58292.1 26515.2 lineto
58235.9 26796.4 lineto
58235.9 27021.4 lineto
58292.1 27302.6 lineto
58348.4 27471.3 lineto
58404.6 27583.8 lineto
58517.1 27752.5 lineto
58573.3 27808.8 lineto
stroke
newpath
59529.5 27246.4 moveto
59529.5 26459 lineto
stroke
newpath
59248.2 27696.3 moveto
58967 26852.7 lineto
59698.2 26852.7 lineto
stroke
newpath
61048 26459 moveto
61048 27640.1 lineto
stroke
newpath
61554.2 26459 moveto
61554.2 27077.6 lineto
61498 27190.1 lineto
61385.5 27246.4 lineto
61216.8 27246.4 lineto
61104.3 27190.1 lineto
61048 27133.9 lineto
stroke
newpath
62285.4 26459 moveto
62172.9 26515.2 lineto
62116.6 26571.4 lineto
62060.4 26683.9 lineto
62060.4 27021.4 lineto
62116.6 27133.9 lineto
62172.9 27190.1 lineto
62285.4 27246.4 lineto
62454.1 27246.4 lineto
62566.6 27190.1 lineto
62622.8 27133.9 lineto
62679.1 27021.4 lineto
62679.1 26683.9 lineto
62622.8 26571.4 lineto
62566.6 26515.2 lineto
62454.1 26459 lineto
62285.4 26459 lineto
stroke
newpath
63354 26459 moveto
63241.5 26515.2 lineto
63185.3 26627.7 lineto
63185.3 27640.1 lineto
stroke
newpath
64253.9 26515.2 moveto
64141.4 26459 lineto
63916.4 26459 lineto
63803.9 26515.2 lineto
63747.7 26627.7 lineto
63747.7 27077.6 lineto
63803.9 27190.1 lineto
63916.4 27246.4 lineto
64141.4 27246.4 lineto
64253.9 27190.1 lineto
64310.1 27077.6 lineto
64310.1 26965.1 lineto
63747.7 26852.7 lineto
stroke
newpath
64760.1 26515.2 moveto
64872.5 26459 lineto
65097.5 26459 lineto
65210 26515.2 lineto
65266.2 26627.7 lineto
65266.2 26683.9 lineto
65210 26796.4 lineto
65097.5 26852.7 lineto
64928.8 26852.7 lineto
64816.3 26908.9 lineto
64760.1 27021.4 lineto
64760.1 27077.6 lineto
64816.3 27190.1 lineto
64928.8 27246.4 lineto
65097.5 27246.4 lineto
65210 27190.1 lineto
stroke
newpath
65659.9 26009 moveto
65716.2 26065.3 lineto
65828.7 26234 lineto
65884.9 26346.5 lineto
65941.2 26515.2 lineto
65997.4 26796.4 lineto
65997.4 27021.4 lineto
65941.2 27302.6 lineto
65884.9 27471.3 lineto
65828.7 27583.8 lineto
65716.2 27752.5 lineto
65659.9 27808.8 lineto
stroke
showpage
grestore
%%EOF
