G04 #@! TF.GenerationSoftware,KiCad,Pcbnew,5.1.6-c6e7f7d~86~ubuntu18.04.1*
G04 #@! TF.CreationDate,2020-10-19T11:07:42-07:00*
G04 #@! TF.ProjectId,adapter-dsub44p,61646170-7465-4722-9d64-737562343470,rev?*
G04 #@! TF.SameCoordinates,Original*
G04 #@! TF.FileFunction,Copper,L2,Bot*
G04 #@! TF.FilePolarity,Positive*
%FSLAX46Y46*%
G04 Gerber Fmt 4.6, Leading zero omitted, Abs format (unit mm)*
G04 Created by KiCad (PCBNEW 5.1.6-c6e7f7d~86~ubuntu18.04.1) date 2020-10-19 11:07:42*
%MOMM*%
%LPD*%
G01*
G04 APERTURE LIST*
G04 #@! TA.AperFunction,ComponentPad*
%ADD10R,1.778000X1.778000*%
G04 #@! TD*
G04 #@! TA.AperFunction,ComponentPad*
%ADD11C,1.778000*%
G04 #@! TD*
G04 #@! TA.AperFunction,ComponentPad*
%ADD12R,1.600000X1.600000*%
G04 #@! TD*
G04 #@! TA.AperFunction,ComponentPad*
%ADD13C,1.600000*%
G04 #@! TD*
G04 #@! TA.AperFunction,ComponentPad*
%ADD14C,4.000000*%
G04 #@! TD*
G04 #@! TA.AperFunction,ViaPad*
%ADD15C,0.609600*%
G04 #@! TD*
G04 #@! TA.AperFunction,ViaPad*
%ADD16C,0.762000*%
G04 #@! TD*
G04 #@! TA.AperFunction,Conductor*
%ADD17C,0.152400*%
G04 #@! TD*
G04 APERTURE END LIST*
D10*
X127000000Y-127000000D03*
D11*
X124460000Y-127000000D03*
X127000000Y-124460000D03*
X124460000Y-124460000D03*
X127000000Y-121920000D03*
X124460000Y-121920000D03*
X127000000Y-119380000D03*
X124460000Y-119380000D03*
X127000000Y-116840000D03*
X124460000Y-116840000D03*
X127000000Y-114300000D03*
X124460000Y-114300000D03*
X127000000Y-111760000D03*
X124460000Y-111760000D03*
X127000000Y-109220000D03*
X124460000Y-109220000D03*
X127000000Y-106680000D03*
X124460000Y-106680000D03*
X127000000Y-104140000D03*
X124460000Y-104140000D03*
X127000000Y-101600000D03*
X124460000Y-101600000D03*
X127000000Y-99060000D03*
X124460000Y-99060000D03*
X127000000Y-96520000D03*
X124460000Y-96520000D03*
X127000000Y-93980000D03*
X124460000Y-93980000D03*
X127000000Y-91440000D03*
X124460000Y-91440000D03*
X127000000Y-88900000D03*
X124460000Y-88900000D03*
X127000000Y-86360000D03*
X124460000Y-86360000D03*
X127000000Y-83820000D03*
X124460000Y-83820000D03*
X127000000Y-81280000D03*
X124460000Y-81280000D03*
X127000000Y-78740000D03*
X124460000Y-78740000D03*
X127000000Y-76200000D03*
X124460000Y-76200000D03*
X127000000Y-73660000D03*
X124460000Y-73660000D03*
X127000000Y-71120000D03*
X124460000Y-71120000D03*
X127000000Y-68580000D03*
X124460000Y-68580000D03*
X127000000Y-66040000D03*
X124460000Y-66040000D03*
X127000000Y-63500000D03*
X124460000Y-63500000D03*
X127000000Y-60960000D03*
X124460000Y-60960000D03*
X127000000Y-58420000D03*
X124460000Y-58420000D03*
X127000000Y-55880000D03*
X124460000Y-55880000D03*
X127000000Y-53340000D03*
X124460000Y-53340000D03*
X127000000Y-50800000D03*
X124460000Y-50800000D03*
X127000000Y-48260000D03*
X124460000Y-48260000D03*
X58420000Y-48260000D03*
X60960000Y-48260000D03*
X58420000Y-50800000D03*
X60960000Y-50800000D03*
X58420000Y-53340000D03*
X60960000Y-53340000D03*
X58420000Y-55880000D03*
X60960000Y-55880000D03*
X58420000Y-58420000D03*
X60960000Y-58420000D03*
X58420000Y-60960000D03*
X60960000Y-60960000D03*
X58420000Y-63500000D03*
X60960000Y-63500000D03*
X58420000Y-66040000D03*
X60960000Y-66040000D03*
X58420000Y-68580000D03*
X60960000Y-68580000D03*
X58420000Y-71120000D03*
X60960000Y-71120000D03*
X58420000Y-73660000D03*
X60960000Y-73660000D03*
X58420000Y-76200000D03*
X60960000Y-76200000D03*
X58420000Y-78740000D03*
X60960000Y-78740000D03*
X58420000Y-81280000D03*
X60960000Y-81280000D03*
X58420000Y-83820000D03*
X60960000Y-83820000D03*
X58420000Y-86360000D03*
X60960000Y-86360000D03*
X58420000Y-88900000D03*
X60960000Y-88900000D03*
X58420000Y-91440000D03*
X60960000Y-91440000D03*
X58420000Y-93980000D03*
X60960000Y-93980000D03*
X58420000Y-96520000D03*
X60960000Y-96520000D03*
X58420000Y-99060000D03*
X60960000Y-99060000D03*
X58420000Y-101600000D03*
X60960000Y-101600000D03*
X58420000Y-104140000D03*
X60960000Y-104140000D03*
X58420000Y-106680000D03*
X60960000Y-106680000D03*
X58420000Y-109220000D03*
X60960000Y-109220000D03*
X58420000Y-111760000D03*
X60960000Y-111760000D03*
X58420000Y-114300000D03*
X60960000Y-114300000D03*
X58420000Y-116840000D03*
X60960000Y-116840000D03*
X58420000Y-119380000D03*
X60960000Y-119380000D03*
X58420000Y-121920000D03*
X60960000Y-121920000D03*
X58420000Y-124460000D03*
X60960000Y-124460000D03*
X58420000Y-127000000D03*
X60960000Y-127000000D03*
D12*
X77000000Y-122000000D03*
D13*
X79290000Y-122000000D03*
X81580000Y-122000000D03*
X83870000Y-122000000D03*
X86160000Y-122000000D03*
X88450000Y-122000000D03*
X90740000Y-122000000D03*
X93030000Y-122000000D03*
X95320000Y-122000000D03*
X97610000Y-122000000D03*
X99900000Y-122000000D03*
X102190000Y-122000000D03*
X104480000Y-122000000D03*
X106770000Y-122000000D03*
X109060000Y-122000000D03*
X75855000Y-123980000D03*
X78145000Y-123980000D03*
X80435000Y-123980000D03*
X82725000Y-123980000D03*
X85015000Y-123980000D03*
X87305000Y-123980000D03*
X89595000Y-123980000D03*
X91885000Y-123980000D03*
X94175000Y-123980000D03*
X96465000Y-123980000D03*
X98755000Y-123980000D03*
X101045000Y-123980000D03*
X103335000Y-123980000D03*
X105625000Y-123980000D03*
X107915000Y-123980000D03*
X77000000Y-125960000D03*
X79290000Y-125960000D03*
X81580000Y-125960000D03*
X83870000Y-125960000D03*
X86160000Y-125960000D03*
X88450000Y-125960000D03*
X90740000Y-125960000D03*
X93030000Y-125960000D03*
X95320000Y-125960000D03*
X97610000Y-125960000D03*
X99900000Y-125960000D03*
X102190000Y-125960000D03*
X104480000Y-125960000D03*
X106770000Y-125960000D03*
D14*
X68975000Y-124050000D03*
X116075000Y-124050000D03*
X68925000Y-50950000D03*
X116025000Y-50950000D03*
D13*
X78230000Y-49040000D03*
X80520000Y-49040000D03*
X82810000Y-49040000D03*
X85100000Y-49040000D03*
X87390000Y-49040000D03*
X89680000Y-49040000D03*
X91970000Y-49040000D03*
X94260000Y-49040000D03*
X96550000Y-49040000D03*
X98840000Y-49040000D03*
X101130000Y-49040000D03*
X103420000Y-49040000D03*
X105710000Y-49040000D03*
X108000000Y-49040000D03*
X77085000Y-51020000D03*
X79375000Y-51020000D03*
X81665000Y-51020000D03*
X83955000Y-51020000D03*
X86245000Y-51020000D03*
X88535000Y-51020000D03*
X90825000Y-51020000D03*
X93115000Y-51020000D03*
X95405000Y-51020000D03*
X97695000Y-51020000D03*
X99985000Y-51020000D03*
X102275000Y-51020000D03*
X104565000Y-51020000D03*
X106855000Y-51020000D03*
X109145000Y-51020000D03*
X75940000Y-53000000D03*
X78230000Y-53000000D03*
X80520000Y-53000000D03*
X82810000Y-53000000D03*
X85100000Y-53000000D03*
X87390000Y-53000000D03*
X89680000Y-53000000D03*
X91970000Y-53000000D03*
X94260000Y-53000000D03*
X96550000Y-53000000D03*
X98840000Y-53000000D03*
X101130000Y-53000000D03*
X103420000Y-53000000D03*
X105710000Y-53000000D03*
D12*
X108000000Y-53000000D03*
D15*
X76900000Y-116600000D03*
X79300000Y-116100000D03*
X81600000Y-116100000D03*
X83900000Y-115700000D03*
X86100000Y-115600000D03*
X88500000Y-116516590D03*
X90700000Y-116211779D03*
X92890948Y-116211779D03*
X95300000Y-115602157D03*
X97611027Y-115602157D03*
X99850000Y-113550000D03*
X102250000Y-114550000D03*
X104750000Y-110850000D03*
X106900000Y-112050000D03*
X109050000Y-108250000D03*
X76200000Y-109600000D03*
X78200000Y-107100000D03*
X80400000Y-107700000D03*
X82500000Y-103600000D03*
X84727178Y-104072822D03*
X86650000Y-102000000D03*
X89600000Y-102800000D03*
X92050000Y-98700000D03*
X94200000Y-99000000D03*
X96600000Y-95550000D03*
X98750000Y-96500000D03*
X100700000Y-93150000D03*
X103300000Y-94150000D03*
X105700000Y-90800000D03*
X107950000Y-91550000D03*
X74400000Y-88900000D03*
X73966590Y-90600000D03*
X74100000Y-85600000D03*
X73343032Y-88100000D03*
X74500000Y-82900000D03*
X72733410Y-83600000D03*
X73900000Y-81400000D03*
X120233410Y-81500000D03*
X118300000Y-77600000D03*
X113600000Y-78600000D03*
X112500000Y-75300000D03*
X111800000Y-76300000D03*
X111700000Y-72500000D03*
X110400000Y-73500000D03*
D16*
X108000000Y-70000000D03*
X105900000Y-71200000D03*
X103400000Y-67990400D03*
X101000000Y-68600000D03*
X98700000Y-66300000D03*
X96600000Y-66500000D03*
X94200000Y-64900000D03*
X92000000Y-65600000D03*
X89600000Y-62400000D03*
X87000000Y-62800000D03*
X85100000Y-60700000D03*
X82500000Y-62000000D03*
X80666070Y-58930399D03*
X78200000Y-59800000D03*
D15*
X75800000Y-58100000D03*
D16*
X109300000Y-58500000D03*
X107000000Y-56409600D03*
X104500000Y-56900000D03*
X102100000Y-55190390D03*
X100000000Y-56100000D03*
X97800000Y-56400000D03*
X95500000Y-56490400D03*
X93200000Y-56490400D03*
X91000000Y-56490400D03*
X88600000Y-56400000D03*
X86400000Y-56400000D03*
X84000000Y-58200000D03*
X81600000Y-58100000D03*
X79700000Y-58600000D03*
X77200000Y-59400000D03*
X103000000Y-71300000D03*
X102300000Y-72500000D03*
X101200000Y-73500000D03*
X100000000Y-74200000D03*
X99000000Y-75100000D03*
X98300000Y-76200000D03*
X97900000Y-77300000D03*
X69600000Y-66700000D03*
X70100000Y-68600000D03*
X72090400Y-69500000D03*
X72700000Y-71200000D03*
X72700000Y-73100000D03*
X72500000Y-75300000D03*
X74600000Y-76400000D03*
D17*
X76900000Y-116600000D02*
X78814430Y-118514430D01*
X78814430Y-118514430D02*
X115852298Y-118514430D01*
X115852298Y-118514430D02*
X121800000Y-124462132D01*
X121800000Y-124462132D02*
X121800000Y-126900000D01*
X121800000Y-126900000D02*
X123500000Y-128600000D01*
X125400000Y-128600000D02*
X127000000Y-127000000D01*
X123500000Y-128600000D02*
X125400000Y-128600000D01*
X79300000Y-116100000D02*
X81409620Y-118209620D01*
X81409620Y-118209620D02*
X115978554Y-118209620D01*
X124460000Y-126691066D02*
X124460000Y-127000000D01*
X115978554Y-118209620D02*
X124460000Y-126691066D01*
X125760000Y-125700000D02*
X127000000Y-124460000D01*
X123900000Y-125700000D02*
X125760000Y-125700000D01*
X116104810Y-117904810D02*
X123900000Y-125700000D01*
X81600000Y-116100000D02*
X83404810Y-117904810D01*
X83404810Y-117904810D02*
X116104810Y-117904810D01*
X83900000Y-115700000D02*
X85800000Y-117600000D01*
X85800000Y-117600000D02*
X116268934Y-117600000D01*
X123128934Y-124460000D02*
X124460000Y-124460000D01*
X116268934Y-117600000D02*
X123128934Y-124460000D01*
X87704799Y-117204799D02*
X86100000Y-115600000D01*
X116304799Y-117204799D02*
X87704799Y-117204799D01*
X125720000Y-123200000D02*
X122300000Y-123200000D01*
X127000000Y-121920000D02*
X125720000Y-123200000D01*
X122300000Y-123200000D02*
X116304799Y-117204799D01*
X121451066Y-121920000D02*
X116350311Y-116819244D01*
X124460000Y-121920000D02*
X121451066Y-121920000D01*
X116350311Y-116819244D02*
X89233706Y-116819244D01*
X89233706Y-116819244D02*
X88931052Y-116516590D01*
X88931052Y-116516590D02*
X88500000Y-116516590D01*
X91233402Y-115678377D02*
X90700000Y-116211779D01*
X125770000Y-118150000D02*
X118543198Y-118150000D01*
X127000000Y-119380000D02*
X125770000Y-118150000D01*
X118543198Y-118150000D02*
X116602823Y-116209622D01*
X116602823Y-116209622D02*
X93678227Y-116209622D01*
X93678227Y-116209622D02*
X93146982Y-115678377D01*
X93146982Y-115678377D02*
X91233402Y-115678377D01*
X93193602Y-116514433D02*
X92890948Y-116211779D01*
X116476567Y-116514433D02*
X93193602Y-116514433D01*
X124460000Y-119380000D02*
X119342132Y-119380000D01*
X119342132Y-119380000D02*
X116476567Y-116514433D01*
X127000000Y-116840000D02*
X125760000Y-115600000D01*
X125760000Y-115600000D02*
X98398306Y-115600000D01*
X98398306Y-115600000D02*
X97867061Y-115068755D01*
X97867061Y-115068755D02*
X95833402Y-115068755D01*
X95833402Y-115068755D02*
X95300000Y-115602157D01*
X124460000Y-116840000D02*
X123524811Y-115904811D01*
X123524811Y-115904811D02*
X98272050Y-115904811D01*
X97969396Y-115602157D02*
X97611027Y-115602157D01*
X98272050Y-115904811D02*
X97969396Y-115602157D01*
X125800000Y-113100000D02*
X127000000Y-114300000D01*
X99850000Y-113550000D02*
X100300000Y-113100000D01*
X100300000Y-113100000D02*
X125800000Y-113100000D01*
X124210000Y-114550000D02*
X124460000Y-114300000D01*
X102250000Y-114550000D02*
X124210000Y-114550000D01*
X125785201Y-110545201D02*
X127000000Y-111760000D01*
X105054799Y-110545201D02*
X125785201Y-110545201D01*
X104750000Y-110850000D02*
X105054799Y-110545201D01*
X124170000Y-112050000D02*
X124460000Y-111760000D01*
X106900000Y-112050000D02*
X124170000Y-112050000D01*
X109354799Y-107945201D02*
X125725201Y-107945201D01*
X125725201Y-107945201D02*
X127000000Y-109220000D01*
X109050000Y-108250000D02*
X109354799Y-107945201D01*
X76580000Y-109220000D02*
X124460000Y-109220000D01*
X76200000Y-109600000D02*
X76580000Y-109220000D01*
X125720000Y-105400000D02*
X127000000Y-106680000D01*
X78200000Y-107100000D02*
X79900000Y-105400000D01*
X79900000Y-105400000D02*
X125720000Y-105400000D01*
X123571001Y-107568999D02*
X124460000Y-106680000D01*
X80400000Y-107700000D02*
X80531001Y-107568999D01*
X80531001Y-107568999D02*
X123571001Y-107568999D01*
X123372975Y-102900000D02*
X125760000Y-102900000D01*
X125760000Y-102900000D02*
X127000000Y-104140000D01*
X122872975Y-103400000D02*
X123372975Y-102900000D01*
X82500000Y-103600000D02*
X82700000Y-103400000D01*
X82700000Y-103400000D02*
X122872975Y-103400000D01*
X124460000Y-104140000D02*
X84794356Y-104140000D01*
X84794356Y-104140000D02*
X84727178Y-104072822D01*
X125800000Y-100400000D02*
X127000000Y-101600000D01*
X86650000Y-102000000D02*
X88250000Y-100400000D01*
X88250000Y-100400000D02*
X125800000Y-100400000D01*
X90800000Y-101600000D02*
X124460000Y-101600000D01*
X89600000Y-102800000D02*
X90800000Y-101600000D01*
X92050000Y-98700000D02*
X92950000Y-97800000D01*
X125740000Y-97800000D02*
X127000000Y-99060000D01*
X92950000Y-97800000D02*
X125740000Y-97800000D01*
X124400000Y-99000000D02*
X124460000Y-99060000D01*
X94200000Y-99000000D02*
X124400000Y-99000000D01*
X125725201Y-95245201D02*
X127000000Y-96520000D01*
X96904799Y-95245201D02*
X125725201Y-95245201D01*
X96600000Y-95550000D02*
X96904799Y-95245201D01*
X124440000Y-96500000D02*
X124460000Y-96520000D01*
X98750000Y-96500000D02*
X124440000Y-96500000D01*
X125720000Y-92700000D02*
X127000000Y-93980000D01*
X100700000Y-93150000D02*
X101150000Y-92700000D01*
X101150000Y-92700000D02*
X125720000Y-92700000D01*
X124290000Y-94150000D02*
X124460000Y-93980000D01*
X103300000Y-94150000D02*
X124290000Y-94150000D01*
X125760000Y-90200000D02*
X127000000Y-91440000D01*
X105700000Y-90800000D02*
X106300000Y-90200000D01*
X106300000Y-90200000D02*
X125760000Y-90200000D01*
X124350000Y-91550000D02*
X124460000Y-91440000D01*
X107950000Y-91550000D02*
X124350000Y-91550000D01*
X125700000Y-87600000D02*
X127000000Y-88900000D01*
X74400000Y-88900000D02*
X75700000Y-87600000D01*
X75700000Y-87600000D02*
X125700000Y-87600000D01*
X75666590Y-88900000D02*
X73966590Y-90600000D01*
X124460000Y-88900000D02*
X75666590Y-88900000D01*
X74100000Y-85600000D02*
X74600000Y-85100000D01*
X125740000Y-85100000D02*
X127000000Y-86360000D01*
X74600000Y-85100000D02*
X125740000Y-85100000D01*
X124460000Y-86360000D02*
X75083032Y-86360000D01*
X75083032Y-86360000D02*
X73343032Y-88100000D01*
X125780000Y-82600000D02*
X127000000Y-83820000D01*
X74500000Y-82900000D02*
X74800000Y-82600000D01*
X74800000Y-82600000D02*
X125780000Y-82600000D01*
X72953410Y-83820000D02*
X72733410Y-83600000D01*
X124460000Y-83820000D02*
X72953410Y-83820000D01*
X125720000Y-80000000D02*
X127000000Y-81280000D01*
X73900000Y-81400000D02*
X75300000Y-80000000D01*
X75300000Y-80000000D02*
X125720000Y-80000000D01*
X120453410Y-81280000D02*
X120233410Y-81500000D01*
X124460000Y-81280000D02*
X120453410Y-81280000D01*
X125760000Y-77500000D02*
X127000000Y-78740000D01*
X118300000Y-77600000D02*
X118400000Y-77500000D01*
X118400000Y-77500000D02*
X125760000Y-77500000D01*
X124320000Y-78600000D02*
X124460000Y-78740000D01*
X113600000Y-78600000D02*
X124320000Y-78600000D01*
X125700000Y-74900000D02*
X127000000Y-76200000D01*
X112500000Y-75300000D02*
X112900000Y-74900000D01*
X112900000Y-74900000D02*
X125700000Y-74900000D01*
X124360000Y-76300000D02*
X124460000Y-76200000D01*
X111800000Y-76300000D02*
X124360000Y-76300000D01*
X125740000Y-72400000D02*
X127000000Y-73660000D01*
X111700000Y-72500000D02*
X111800000Y-72400000D01*
X111800000Y-72400000D02*
X125740000Y-72400000D01*
X124300000Y-73500000D02*
X124460000Y-73660000D01*
X110400000Y-73500000D02*
X124300000Y-73500000D01*
X125680000Y-69800000D02*
X127000000Y-71120000D01*
X108000000Y-70000000D02*
X108200000Y-69800000D01*
X108200000Y-69800000D02*
X125680000Y-69800000D01*
X124380000Y-71200000D02*
X124460000Y-71120000D01*
X105900000Y-71200000D02*
X124380000Y-71200000D01*
X125720000Y-67300000D02*
X127000000Y-68580000D01*
X104090400Y-67300000D02*
X125720000Y-67300000D01*
X103400000Y-67990400D02*
X104090400Y-67300000D01*
X124440000Y-68600000D02*
X124460000Y-68580000D01*
X101000000Y-68600000D02*
X124440000Y-68600000D01*
X125760000Y-64800000D02*
X127000000Y-66040000D01*
X123000000Y-64800000D02*
X125760000Y-64800000D01*
X98700000Y-66300000D02*
X121500000Y-66300000D01*
X121500000Y-66300000D02*
X123000000Y-64800000D01*
X96600000Y-66500000D02*
X97095189Y-66995189D01*
X123504811Y-66995189D02*
X124460000Y-66040000D01*
X97095189Y-66995189D02*
X123504811Y-66995189D01*
X125700000Y-62200000D02*
X127000000Y-63500000D01*
X123600000Y-62200000D02*
X125700000Y-62200000D01*
X94200000Y-64900000D02*
X94600000Y-64500000D01*
X121300000Y-64500000D02*
X123600000Y-62200000D01*
X94600000Y-64500000D02*
X121300000Y-64500000D01*
X123300000Y-63500000D02*
X124460000Y-63500000D01*
X92000000Y-65600000D02*
X121200000Y-65600000D01*
X121200000Y-65600000D02*
X123300000Y-63500000D01*
X125740000Y-59700000D02*
X127000000Y-60960000D01*
X123482975Y-59700000D02*
X125740000Y-59700000D01*
X89600000Y-62400000D02*
X120782975Y-62400000D01*
X120782975Y-62400000D02*
X123482975Y-59700000D01*
X123740000Y-60960000D02*
X124460000Y-60960000D01*
X121400000Y-63300000D02*
X123740000Y-60960000D01*
X87000000Y-62800000D02*
X87500000Y-63300000D01*
X87500000Y-63300000D02*
X121400000Y-63300000D01*
X85100000Y-60700000D02*
X119500000Y-60700000D01*
X119500000Y-60700000D02*
X123100000Y-57100000D01*
X125680000Y-57100000D02*
X127000000Y-58420000D01*
X123100000Y-57100000D02*
X125680000Y-57100000D01*
X82500000Y-62000000D02*
X83100000Y-61400000D01*
X83100000Y-61400000D02*
X120100000Y-61400000D01*
X123080000Y-58420000D02*
X124460000Y-58420000D01*
X120100000Y-61400000D02*
X123080000Y-58420000D01*
X81047069Y-59311398D02*
X80666070Y-58930399D01*
X125720000Y-54600000D02*
X122400000Y-54600000D01*
X127000000Y-55880000D02*
X125720000Y-54600000D01*
X122400000Y-54600000D02*
X117600000Y-59400000D01*
X117600000Y-59400000D02*
X84310481Y-59400000D01*
X84310481Y-59400000D02*
X84221879Y-59311398D01*
X84221879Y-59311398D02*
X81047069Y-59311398D01*
X123120000Y-55880000D02*
X124460000Y-55880000D01*
X78200000Y-59800000D02*
X119200000Y-59800000D01*
X119200000Y-59800000D02*
X123120000Y-55880000D01*
X80407412Y-57809622D02*
X76090378Y-57809622D01*
X81407391Y-58809601D02*
X80407412Y-57809622D01*
X125760000Y-52100000D02*
X123300000Y-52100000D01*
X85302210Y-57800000D02*
X84292609Y-58809601D01*
X127000000Y-53340000D02*
X125760000Y-52100000D01*
X84292609Y-58809601D02*
X81407391Y-58809601D01*
X123300000Y-52100000D02*
X117600000Y-57800000D01*
X76090378Y-57809622D02*
X75800000Y-58100000D01*
X117600000Y-57800000D02*
X85302210Y-57800000D01*
X122491066Y-53340000D02*
X124460000Y-53340000D01*
X117331066Y-58500000D02*
X122491066Y-53340000D01*
X109300000Y-58500000D02*
X117331066Y-58500000D01*
X125700000Y-49500000D02*
X127000000Y-50800000D01*
X123801152Y-49500000D02*
X125700000Y-49500000D01*
X107000000Y-56409600D02*
X116891552Y-56409600D01*
X116891552Y-56409600D02*
X123801152Y-49500000D01*
X117200000Y-57300000D02*
X123700000Y-50800000D01*
X123700000Y-50800000D02*
X124460000Y-50800000D01*
X104500000Y-56900000D02*
X104900000Y-57300000D01*
X104900000Y-57300000D02*
X117200000Y-57300000D01*
X125440000Y-46700000D02*
X123500000Y-46700000D01*
X127000000Y-48260000D02*
X125440000Y-46700000D01*
X123500000Y-46700000D02*
X115009610Y-55190390D01*
X115009610Y-55190390D02*
X102100000Y-55190390D01*
X100300000Y-55800000D02*
X116920000Y-55800000D01*
X100000000Y-56100000D02*
X100300000Y-55800000D01*
X116920000Y-55800000D02*
X124460000Y-48260000D01*
X97800000Y-56400000D02*
X95800000Y-54400000D01*
X95800000Y-54400000D02*
X67900000Y-54400000D01*
X67900000Y-54400000D02*
X62700000Y-49200000D01*
X62700000Y-49200000D02*
X62700000Y-47800000D01*
X62700000Y-47800000D02*
X61700000Y-46800000D01*
X59880000Y-46800000D02*
X58420000Y-48260000D01*
X61700000Y-46800000D02*
X59880000Y-46800000D01*
X95500000Y-56490400D02*
X93799980Y-54790380D01*
X93799980Y-54790380D02*
X67690380Y-54790380D01*
X61160000Y-48260000D02*
X60960000Y-48260000D01*
X67690380Y-54790380D02*
X61160000Y-48260000D01*
X93200000Y-56490400D02*
X91804790Y-55095190D01*
X91804790Y-55095190D02*
X67295190Y-55095190D01*
X67295190Y-55095190D02*
X61700000Y-49500000D01*
X59720000Y-49500000D02*
X58420000Y-50800000D01*
X61700000Y-49500000D02*
X59720000Y-49500000D01*
X91000000Y-56490400D02*
X89909600Y-55400000D01*
X89909600Y-55400000D02*
X66800000Y-55400000D01*
X62200000Y-50800000D02*
X60960000Y-50800000D01*
X66800000Y-55400000D02*
X62200000Y-50800000D01*
X59660000Y-52100000D02*
X58420000Y-53340000D01*
X62400000Y-52100000D02*
X59660000Y-52100000D01*
X66090399Y-55790399D02*
X62400000Y-52100000D01*
X88600000Y-56400000D02*
X87990399Y-55790399D01*
X87990399Y-55790399D02*
X66090399Y-55790399D01*
X64020000Y-56400000D02*
X60960000Y-53340000D01*
X86400000Y-56400000D02*
X64020000Y-56400000D01*
X64200001Y-57200001D02*
X83000001Y-57200001D01*
X61600000Y-54600000D02*
X64200001Y-57200001D01*
X58420000Y-55880000D02*
X58720000Y-55880000D01*
X83000001Y-57200001D02*
X84000000Y-58200000D01*
X60000000Y-54600000D02*
X61600000Y-54600000D01*
X58720000Y-55880000D02*
X60000000Y-54600000D01*
X81004811Y-57504811D02*
X81600000Y-58100000D01*
X63804811Y-57504811D02*
X81004811Y-57504811D01*
X60960000Y-55880000D02*
X62180000Y-55880000D01*
X62180000Y-55880000D02*
X63804811Y-57504811D01*
X59740000Y-57100000D02*
X58420000Y-58420000D01*
X62300000Y-57100000D02*
X59740000Y-57100000D01*
X63833401Y-58633401D02*
X62300000Y-57100000D01*
X79700000Y-58600000D02*
X79666599Y-58633401D01*
X79666599Y-58633401D02*
X63833401Y-58633401D01*
X63197235Y-59400000D02*
X77200000Y-59400000D01*
X62217235Y-58420000D02*
X63197235Y-59400000D01*
X60960000Y-58420000D02*
X62217235Y-58420000D01*
X62400000Y-59700000D02*
X59680000Y-59700000D01*
X62800000Y-60100000D02*
X62400000Y-59700000D01*
X59680000Y-59700000D02*
X58420000Y-60960000D01*
X69990378Y-62890378D02*
X67200000Y-60100000D01*
X103000000Y-71300000D02*
X93700000Y-71300000D01*
X85290378Y-62890378D02*
X69990378Y-62890378D01*
X67200000Y-60100000D02*
X62800000Y-60100000D01*
X93700000Y-71300000D02*
X85290378Y-62890378D01*
X66660000Y-60960000D02*
X60960000Y-60960000D01*
X68895189Y-63195189D02*
X66660000Y-60960000D01*
X102300000Y-72500000D02*
X93600000Y-72500000D01*
X93600000Y-72500000D02*
X84295189Y-63195189D01*
X84295189Y-63195189D02*
X68895189Y-63195189D01*
X68100000Y-63500000D02*
X66800000Y-62200000D01*
X66800000Y-62200000D02*
X59720000Y-62200000D01*
X83700000Y-63500000D02*
X68100000Y-63500000D01*
X101200000Y-73500000D02*
X93700000Y-73500000D01*
X59720000Y-62200000D02*
X58420000Y-63500000D01*
X93700000Y-73500000D02*
X83700000Y-63500000D01*
X61360000Y-63900000D02*
X60960000Y-63500000D01*
X83100000Y-63900000D02*
X61360000Y-63900000D01*
X100000000Y-74200000D02*
X93400000Y-74200000D01*
X93400000Y-74200000D02*
X83100000Y-63900000D01*
X59660000Y-64800000D02*
X58420000Y-66040000D01*
X83100000Y-64800000D02*
X59660000Y-64800000D01*
X99000000Y-75100000D02*
X93400000Y-75100000D01*
X93400000Y-75100000D02*
X83100000Y-64800000D01*
X82151001Y-65151001D02*
X61848999Y-65151001D01*
X61848999Y-65151001D02*
X60960000Y-66040000D01*
X98300000Y-76200000D02*
X93200000Y-76200000D01*
X93200000Y-76200000D02*
X82151001Y-65151001D01*
X59700000Y-67300000D02*
X58420000Y-68580000D01*
X61658848Y-67300000D02*
X59700000Y-67300000D01*
X63358848Y-65600000D02*
X61658848Y-67300000D01*
X81100000Y-65600000D02*
X63358848Y-65600000D01*
X97900000Y-77300000D02*
X92800000Y-77300000D01*
X92800000Y-77300000D02*
X81100000Y-65600000D01*
X67720000Y-68580000D02*
X60960000Y-68580000D01*
X69600000Y-66700000D02*
X67720000Y-68580000D01*
X70100000Y-68600000D02*
X69000000Y-69700000D01*
X59840000Y-69700000D02*
X58420000Y-71120000D01*
X69000000Y-69700000D02*
X59840000Y-69700000D01*
X70470400Y-71120000D02*
X60960000Y-71120000D01*
X72090400Y-69500000D02*
X70470400Y-71120000D01*
X59680000Y-72400000D02*
X58420000Y-73660000D01*
X72700000Y-71200000D02*
X71500000Y-72400000D01*
X71500000Y-72400000D02*
X59680000Y-72400000D01*
X72140000Y-73660000D02*
X60960000Y-73660000D01*
X72700000Y-73100000D02*
X72140000Y-73660000D01*
X59700999Y-74919001D02*
X58420000Y-76200000D01*
X72119001Y-74919001D02*
X59700999Y-74919001D01*
X72500000Y-75300000D02*
X72119001Y-74919001D01*
X61160000Y-76400000D02*
X60960000Y-76200000D01*
X74600000Y-76400000D02*
X61160000Y-76400000D01*
M02*
