(export (version D)
  (design
    (source /home/jhunacek/gdrive/research-caltech/cable-tester/pcb/adapters/breadboard/adapter-breadboard.sch)
    (date "Fri 12 Aug 2016 01:28:02 PM PDT")
    (tool "Eeschema 4.0.2+e4-6225~38~ubuntu14.04.1-stable")
    (sheet (number 1) (name /) (tstamps /)
      (title_block
        (title)
        (company)
        (rev)
        (date)
        (source adapter-breadboard.sch)
        (comment (number 1) (value ""))
        (comment (number 2) (value ""))
        (comment (number 3) (value ""))
        (comment (number 4) (value "")))))
  (components
    (comp (ref P1)
      (value CONN_02X32)
      (footprint Pin_Headers:Pin_Header_Straight_2x32)
      (libsource (lib conn) (part CONN_02X32))
      (sheetpath (names /) (tstamps /))
      (tstamp 57AE2F8D))
    (comp (ref P2)
      (value CONN_02X32)
      (footprint Pin_Headers:Pin_Header_Straight_2x32)
      (libsource (lib conn) (part CONN_02X32))
      (sheetpath (names /) (tstamps /))
      (tstamp 57AE312F))
    (comp (ref U1)
      (value connector-header-128)
      (footprint cable-tester:connector-header-128)
      (libsource (lib connector-header-128) (part connector-header-128))
      (sheetpath (names /) (tstamps /))
      (tstamp 57ABEA1B)))
  (libparts
    (libpart (lib conn) (part CONN_02X32)
      (description "Connector 02x32")
      (footprints
        (fp Pin_Header_Straight_2X32)
        (fp Pin_Header_Angled_2X32)
        (fp Socket_Strip_Straight_2X32)
        (fp Socket_Strip_Angled_2X32))
      (fields
        (field (name Reference) P)
        (field (name Value) CONN_02X32))
      (pins
        (pin (num 1) (name P1) (type passive))
        (pin (num 2) (name P2) (type passive))
        (pin (num 3) (name P3) (type passive))
        (pin (num 4) (name P4) (type passive))
        (pin (num 5) (name P5) (type passive))
        (pin (num 6) (name P6) (type passive))
        (pin (num 7) (name P7) (type passive))
        (pin (num 8) (name P8) (type passive))
        (pin (num 9) (name P9) (type passive))
        (pin (num 10) (name P10) (type passive))
        (pin (num 11) (name P11) (type passive))
        (pin (num 12) (name P12) (type passive))
        (pin (num 13) (name P13) (type passive))
        (pin (num 14) (name P14) (type passive))
        (pin (num 15) (name P15) (type passive))
        (pin (num 16) (name P16) (type passive))
        (pin (num 17) (name P17) (type passive))
        (pin (num 18) (name P18) (type passive))
        (pin (num 19) (name P19) (type passive))
        (pin (num 20) (name P20) (type passive))
        (pin (num 21) (name P21) (type passive))
        (pin (num 22) (name P22) (type passive))
        (pin (num 23) (name P23) (type passive))
        (pin (num 24) (name P24) (type passive))
        (pin (num 25) (name P25) (type passive))
        (pin (num 26) (name P26) (type passive))
        (pin (num 27) (name P27) (type passive))
        (pin (num 28) (name P28) (type passive))
        (pin (num 29) (name P29) (type passive))
        (pin (num 30) (name P30) (type passive))
        (pin (num 31) (name P31) (type passive))
        (pin (num 32) (name P32) (type passive))
        (pin (num 33) (name P33) (type passive))
        (pin (num 34) (name P34) (type passive))
        (pin (num 35) (name P35) (type passive))
        (pin (num 36) (name P36) (type passive))
        (pin (num 37) (name P37) (type passive))
        (pin (num 38) (name P38) (type passive))
        (pin (num 39) (name P39) (type passive))
        (pin (num 40) (name P40) (type passive))
        (pin (num 41) (name P41) (type passive))
        (pin (num 42) (name P42) (type passive))
        (pin (num 43) (name P43) (type passive))
        (pin (num 44) (name P44) (type passive))
        (pin (num 45) (name P45) (type passive))
        (pin (num 46) (name P46) (type passive))
        (pin (num 47) (name P47) (type passive))
        (pin (num 48) (name P48) (type passive))
        (pin (num 49) (name P49) (type passive))
        (pin (num 50) (name P50) (type passive))
        (pin (num 51) (name P51) (type passive))
        (pin (num 52) (name P52) (type passive))
        (pin (num 53) (name P53) (type passive))
        (pin (num 54) (name P54) (type passive))
        (pin (num 55) (name P55) (type passive))
        (pin (num 56) (name P56) (type passive))
        (pin (num 57) (name P57) (type passive))
        (pin (num 58) (name P58) (type passive))
        (pin (num 59) (name P59) (type passive))
        (pin (num 60) (name P60) (type passive))
        (pin (num 61) (name P61) (type passive))
        (pin (num 62) (name P62) (type passive))
        (pin (num 63) (name P63) (type passive))
        (pin (num 64) (name P64) (type passive))))
    (libpart (lib connector-header-128) (part connector-header-128)
      (fields
        (field (name Reference) U)
        (field (name Value) connector-header-128))
      (pins
        (pin (num 1) (name 1) (type input))
        (pin (num 2) (name 2) (type input))
        (pin (num 3) (name 3) (type input))
        (pin (num 4) (name 4) (type input))
        (pin (num 5) (name 5) (type input))
        (pin (num 6) (name 6) (type input))
        (pin (num 7) (name 7) (type input))
        (pin (num 8) (name 8) (type input))
        (pin (num 9) (name 9) (type input))
        (pin (num 10) (name 10) (type input))
        (pin (num 11) (name 11) (type input))
        (pin (num 12) (name 12) (type input))
        (pin (num 13) (name 13) (type input))
        (pin (num 14) (name 14) (type input))
        (pin (num 15) (name 15) (type input))
        (pin (num 16) (name 16) (type input))
        (pin (num 17) (name 17) (type input))
        (pin (num 18) (name 18) (type input))
        (pin (num 19) (name 19) (type input))
        (pin (num 20) (name 20) (type input))
        (pin (num 21) (name 21) (type input))
        (pin (num 22) (name 22) (type input))
        (pin (num 23) (name 23) (type input))
        (pin (num 24) (name 24) (type input))
        (pin (num 25) (name 25) (type input))
        (pin (num 26) (name 26) (type input))
        (pin (num 27) (name 27) (type input))
        (pin (num 28) (name 28) (type input))
        (pin (num 29) (name 29) (type input))
        (pin (num 30) (name 30) (type input))
        (pin (num 31) (name 31) (type input))
        (pin (num 32) (name 32) (type input))
        (pin (num 33) (name 33) (type input))
        (pin (num 34) (name 34) (type input))
        (pin (num 35) (name 35) (type input))
        (pin (num 36) (name 36) (type input))
        (pin (num 37) (name 37) (type input))
        (pin (num 38) (name 38) (type input))
        (pin (num 39) (name 39) (type input))
        (pin (num 40) (name 40) (type input))
        (pin (num 41) (name 41) (type input))
        (pin (num 42) (name 42) (type input))
        (pin (num 43) (name 43) (type input))
        (pin (num 44) (name 44) (type input))
        (pin (num 45) (name 45) (type input))
        (pin (num 46) (name 46) (type input))
        (pin (num 47) (name 47) (type input))
        (pin (num 48) (name 48) (type input))
        (pin (num 49) (name 49) (type input))
        (pin (num 50) (name 50) (type input))
        (pin (num 51) (name 51) (type input))
        (pin (num 52) (name 52) (type input))
        (pin (num 53) (name 53) (type input))
        (pin (num 54) (name 54) (type input))
        (pin (num 55) (name 55) (type input))
        (pin (num 56) (name 56) (type input))
        (pin (num 57) (name 57) (type input))
        (pin (num 58) (name 58) (type input))
        (pin (num 59) (name 59) (type input))
        (pin (num 60) (name 60) (type input))
        (pin (num 61) (name 61) (type input))
        (pin (num 62) (name 62) (type input))
        (pin (num 63) (name 63) (type input))
        (pin (num 64) (name 64) (type input))
        (pin (num 65) (name 65) (type input))
        (pin (num 66) (name 66) (type input))
        (pin (num 67) (name 67) (type input))
        (pin (num 68) (name 68) (type input))
        (pin (num 69) (name 69) (type input))
        (pin (num 70) (name 70) (type input))
        (pin (num 71) (name 71) (type input))
        (pin (num 72) (name 72) (type input))
        (pin (num 73) (name 73) (type input))
        (pin (num 74) (name 74) (type input))
        (pin (num 75) (name 75) (type input))
        (pin (num 76) (name 76) (type input))
        (pin (num 77) (name 77) (type input))
        (pin (num 78) (name 78) (type input))
        (pin (num 79) (name 79) (type input))
        (pin (num 80) (name 80) (type input))
        (pin (num 81) (name 81) (type input))
        (pin (num 82) (name 82) (type input))
        (pin (num 83) (name 83) (type input))
        (pin (num 84) (name 84) (type input))
        (pin (num 85) (name 85) (type input))
        (pin (num 86) (name 86) (type input))
        (pin (num 87) (name 87) (type input))
        (pin (num 88) (name 88) (type input))
        (pin (num 89) (name 89) (type input))
        (pin (num 90) (name 90) (type input))
        (pin (num 91) (name 91) (type input))
        (pin (num 92) (name 92) (type input))
        (pin (num 93) (name 93) (type input))
        (pin (num 94) (name 94) (type input))
        (pin (num 95) (name 95) (type input))
        (pin (num 96) (name 96) (type input))
        (pin (num 97) (name 97) (type input))
        (pin (num 98) (name 98) (type input))
        (pin (num 99) (name 99) (type input))
        (pin (num 100) (name 100) (type input))
        (pin (num 101) (name 101) (type input))
        (pin (num 102) (name 102) (type input))
        (pin (num 103) (name 103) (type input))
        (pin (num 104) (name 104) (type input))
        (pin (num 105) (name 105) (type input))
        (pin (num 106) (name 106) (type input))
        (pin (num 107) (name 107) (type input))
        (pin (num 108) (name 108) (type input))
        (pin (num 109) (name 109) (type input))
        (pin (num 110) (name 110) (type input))
        (pin (num 111) (name 111) (type input))
        (pin (num 112) (name 112) (type input))
        (pin (num 113) (name 113) (type input))
        (pin (num 114) (name 114) (type input))
        (pin (num 115) (name 115) (type input))
        (pin (num 116) (name 116) (type input))
        (pin (num 117) (name 117) (type input))
        (pin (num 118) (name 118) (type input))
        (pin (num 119) (name 119) (type input))
        (pin (num 120) (name 120) (type input))
        (pin (num 121) (name 121) (type input))
        (pin (num 122) (name 122) (type input))
        (pin (num 123) (name 123) (type input))
        (pin (num 124) (name 124) (type input))
        (pin (num 125) (name 125) (type input))
        (pin (num 126) (name 126) (type input))
        (pin (num 127) (name 127) (type input))
        (pin (num 128) (name 128) (type input)))))
  (libraries
    (library (logical conn)
      (uri /usr/share/kicad/library/conn.lib))
    (library (logical connector-header-128)
      (uri /home/jhunacek/gdrive/research-caltech/cable-tester/pcb/libs/connector-header-128.lib)))
  (nets
    (net (code 1) (name /P109)
      (node (ref P2) (pin 45))
      (node (ref U1) (pin 109)))
    (net (code 2) (name /P111)
      (node (ref U1) (pin 111))
      (node (ref P2) (pin 47)))
    (net (code 3) (name /P108)
      (node (ref U1) (pin 108))
      (node (ref P2) (pin 44)))
    (net (code 4) (name /P106)
      (node (ref U1) (pin 106))
      (node (ref P2) (pin 42)))
    (net (code 5) (name /P104)
      (node (ref U1) (pin 104))
      (node (ref P2) (pin 40)))
    (net (code 6) (name /P102)
      (node (ref U1) (pin 102))
      (node (ref P2) (pin 38)))
    (net (code 7) (name /P110)
      (node (ref P2) (pin 46))
      (node (ref U1) (pin 110)))
    (net (code 8) (name /P101)
      (node (ref P2) (pin 37))
      (node (ref U1) (pin 101)))
    (net (code 9) (name /P103)
      (node (ref P2) (pin 39))
      (node (ref U1) (pin 103)))
    (net (code 10) (name /P105)
      (node (ref P2) (pin 41))
      (node (ref U1) (pin 105)))
    (net (code 11) (name /P107)
      (node (ref P2) (pin 43))
      (node (ref U1) (pin 107)))
    (net (code 12) (name /P067)
      (node (ref P2) (pin 3))
      (node (ref U1) (pin 67)))
    (net (code 13) (name /P077)
      (node (ref P2) (pin 13))
      (node (ref U1) (pin 77)))
    (net (code 14) (name /P075)
      (node (ref U1) (pin 75))
      (node (ref P2) (pin 11)))
    (net (code 15) (name /P073)
      (node (ref P2) (pin 9))
      (node (ref U1) (pin 73)))
    (net (code 16) (name /P071)
      (node (ref P2) (pin 7))
      (node (ref U1) (pin 71)))
    (net (code 17) (name /P069)
      (node (ref P2) (pin 5))
      (node (ref U1) (pin 69)))
    (net (code 18) (name /P065)
      (node (ref P2) (pin 1))
      (node (ref U1) (pin 65)))
    (net (code 19) (name /P099)
      (node (ref P2) (pin 35))
      (node (ref U1) (pin 99)))
    (net (code 20) (name /P113)
      (node (ref P2) (pin 49))
      (node (ref U1) (pin 113)))
    (net (code 21) (name /P115)
      (node (ref U1) (pin 115))
      (node (ref P2) (pin 51)))
    (net (code 22) (name /P117)
      (node (ref P2) (pin 53))
      (node (ref U1) (pin 117)))
    (net (code 23) (name /P119)
      (node (ref P2) (pin 55))
      (node (ref U1) (pin 119)))
    (net (code 24) (name /P121)
      (node (ref U1) (pin 121))
      (node (ref P2) (pin 57)))
    (net (code 25) (name /P123)
      (node (ref U1) (pin 123))
      (node (ref P2) (pin 59)))
    (net (code 26) (name /P125)
      (node (ref U1) (pin 125))
      (node (ref P2) (pin 61)))
    (net (code 27) (name /P127)
      (node (ref P2) (pin 63))
      (node (ref U1) (pin 127)))
    (net (code 28) (name /P112)
      (node (ref P2) (pin 48))
      (node (ref U1) (pin 112)))
    (net (code 29) (name /P114)
      (node (ref P2) (pin 50))
      (node (ref U1) (pin 114)))
    (net (code 30) (name /P122)
      (node (ref P2) (pin 58))
      (node (ref U1) (pin 122)))
    (net (code 31) (name /P124)
      (node (ref U1) (pin 124))
      (node (ref P2) (pin 60)))
    (net (code 32) (name /P126)
      (node (ref U1) (pin 126))
      (node (ref P2) (pin 62)))
    (net (code 33) (name /P128)
      (node (ref P2) (pin 64))
      (node (ref U1) (pin 128)))
    (net (code 34) (name /P116)
      (node (ref U1) (pin 116))
      (node (ref P2) (pin 52)))
    (net (code 35) (name /P118)
      (node (ref P2) (pin 54))
      (node (ref U1) (pin 118)))
    (net (code 36) (name /P120)
      (node (ref P2) (pin 56))
      (node (ref U1) (pin 120)))
    (net (code 37) (name /P057)
      (node (ref U1) (pin 57))
      (node (ref P1) (pin 57)))
    (net (code 38) (name /P059)
      (node (ref U1) (pin 59))
      (node (ref P1) (pin 59)))
    (net (code 39) (name /P061)
      (node (ref U1) (pin 61))
      (node (ref P1) (pin 61)))
    (net (code 40) (name /P063)
      (node (ref U1) (pin 63))
      (node (ref P1) (pin 63)))
    (net (code 41) (name /P097)
      (node (ref U1) (pin 97))
      (node (ref P2) (pin 33)))
    (net (code 42) (name /P095)
      (node (ref U1) (pin 95))
      (node (ref P2) (pin 31)))
    (net (code 43) (name /P093)
      (node (ref U1) (pin 93))
      (node (ref P2) (pin 29)))
    (net (code 44) (name /P091)
      (node (ref P2) (pin 27))
      (node (ref U1) (pin 91)))
    (net (code 45) (name /P089)
      (node (ref U1) (pin 89))
      (node (ref P2) (pin 25)))
    (net (code 46) (name /P087)
      (node (ref P2) (pin 23))
      (node (ref U1) (pin 87)))
    (net (code 47) (name /P085)
      (node (ref P2) (pin 21))
      (node (ref U1) (pin 85)))
    (net (code 48) (name /P033)
      (node (ref U1) (pin 33))
      (node (ref P1) (pin 33)))
    (net (code 49) (name /P035)
      (node (ref P1) (pin 35))
      (node (ref U1) (pin 35)))
    (net (code 50) (name /P037)
      (node (ref P1) (pin 37))
      (node (ref U1) (pin 37)))
    (net (code 51) (name /P039)
      (node (ref U1) (pin 39))
      (node (ref P1) (pin 39)))
    (net (code 52) (name /P041)
      (node (ref U1) (pin 41))
      (node (ref P1) (pin 41)))
    (net (code 53) (name /P083)
      (node (ref U1) (pin 83))
      (node (ref P2) (pin 19)))
    (net (code 54) (name /P043)
      (node (ref P1) (pin 43))
      (node (ref U1) (pin 43)))
    (net (code 55) (name /P045)
      (node (ref P1) (pin 45))
      (node (ref U1) (pin 45)))
    (net (code 56) (name /P047)
      (node (ref P1) (pin 47))
      (node (ref U1) (pin 47)))
    (net (code 57) (name /P049)
      (node (ref U1) (pin 49))
      (node (ref P1) (pin 49)))
    (net (code 58) (name /P051)
      (node (ref U1) (pin 51))
      (node (ref P1) (pin 51)))
    (net (code 59) (name /P053)
      (node (ref P1) (pin 53))
      (node (ref U1) (pin 53)))
    (net (code 60) (name /P055)
      (node (ref U1) (pin 55))
      (node (ref P1) (pin 55)))
    (net (code 61) (name /P094)
      (node (ref U1) (pin 94))
      (node (ref P2) (pin 30)))
    (net (code 62) (name /P092)
      (node (ref P2) (pin 28))
      (node (ref U1) (pin 92)))
    (net (code 63) (name /P090)
      (node (ref P2) (pin 26))
      (node (ref U1) (pin 90)))
    (net (code 64) (name /P088)
      (node (ref P2) (pin 24))
      (node (ref U1) (pin 88)))
    (net (code 65) (name /P086)
      (node (ref U1) (pin 86))
      (node (ref P2) (pin 22)))
    (net (code 66) (name /P084)
      (node (ref U1) (pin 84))
      (node (ref P2) (pin 20)))
    (net (code 67) (name /P082)
      (node (ref U1) (pin 82))
      (node (ref P2) (pin 18)))
    (net (code 68) (name /P080)
      (node (ref P2) (pin 16))
      (node (ref U1) (pin 80)))
    (net (code 69) (name /P078)
      (node (ref P2) (pin 14))
      (node (ref U1) (pin 78)))
    (net (code 70) (name /P076)
      (node (ref U1) (pin 76))
      (node (ref P2) (pin 12)))
    (net (code 71) (name /P074)
      (node (ref U1) (pin 74))
      (node (ref P2) (pin 10)))
    (net (code 72) (name /P072)
      (node (ref P2) (pin 8))
      (node (ref U1) (pin 72)))
    (net (code 73) (name /P081)
      (node (ref P2) (pin 17))
      (node (ref U1) (pin 81)))
    (net (code 74) (name /P079)
      (node (ref U1) (pin 79))
      (node (ref P2) (pin 15)))
    (net (code 75) (name /P098)
      (node (ref U1) (pin 98))
      (node (ref P2) (pin 34)))
    (net (code 76) (name /P096)
      (node (ref P2) (pin 32))
      (node (ref U1) (pin 96)))
    (net (code 77) (name /P026)
      (node (ref P1) (pin 26))
      (node (ref U1) (pin 26)))
    (net (code 78) (name /P028)
      (node (ref P1) (pin 28))
      (node (ref U1) (pin 28)))
    (net (code 79) (name /P030)
      (node (ref P1) (pin 30))
      (node (ref U1) (pin 30)))
    (net (code 80) (name /P032)
      (node (ref U1) (pin 32))
      (node (ref P1) (pin 32)))
    (net (code 81) (name /P034)
      (node (ref P1) (pin 34))
      (node (ref U1) (pin 34)))
    (net (code 82) (name /P036)
      (node (ref U1) (pin 36))
      (node (ref P1) (pin 36)))
    (net (code 83) (name /P038)
      (node (ref U1) (pin 38))
      (node (ref P1) (pin 38)))
    (net (code 84) (name /P040)
      (node (ref P1) (pin 40))
      (node (ref U1) (pin 40)))
    (net (code 85) (name /P042)
      (node (ref P1) (pin 42))
      (node (ref U1) (pin 42)))
    (net (code 86) (name /P044)
      (node (ref P1) (pin 44))
      (node (ref U1) (pin 44)))
    (net (code 87) (name /P046)
      (node (ref P1) (pin 46))
      (node (ref U1) (pin 46)))
    (net (code 88) (name /P048)
      (node (ref U1) (pin 48))
      (node (ref P1) (pin 48)))
    (net (code 89) (name /P002)
      (node (ref U1) (pin 2))
      (node (ref P1) (pin 2)))
    (net (code 90) (name /P004)
      (node (ref U1) (pin 4))
      (node (ref P1) (pin 4)))
    (net (code 91) (name /P006)
      (node (ref U1) (pin 6))
      (node (ref P1) (pin 6)))
    (net (code 92) (name /P008)
      (node (ref U1) (pin 8))
      (node (ref P1) (pin 8)))
    (net (code 93) (name /P010)
      (node (ref U1) (pin 10))
      (node (ref P1) (pin 10)))
    (net (code 94) (name /P012)
      (node (ref P1) (pin 12))
      (node (ref U1) (pin 12)))
    (net (code 95) (name /P014)
      (node (ref P1) (pin 14))
      (node (ref U1) (pin 14)))
    (net (code 96) (name /P016)
      (node (ref U1) (pin 16))
      (node (ref P1) (pin 16)))
    (net (code 97) (name /P018)
      (node (ref U1) (pin 18))
      (node (ref P1) (pin 18)))
    (net (code 98) (name /P020)
      (node (ref P1) (pin 20))
      (node (ref U1) (pin 20)))
    (net (code 99) (name /P022)
      (node (ref P1) (pin 22))
      (node (ref U1) (pin 22)))
    (net (code 100) (name /P024)
      (node (ref U1) (pin 24))
      (node (ref P1) (pin 24)))
    (net (code 101) (name /P009)
      (node (ref P1) (pin 9))
      (node (ref U1) (pin 9)))
    (net (code 102) (name /P011)
      (node (ref U1) (pin 11))
      (node (ref P1) (pin 11)))
    (net (code 103) (name /P013)
      (node (ref P1) (pin 13))
      (node (ref U1) (pin 13)))
    (net (code 104) (name /P015)
      (node (ref P1) (pin 15))
      (node (ref U1) (pin 15)))
    (net (code 105) (name /P017)
      (node (ref P1) (pin 17))
      (node (ref U1) (pin 17)))
    (net (code 106) (name /P019)
      (node (ref U1) (pin 19))
      (node (ref P1) (pin 19)))
    (net (code 107) (name /P021)
      (node (ref P1) (pin 21))
      (node (ref U1) (pin 21)))
    (net (code 108) (name /P023)
      (node (ref U1) (pin 23))
      (node (ref P1) (pin 23)))
    (net (code 109) (name /P025)
      (node (ref P1) (pin 25))
      (node (ref U1) (pin 25)))
    (net (code 110) (name /P027)
      (node (ref P1) (pin 27))
      (node (ref U1) (pin 27)))
    (net (code 111) (name /P029)
      (node (ref P1) (pin 29))
      (node (ref U1) (pin 29)))
    (net (code 112) (name /P031)
      (node (ref U1) (pin 31))
      (node (ref P1) (pin 31)))
    (net (code 113) (name /P050)
      (node (ref P1) (pin 50))
      (node (ref U1) (pin 50)))
    (net (code 114) (name /P052)
      (node (ref U1) (pin 52))
      (node (ref P1) (pin 52)))
    (net (code 115) (name /P054)
      (node (ref P1) (pin 54))
      (node (ref U1) (pin 54)))
    (net (code 116) (name /P056)
      (node (ref P1) (pin 56))
      (node (ref U1) (pin 56)))
    (net (code 117) (name /P058)
      (node (ref P1) (pin 58))
      (node (ref U1) (pin 58)))
    (net (code 118) (name /P060)
      (node (ref P1) (pin 60))
      (node (ref U1) (pin 60)))
    (net (code 119) (name /P062)
      (node (ref P1) (pin 62))
      (node (ref U1) (pin 62)))
    (net (code 120) (name /P064)
      (node (ref U1) (pin 64))
      (node (ref P1) (pin 64)))
    (net (code 121) (name /P001)
      (node (ref U1) (pin 1))
      (node (ref P1) (pin 1)))
    (net (code 122) (name /P003)
      (node (ref U1) (pin 3))
      (node (ref P1) (pin 3)))
    (net (code 123) (name /P005)
      (node (ref U1) (pin 5))
      (node (ref P1) (pin 5)))
    (net (code 124) (name /P007)
      (node (ref P1) (pin 7))
      (node (ref U1) (pin 7)))
    (net (code 125) (name /P066)
      (node (ref U1) (pin 66))
      (node (ref P2) (pin 2)))
    (net (code 126) (name /P100)
      (node (ref P2) (pin 36))
      (node (ref U1) (pin 100)))
    (net (code 127) (name /P068)
      (node (ref P2) (pin 4))
      (node (ref U1) (pin 68)))
    (net (code 128) (name /P070)
      (node (ref U1) (pin 70))
      (node (ref P2) (pin 6)))))