EESchema Schematic File Version 4
EELAYER 30 0
EELAYER END
$Descr A4 11693 8268
encoding utf-8
Sheet 3 17
Title ""
Date ""
Rev ""
Comp ""
Comment1 ""
Comment2 ""
Comment3 ""
Comment4 ""
$EndDescr
$Comp
L cable-tester-rescue:D D?
U 1 1 602671D5
P 8800 1950
AR Path="/602671D5" Ref="D?"  Part="1" 
AR Path="/6024D6F3/602671D5" Ref="D301"  Part="1" 
AR Path="/6056E1C8/602671D5" Ref="D901"  Part="1" 
F 0 "D301" H 8800 2050 50  0000 C CNN
F 1 "D" H 8800 1850 50  0000 C CNN
F 2 "Diode_SMD:D_0805_2012Metric" H 8800 1950 50  0001 C CNN
F 3 "" H 8800 1950 50  0000 C CNN
	1    8800 1950
	1    0    0    -1  
$EndComp
$Comp
L cable-tester-rescue:D D?
U 1 1 602671DB
P 8800 2250
AR Path="/602671DB" Ref="D?"  Part="1" 
AR Path="/6024D6F3/602671DB" Ref="D302"  Part="1" 
AR Path="/6056E1C8/602671DB" Ref="D902"  Part="1" 
F 0 "D302" H 8800 2350 50  0000 C CNN
F 1 "D" H 8800 2150 50  0000 C CNN
F 2 "Diode_SMD:D_0805_2012Metric" H 8800 2250 50  0001 C CNN
F 3 "" H 8800 2250 50  0000 C CNN
	1    8800 2250
	-1   0    0    1   
$EndComp
Wire Wire Line
	8950 2100 9650 2100
Text Label 9200 2100 0    60   ~ 0
OUT
Wire Wire Line
	8950 1950 8950 2100
Connection ~ 8950 2100
Wire Wire Line
	8950 2100 8950 2250
$Comp
L cable-tester-rescue:TEST_1P BGND?
U 1 1 602671EB
P 9650 2100
AR Path="/602671EB" Ref="BGND?"  Part="1" 
AR Path="/6024D6F3/602671EB" Ref="J301"  Part="1" 
AR Path="/6056E1C8/602671EB" Ref="J901"  Part="1" 
F 0 "J301" H 9650 2370 50  0000 C CNN
F 1 "MUX" H 9650 2300 50  0000 C CNN
F 2 "banana-jack-pcb:deltron-571-0X00" H 9850 2100 50  0001 C CNN
F 3 "" H 9850 2100 50  0000 C CNN
	1    9650 2100
	0    1    1    0   
$EndComp
$Sheet
S 1550 900  550  4000
U 602989A2
F0 "mux-chip" 60
F1 "mux-chip.sch" 60
F2 "A0" I L 1550 1000 60 
F3 "A1" I L 1550 1100 60 
F4 "A2" I L 1550 1200 60 
F5 "A3" I L 1550 1300 60 
F6 "A4" I L 1550 1400 60 
F7 "CH00" B L 1550 1550 60 
F8 "CH01" B L 1550 1650 60 
F9 "CH02" B L 1550 1750 60 
F10 "CH03" B L 1550 1850 60 
F11 "CH04" B L 1550 1950 60 
F12 "CH05" B L 1550 2050 60 
F13 "CH06" B L 1550 2150 60 
F14 "CH07" B L 1550 2250 60 
F15 "CH08" B L 1550 2350 60 
F16 "CH09" B L 1550 2450 60 
F17 "CH10" B L 1550 2550 60 
F18 "CH11" B L 1550 2650 60 
F19 "CH12" B L 1550 2750 60 
F20 "CH13" B L 1550 2850 60 
F21 "CH14" B L 1550 2950 60 
F22 "CH15" B L 1550 3050 60 
F23 "OUT" B L 1550 4800 60 
F24 "CH31" B L 1550 4650 60 
F25 "CH30" B L 1550 4550 60 
F26 "CH29" B L 1550 4450 60 
F27 "CH28" B L 1550 4350 60 
F28 "CH27" B L 1550 4250 60 
F29 "CH26" B L 1550 4150 60 
F30 "CH25" B L 1550 4050 60 
F31 "CH24" B L 1550 3950 60 
F32 "CH23" B L 1550 3850 60 
F33 "CH22" B L 1550 3750 60 
F34 "CH21" B L 1550 3650 60 
F35 "CH20" B L 1550 3550 60 
F36 "CH19" B L 1550 3450 60 
F37 "CH18" B L 1550 3350 60 
F38 "CH17" B L 1550 3250 60 
F39 "CH16" B L 1550 3150 60 
$EndSheet
Text GLabel 2900 2550 0    60   Input ~ 0
CH1:10
Text GLabel 2900 2650 0    60   Input ~ 0
CH1:11
Text GLabel 2900 2750 0    60   Input ~ 0
CH1:12
Text GLabel 2900 2850 0    60   Input ~ 0
CH1:13
Text GLabel 2900 2950 0    60   Input ~ 0
CH1:14
Text GLabel 2900 3050 0    60   Input ~ 0
CH1:15
Text GLabel 2900 3150 0    60   Input ~ 0
CH1:16
Text GLabel 2900 3250 0    60   Input ~ 0
CH1:17
Text GLabel 2900 3350 0    60   Input ~ 0
CH1:18
Text GLabel 2900 3450 0    60   Input ~ 0
CH1:19
Text GLabel 2900 3550 0    60   Input ~ 0
CH1:20
Text GLabel 2900 3650 0    60   Input ~ 0
CH1:21
Text GLabel 2900 3750 0    60   Input ~ 0
CH1:22
Text GLabel 2900 3850 0    60   Input ~ 0
CH1:23
Text GLabel 2900 3950 0    60   Input ~ 0
CH1:24
Text GLabel 2900 4050 0    60   Input ~ 0
CH1:25
Text GLabel 2900 4150 0    60   Input ~ 0
CH1:26
Text GLabel 2900 4250 0    60   Input ~ 0
CH1:27
Text GLabel 2900 4350 0    60   Input ~ 0
CH1:28
Text GLabel 2900 4450 0    60   Input ~ 0
CH1:29
Text GLabel 2900 1550 0    60   Input ~ 0
CH1:00
Text GLabel 2900 1650 0    60   Input ~ 0
CH1:01
Text GLabel 2900 1750 0    60   Input ~ 0
CH1:02
Text GLabel 2900 1850 0    60   Input ~ 0
CH1:03
Text GLabel 2900 1950 0    60   Input ~ 0
CH1:04
Text GLabel 2900 2050 0    60   Input ~ 0
CH1:05
Text GLabel 2900 2150 0    60   Input ~ 0
CH1:06
Text GLabel 2900 2250 0    60   Input ~ 0
CH1:07
Text GLabel 2900 2350 0    60   Input ~ 0
CH1:08
Text GLabel 2900 2450 0    60   Input ~ 0
CH1:09
Text GLabel 2900 4550 0    60   Input ~ 0
CH1:30
Text GLabel 2900 4650 0    60   Input ~ 0
CH1:31
Text Label 1200 4800 0    60   ~ 0
INNER0
Wire Wire Line
	1550 4800 1150 4800
Text Label 2550 4800 0    60   ~ 0
INNER1
Wire Wire Line
	2900 4800 2500 4800
Text GLabel 4200 2550 0    60   Input ~ 0
CH2:10
Text GLabel 4200 2650 0    60   Input ~ 0
CH2:11
Text GLabel 4200 2750 0    60   Input ~ 0
CH2:12
Text GLabel 4200 2850 0    60   Input ~ 0
CH2:13
Text GLabel 4200 2950 0    60   Input ~ 0
CH2:14
Text GLabel 4200 3050 0    60   Input ~ 0
CH2:15
Text GLabel 4200 3150 0    60   Input ~ 0
CH2:16
Text GLabel 4200 3250 0    60   Input ~ 0
CH2:17
Text GLabel 4200 3350 0    60   Input ~ 0
CH2:18
Text GLabel 4200 3450 0    60   Input ~ 0
CH2:19
Text GLabel 4200 3550 0    60   Input ~ 0
CH2:20
Text GLabel 4200 3650 0    60   Input ~ 0
CH2:21
Text GLabel 4200 3750 0    60   Input ~ 0
CH2:22
Text GLabel 4200 3850 0    60   Input ~ 0
CH2:23
Text GLabel 4200 3950 0    60   Input ~ 0
CH2:24
Text GLabel 4200 4050 0    60   Input ~ 0
CH2:25
Text GLabel 4200 4150 0    60   Input ~ 0
CH2:26
Text GLabel 4200 4250 0    60   Input ~ 0
CH2:27
Text GLabel 4200 4350 0    60   Input ~ 0
CH2:28
Text GLabel 4200 4450 0    60   Input ~ 0
CH2:29
Text GLabel 4200 1550 0    60   Input ~ 0
CH2:00
Text GLabel 4200 1650 0    60   Input ~ 0
CH2:01
Text GLabel 4200 1750 0    60   Input ~ 0
CH2:02
Text GLabel 4200 1850 0    60   Input ~ 0
CH2:03
Text GLabel 4200 1950 0    60   Input ~ 0
CH2:04
Text GLabel 4200 2050 0    60   Input ~ 0
CH2:05
Text GLabel 4200 2150 0    60   Input ~ 0
CH2:06
Text GLabel 4200 2250 0    60   Input ~ 0
CH2:07
Text GLabel 4200 2350 0    60   Input ~ 0
CH2:08
Text GLabel 4200 2450 0    60   Input ~ 0
CH2:09
Text GLabel 4200 4550 0    60   Input ~ 0
CH2:30
Text GLabel 4200 4650 0    60   Input ~ 0
CH2:31
Text GLabel 5500 2550 0    60   Input ~ 0
CH3:10
Text GLabel 5500 2650 0    60   Input ~ 0
CH3:11
Text GLabel 5500 2750 0    60   Input ~ 0
CH3:12
Text GLabel 5500 2850 0    60   Input ~ 0
CH3:13
Text GLabel 5500 2950 0    60   Input ~ 0
CH3:14
Text GLabel 5500 3050 0    60   Input ~ 0
CH3:15
Text GLabel 5500 3150 0    60   Input ~ 0
CH3:16
Text GLabel 5500 3250 0    60   Input ~ 0
CH3:17
Text GLabel 5500 3350 0    60   Input ~ 0
CH3:18
Text GLabel 5500 3450 0    60   Input ~ 0
CH3:19
Text GLabel 5500 3550 0    60   Input ~ 0
CH3:20
Text GLabel 5500 3650 0    60   Input ~ 0
CH3:21
Text GLabel 5500 3750 0    60   Input ~ 0
CH3:22
Text GLabel 5500 3850 0    60   Input ~ 0
CH3:23
Text GLabel 5500 3950 0    60   Input ~ 0
CH3:24
Text GLabel 5500 4050 0    60   Input ~ 0
CH3:25
Text GLabel 5500 4150 0    60   Input ~ 0
CH3:26
Text GLabel 5500 4250 0    60   Input ~ 0
CH3:27
Text GLabel 5500 4350 0    60   Input ~ 0
CH3:28
Text GLabel 5500 4450 0    60   Input ~ 0
CH3:29
Text GLabel 5500 1550 0    60   Input ~ 0
CH3:00
Text GLabel 5500 1650 0    60   Input ~ 0
CH3:01
Text GLabel 5500 1750 0    60   Input ~ 0
CH3:02
Text GLabel 5500 1850 0    60   Input ~ 0
CH3:03
Text GLabel 5500 1950 0    60   Input ~ 0
CH3:04
Text GLabel 5500 2050 0    60   Input ~ 0
CH3:05
Text GLabel 5500 2150 0    60   Input ~ 0
CH3:06
Text GLabel 5500 2250 0    60   Input ~ 0
CH3:07
Text GLabel 5500 2350 0    60   Input ~ 0
CH3:08
Text GLabel 5500 2450 0    60   Input ~ 0
CH3:09
Text GLabel 5500 4550 0    60   Input ~ 0
CH3:30
Text GLabel 5500 4650 0    60   Input ~ 0
CH3:31
Text GLabel 1550 2550 0    60   Input ~ 0
CH0:10
Text GLabel 1550 2650 0    60   Input ~ 0
CH0:11
Text GLabel 1550 2750 0    60   Input ~ 0
CH0:12
Text GLabel 1550 2850 0    60   Input ~ 0
CH0:13
Text GLabel 1550 2950 0    60   Input ~ 0
CH0:14
Text GLabel 1550 3050 0    60   Input ~ 0
CH0:15
Text GLabel 1550 3150 0    60   Input ~ 0
CH0:16
Text GLabel 1550 3250 0    60   Input ~ 0
CH0:17
Text GLabel 1550 3350 0    60   Input ~ 0
CH0:18
Text GLabel 1550 3450 0    60   Input ~ 0
CH0:19
Text GLabel 1550 3550 0    60   Input ~ 0
CH0:20
Text GLabel 1550 3650 0    60   Input ~ 0
CH0:21
Text GLabel 1550 3750 0    60   Input ~ 0
CH0:22
Text GLabel 1550 3850 0    60   Input ~ 0
CH0:23
Text GLabel 1550 3950 0    60   Input ~ 0
CH0:24
Text GLabel 1550 4050 0    60   Input ~ 0
CH0:25
Text GLabel 1550 4150 0    60   Input ~ 0
CH0:26
Text GLabel 1550 4250 0    60   Input ~ 0
CH0:27
Text GLabel 1550 4350 0    60   Input ~ 0
CH0:28
Text GLabel 1550 4450 0    60   Input ~ 0
CH0:29
Text GLabel 1550 1650 0    60   Input ~ 0
CH0:01
Text GLabel 1550 1750 0    60   Input ~ 0
CH0:02
Text GLabel 1550 1850 0    60   Input ~ 0
CH0:03
Text GLabel 1550 1950 0    60   Input ~ 0
CH0:04
Text GLabel 1550 2050 0    60   Input ~ 0
CH0:05
Text GLabel 1550 2150 0    60   Input ~ 0
CH0:06
Text GLabel 1550 2250 0    60   Input ~ 0
CH0:07
Text GLabel 1550 2350 0    60   Input ~ 0
CH0:08
Text GLabel 1550 2450 0    60   Input ~ 0
CH0:09
Text GLabel 1550 4550 0    60   Input ~ 0
CH0:30
Text GLabel 1550 4650 0    60   Input ~ 0
CH0:31
Text HLabel 6800 1100 0    60   Input ~ 0
MUX_A6
Text HLabel 6800 1000 0    60   Input ~ 0
MUX_A5
Text Label 3850 4800 0    60   ~ 0
INNER2
Wire Wire Line
	4200 4800 3800 4800
Text Label 5150 4800 0    60   ~ 0
INNER3
Wire Wire Line
	5500 4800 5100 4800
$Sheet
S 2900 900  550  4000
U 6039F0CA
F0 "sheet6039F0CA" 60
F1 "mux-chip.sch" 60
F2 "A0" I L 2900 1000 60 
F3 "A1" I L 2900 1100 60 
F4 "A2" I L 2900 1200 60 
F5 "A3" I L 2900 1300 60 
F6 "A4" I L 2900 1400 60 
F7 "CH00" B L 2900 1550 60 
F8 "CH01" B L 2900 1650 60 
F9 "CH02" B L 2900 1750 60 
F10 "CH03" B L 2900 1850 60 
F11 "CH04" B L 2900 1950 60 
F12 "CH05" B L 2900 2050 60 
F13 "CH06" B L 2900 2150 60 
F14 "CH07" B L 2900 2250 60 
F15 "CH08" B L 2900 2350 60 
F16 "CH09" B L 2900 2450 60 
F17 "CH10" B L 2900 2550 60 
F18 "CH11" B L 2900 2650 60 
F19 "CH12" B L 2900 2750 60 
F20 "CH13" B L 2900 2850 60 
F21 "CH14" B L 2900 2950 60 
F22 "CH15" B L 2900 3050 60 
F23 "OUT" B L 2900 4800 60 
F24 "CH31" B L 2900 4650 60 
F25 "CH30" B L 2900 4550 60 
F26 "CH29" B L 2900 4450 60 
F27 "CH28" B L 2900 4350 60 
F28 "CH27" B L 2900 4250 60 
F29 "CH26" B L 2900 4150 60 
F30 "CH25" B L 2900 4050 60 
F31 "CH24" B L 2900 3950 60 
F32 "CH23" B L 2900 3850 60 
F33 "CH22" B L 2900 3750 60 
F34 "CH21" B L 2900 3650 60 
F35 "CH20" B L 2900 3550 60 
F36 "CH19" B L 2900 3450 60 
F37 "CH18" B L 2900 3350 60 
F38 "CH17" B L 2900 3250 60 
F39 "CH16" B L 2900 3150 60 
$EndSheet
$Sheet
S 4200 900  550  4000
U 603A69C7
F0 "sheet603A69C7" 60
F1 "mux-chip.sch" 60
F2 "A0" I L 4200 1000 60 
F3 "A1" I L 4200 1100 60 
F4 "A2" I L 4200 1200 60 
F5 "A3" I L 4200 1300 60 
F6 "A4" I L 4200 1400 60 
F7 "CH00" B L 4200 1550 60 
F8 "CH01" B L 4200 1650 60 
F9 "CH02" B L 4200 1750 60 
F10 "CH03" B L 4200 1850 60 
F11 "CH04" B L 4200 1950 60 
F12 "CH05" B L 4200 2050 60 
F13 "CH06" B L 4200 2150 60 
F14 "CH07" B L 4200 2250 60 
F15 "CH08" B L 4200 2350 60 
F16 "CH09" B L 4200 2450 60 
F17 "CH10" B L 4200 2550 60 
F18 "CH11" B L 4200 2650 60 
F19 "CH12" B L 4200 2750 60 
F20 "CH13" B L 4200 2850 60 
F21 "CH14" B L 4200 2950 60 
F22 "CH15" B L 4200 3050 60 
F23 "OUT" B L 4200 4800 60 
F24 "CH31" B L 4200 4650 60 
F25 "CH30" B L 4200 4550 60 
F26 "CH29" B L 4200 4450 60 
F27 "CH28" B L 4200 4350 60 
F28 "CH27" B L 4200 4250 60 
F29 "CH26" B L 4200 4150 60 
F30 "CH25" B L 4200 4050 60 
F31 "CH24" B L 4200 3950 60 
F32 "CH23" B L 4200 3850 60 
F33 "CH22" B L 4200 3750 60 
F34 "CH21" B L 4200 3650 60 
F35 "CH20" B L 4200 3550 60 
F36 "CH19" B L 4200 3450 60 
F37 "CH18" B L 4200 3350 60 
F38 "CH17" B L 4200 3250 60 
F39 "CH16" B L 4200 3150 60 
$EndSheet
$Sheet
S 6800 900  550  4000
U 603B63F9
F0 "sheet603B63F9" 60
F1 "mux-chip.sch" 60
F2 "A0" I L 6800 1000 60 
F3 "A1" I L 6800 1100 60 
F4 "A2" I L 6800 1200 60 
F5 "A3" I L 6800 1300 60 
F6 "A4" I L 6800 1400 60 
F7 "CH00" B L 6800 1550 60 
F8 "CH01" B L 6800 1650 60 
F9 "CH02" B L 6800 1750 60 
F10 "CH03" B L 6800 1850 60 
F11 "CH04" B L 6800 1950 60 
F12 "CH05" B L 6800 2050 60 
F13 "CH06" B L 6800 2150 60 
F14 "CH07" B L 6800 2250 60 
F15 "CH08" B L 6800 2350 60 
F16 "CH09" B L 6800 2450 60 
F17 "CH10" B L 6800 2550 60 
F18 "CH11" B L 6800 2650 60 
F19 "CH12" B L 6800 2750 60 
F20 "CH13" B L 6800 2850 60 
F21 "CH14" B L 6800 2950 60 
F22 "CH15" B L 6800 3050 60 
F23 "OUT" B L 6800 4800 60 
F24 "CH31" B L 6800 4650 60 
F25 "CH30" B L 6800 4550 60 
F26 "CH29" B L 6800 4450 60 
F27 "CH28" B L 6800 4350 60 
F28 "CH27" B L 6800 4250 60 
F29 "CH26" B L 6800 4150 60 
F30 "CH25" B L 6800 4050 60 
F31 "CH24" B L 6800 3950 60 
F32 "CH23" B L 6800 3850 60 
F33 "CH22" B L 6800 3750 60 
F34 "CH21" B L 6800 3650 60 
F35 "CH20" B L 6800 3550 60 
F36 "CH19" B L 6800 3450 60 
F37 "CH18" B L 6800 3350 60 
F38 "CH17" B L 6800 3250 60 
F39 "CH16" B L 6800 3150 60 
$EndSheet
$Sheet
S 5500 900  550  4000
U 603AE648
F0 "sheet603AE648" 60
F1 "mux-chip.sch" 60
F2 "A0" I L 5500 1000 60 
F3 "A1" I L 5500 1100 60 
F4 "A2" I L 5500 1200 60 
F5 "A3" I L 5500 1300 60 
F6 "A4" I L 5500 1400 60 
F7 "CH00" B L 5500 1550 60 
F8 "CH01" B L 5500 1650 60 
F9 "CH02" B L 5500 1750 60 
F10 "CH03" B L 5500 1850 60 
F11 "CH04" B L 5500 1950 60 
F12 "CH05" B L 5500 2050 60 
F13 "CH06" B L 5500 2150 60 
F14 "CH07" B L 5500 2250 60 
F15 "CH08" B L 5500 2350 60 
F16 "CH09" B L 5500 2450 60 
F17 "CH10" B L 5500 2550 60 
F18 "CH11" B L 5500 2650 60 
F19 "CH12" B L 5500 2750 60 
F20 "CH13" B L 5500 2850 60 
F21 "CH14" B L 5500 2950 60 
F22 "CH15" B L 5500 3050 60 
F23 "OUT" B L 5500 4800 60 
F24 "CH31" B L 5500 4650 60 
F25 "CH30" B L 5500 4550 60 
F26 "CH29" B L 5500 4450 60 
F27 "CH28" B L 5500 4350 60 
F28 "CH27" B L 5500 4250 60 
F29 "CH26" B L 5500 4150 60 
F30 "CH25" B L 5500 4050 60 
F31 "CH24" B L 5500 3950 60 
F32 "CH23" B L 5500 3850 60 
F33 "CH22" B L 5500 3750 60 
F34 "CH21" B L 5500 3650 60 
F35 "CH20" B L 5500 3550 60 
F36 "CH19" B L 5500 3450 60 
F37 "CH18" B L 5500 3350 60 
F38 "CH17" B L 5500 3250 60 
F39 "CH16" B L 5500 3150 60 
$EndSheet
Text GLabel 6800 1300 0    60   Input ~ 0
AGND
Text GLabel 6800 1400 0    60   Input ~ 0
AGND
Text HLabel 6800 1200 0    60   Input ~ 0
MUX_A7
Text HLabel 2900 1400 0    60   Input ~ 0
MUX_A4
Text HLabel 2900 1300 0    60   Input ~ 0
MUX_A3
Text HLabel 2900 1100 0    60   Input ~ 0
MUX_A1
Text HLabel 2900 1200 0    60   Input ~ 0
MUX_A2
Text HLabel 2900 1000 0    60   Input ~ 0
MUX_A0
Text HLabel 4200 1400 0    60   Input ~ 0
MUX_A4
Text HLabel 4200 1300 0    60   Input ~ 0
MUX_A3
Text HLabel 4200 1100 0    60   Input ~ 0
MUX_A1
Text HLabel 4200 1200 0    60   Input ~ 0
MUX_A2
Text HLabel 4200 1000 0    60   Input ~ 0
MUX_A0
Text HLabel 5500 1400 0    60   Input ~ 0
MUX_A4
Text HLabel 5500 1300 0    60   Input ~ 0
MUX_A3
Text HLabel 5500 1100 0    60   Input ~ 0
MUX_A1
Text HLabel 5500 1200 0    60   Input ~ 0
MUX_A2
Text HLabel 5500 1000 0    60   Input ~ 0
MUX_A0
Text Notes 1800 1050 0    60   ~ 0
LSB
Text Notes 7050 1450 0    60   ~ 0
MSB
Text Label 6400 1550 0    60   ~ 0
INNER0
Wire Wire Line
	6800 1550 6350 1550
Text Label 6400 1650 0    60   ~ 0
INNER1
Text Label 6400 1750 0    60   ~ 0
INNER2
Text Label 6400 1850 0    60   ~ 0
INNER3
Wire Wire Line
	6350 1650 6800 1650
Wire Wire Line
	6800 1750 6350 1750
Wire Wire Line
	6350 1850 6800 1850
NoConn ~ 6800 2350
NoConn ~ 6800 2450
NoConn ~ 6800 2550
NoConn ~ 6800 2650
NoConn ~ 6800 2750
NoConn ~ 6800 2850
NoConn ~ 6800 2950
NoConn ~ 6800 3050
NoConn ~ 6800 3150
NoConn ~ 6800 3250
NoConn ~ 6800 3350
NoConn ~ 6800 3450
NoConn ~ 6800 3550
NoConn ~ 6800 3650
NoConn ~ 6800 3750
NoConn ~ 6800 3850
NoConn ~ 6800 3950
NoConn ~ 6800 4050
NoConn ~ 6800 4150
NoConn ~ 6800 4250
NoConn ~ 6800 4350
NoConn ~ 6800 4450
NoConn ~ 6800 4550
NoConn ~ 6800 4650
Text Label 6450 4800 0    60   ~ 0
OUT
Wire Wire Line
	6400 4800 6800 4800
Text GLabel 8650 1950 0    60   Input ~ 0
AVCC
Text GLabel 8650 2250 0    60   Input ~ 0
AVSS
Wire Notes Line
	7350 2300 6250 2300
Text Notes 6600 3850 1    60   ~ 0
Not Addressable
$Comp
L Device:R_Small R301
U 1 1 609A08E7
P 9250 2950
AR Path="/6024D6F3/609A08E7" Ref="R301"  Part="1" 
AR Path="/6056E1C8/609A08E7" Ref="R901"  Part="1" 
F 0 "R301" V 9150 2950 50  0000 C CNN
F 1 "DNF" V 9350 2950 50  0000 C CNN
F 2 "Resistor_SMD:R_0805_2012Metric" H 9250 2950 50  0001 C CNN
F 3 "~" H 9250 2950 50  0001 C CNN
	1    9250 2950
	0    1    1    0   
$EndComp
Text Label 6400 1950 0    60   ~ 0
INNER4
Wire Wire Line
	6350 1950 6800 1950
Text Label 6400 2050 0    60   ~ 0
INNER5
Wire Wire Line
	6350 2050 6800 2050
Text Label 6400 2150 0    60   ~ 0
INNER6
Wire Wire Line
	6350 2150 6800 2150
NoConn ~ 6800 2250
Text Notes 6400 2250 0    60   ~ 0
OPEN
Text Label 8750 2950 0    60   ~ 0
INNER4
Wire Wire Line
	9150 2950 8700 2950
Text GLabel 9350 2950 2    60   Input ~ 0
AVCC
$Comp
L Device:R_Small R302
U 1 1 609A4334
P 9250 3250
AR Path="/6024D6F3/609A4334" Ref="R302"  Part="1" 
AR Path="/6056E1C8/609A4334" Ref="R902"  Part="1" 
F 0 "R302" V 9150 3250 50  0000 C CNN
F 1 "DNF" V 9350 3250 50  0000 C CNN
F 2 "Resistor_SMD:R_0805_2012Metric" H 9250 3250 50  0001 C CNN
F 3 "~" H 9250 3250 50  0001 C CNN
	1    9250 3250
	0    1    1    0   
$EndComp
Text Label 8750 3250 0    60   ~ 0
INNER5
Wire Wire Line
	9150 3250 8700 3250
Text GLabel 9350 3250 2    60   Input ~ 0
AGND
$Comp
L Device:R_Small R303
U 1 1 609A4EA5
P 9250 3550
AR Path="/6024D6F3/609A4EA5" Ref="R303"  Part="1" 
AR Path="/6056E1C8/609A4EA5" Ref="R903"  Part="1" 
F 0 "R303" V 9150 3550 50  0000 C CNN
F 1 "DNF" V 9350 3550 50  0000 C CNN
F 2 "Resistor_SMD:R_0805_2012Metric" H 9250 3550 50  0001 C CNN
F 3 "~" H 9250 3550 50  0001 C CNN
	1    9250 3550
	0    1    1    0   
$EndComp
Text Label 8750 3550 0    60   ~ 0
INNER6
Wire Wire Line
	9150 3550 8700 3550
Text GLabel 9350 3550 2    60   Input ~ 0
AVSS
Text GLabel 1550 1550 0    60   Input ~ 0
CH0:00
Text HLabel 1550 1400 0    60   Input ~ 0
MUX_A4
Text HLabel 1550 1300 0    60   Input ~ 0
MUX_A3
Text HLabel 1550 1100 0    60   Input ~ 0
MUX_A1
Text HLabel 1550 1200 0    60   Input ~ 0
MUX_A2
Text HLabel 1550 1000 0    60   Input ~ 0
MUX_A0
$EndSCHEMATC
