EESchema Schematic File Version 4
EELAYER 30 0
EELAYER END
$Descr A4 11693 8268
encoding utf-8
Sheet 4 17
Title ""
Date ""
Rev ""
Comp ""
Comment1 ""
Comment2 ""
Comment3 ""
Comment4 ""
$EndDescr
NoConn ~ 6000 2500
NoConn ~ 5900 2500
NoConn ~ 5700 2500
Text GLabel 6000 4700 3    60   Input ~ 0
AGND
Text GLabel 6100 4700 3    60   Input ~ 0
AGND
Text GLabel 6200 4700 3    60   Input ~ 0
AGND
Text GLabel 6300 4700 3    60   Input ~ 0
AGND
Text GLabel 6400 4700 3    60   Input ~ 0
AVSS
Text GLabel 5300 4700 3    60   Input ~ 0
AVCC
$Comp
L cable-tester-rescue:C C?
U 1 1 602A13EF
P 6800 4700
AR Path="/602A13EF" Ref="C?"  Part="1" 
AR Path="/6024D6F3/602989A2/602A13EF" Ref="C402"  Part="1" 
AR Path="/6024D6F3/60326975/602A13EF" Ref="C?"  Part="1" 
AR Path="/6024D6F3/6032E8DA/602A13EF" Ref="C?"  Part="1" 
AR Path="/6024D6F3/60369B73/602A13EF" Ref="C?"  Part="1" 
AR Path="/6024D6F3/6037105A/602A13EF" Ref="C?"  Part="1" 
AR Path="/6024D6F3/6039F0CA/602A13EF" Ref="C502"  Part="1" 
AR Path="/6024D6F3/603A69C7/602A13EF" Ref="C602"  Part="1" 
AR Path="/6024D6F3/603AE648/602A13EF" Ref="C802"  Part="1" 
AR Path="/6024D6F3/603B63F9/602A13EF" Ref="C702"  Part="1" 
AR Path="/6056E1C8/602989A2/602A13EF" Ref="C1002"  Part="1" 
AR Path="/6056E1C8/6039F0CA/602A13EF" Ref="C1102"  Part="1" 
AR Path="/6056E1C8/603A69C7/602A13EF" Ref="C1202"  Part="1" 
AR Path="/6056E1C8/603B63F9/602A13EF" Ref="C1302"  Part="1" 
AR Path="/6056E1C8/603AE648/602A13EF" Ref="C1402"  Part="1" 
AR Path="/6024D6F3/6057DF46/602A13EF" Ref="C?"  Part="1" 
AR Path="/6024D6F3/6057DFF6/602A13EF" Ref="C?"  Part="1" 
AR Path="/6024D6F3/6057E01E/602A13EF" Ref="C?"  Part="1" 
AR Path="/6056E1C8/6057DF46/602A13EF" Ref="C?"  Part="1" 
AR Path="/6056E1C8/6057DFF6/602A13EF" Ref="C?"  Part="1" 
AR Path="/6056E1C8/6057E01E/602A13EF" Ref="C?"  Part="1" 
F 0 "C402" V 6950 4700 50  0000 C CNN
F 1 "0.1uF" V 6650 4700 50  0000 C CNN
F 2 "Capacitor_SMD:C_0805_2012Metric" H 6838 4550 50  0001 C CNN
F 3 "" H 6800 4700 50  0000 C CNN
	1    6800 4700
	0    1    1    0   
$EndComp
Wire Wire Line
	6400 4700 6650 4700
Text GLabel 6950 4700 2    60   Input ~ 0
AGND
$Comp
L cable-tester-rescue:C C?
U 1 1 602A50B9
P 4900 4700
AR Path="/602A50B9" Ref="C?"  Part="1" 
AR Path="/6024D6F3/602989A2/602A50B9" Ref="C401"  Part="1" 
AR Path="/6024D6F3/60326975/602A50B9" Ref="C?"  Part="1" 
AR Path="/6024D6F3/6032E8DA/602A50B9" Ref="C?"  Part="1" 
AR Path="/6024D6F3/60369B73/602A50B9" Ref="C?"  Part="1" 
AR Path="/6024D6F3/6037105A/602A50B9" Ref="C?"  Part="1" 
AR Path="/6024D6F3/6039F0CA/602A50B9" Ref="C501"  Part="1" 
AR Path="/6024D6F3/603A69C7/602A50B9" Ref="C601"  Part="1" 
AR Path="/6024D6F3/603AE648/602A50B9" Ref="C801"  Part="1" 
AR Path="/6024D6F3/603B63F9/602A50B9" Ref="C701"  Part="1" 
AR Path="/6056E1C8/602989A2/602A50B9" Ref="C1001"  Part="1" 
AR Path="/6056E1C8/6039F0CA/602A50B9" Ref="C1101"  Part="1" 
AR Path="/6056E1C8/603A69C7/602A50B9" Ref="C1201"  Part="1" 
AR Path="/6056E1C8/603B63F9/602A50B9" Ref="C1301"  Part="1" 
AR Path="/6056E1C8/603AE648/602A50B9" Ref="C1401"  Part="1" 
AR Path="/6024D6F3/6057DF46/602A50B9" Ref="C?"  Part="1" 
AR Path="/6024D6F3/6057DFF6/602A50B9" Ref="C?"  Part="1" 
AR Path="/6024D6F3/6057E01E/602A50B9" Ref="C?"  Part="1" 
AR Path="/6056E1C8/6057DF46/602A50B9" Ref="C?"  Part="1" 
AR Path="/6056E1C8/6057DFF6/602A50B9" Ref="C?"  Part="1" 
AR Path="/6056E1C8/6057E01E/602A50B9" Ref="C?"  Part="1" 
F 0 "C401" V 5050 4700 50  0000 C CNN
F 1 "0.1uF" V 4750 4700 50  0000 C CNN
F 2 "Capacitor_SMD:C_0805_2012Metric" H 4938 4550 50  0001 C CNN
F 3 "" H 4900 4700 50  0000 C CNN
	1    4900 4700
	0    1    1    0   
$EndComp
Text HLabel 4750 4150 0    60   BiDi ~ 0
CH00
Text HLabel 4750 3150 0    60   BiDi ~ 0
CH10
Text HLabel 4750 3050 0    60   BiDi ~ 0
CH11
Text HLabel 5300 2500 1    60   BiDi ~ 0
CH12
Text HLabel 5400 2500 1    60   BiDi ~ 0
CH13
Text HLabel 5500 2500 1    60   BiDi ~ 0
CH14
Text HLabel 5600 2500 1    60   BiDi ~ 0
CH15
Text HLabel 6100 2500 1    60   BiDi ~ 0
CH31
Text HLabel 6200 2500 1    60   BiDi ~ 0
CH30
Text HLabel 6300 2500 1    60   BiDi ~ 0
CH29
Text HLabel 6400 2500 1    60   BiDi ~ 0
CH28
Text HLabel 6950 3050 2    60   BiDi ~ 0
CH27
Text HLabel 6950 3150 2    60   BiDi ~ 0
CH26
Text HLabel 6950 3250 2    60   BiDi ~ 0
CH25
Text HLabel 6950 3350 2    60   BiDi ~ 0
CH24
Text HLabel 6950 3450 2    60   BiDi ~ 0
CH23
Text HLabel 6950 3550 2    60   BiDi ~ 0
CH22
Text HLabel 6950 3650 2    60   BiDi ~ 0
CH21
Text HLabel 6950 3750 2    60   BiDi ~ 0
CH20
Text HLabel 6950 3850 2    60   BiDi ~ 0
CH19
Text HLabel 6950 3950 2    60   BiDi ~ 0
CH18
Text HLabel 6950 4050 2    60   BiDi ~ 0
CH17
Text HLabel 6950 4150 2    60   BiDi ~ 0
CH16
Text HLabel 4750 3250 0    60   BiDi ~ 0
CH09
Text HLabel 4750 3350 0    60   BiDi ~ 0
CH08
Text HLabel 4750 3450 0    60   BiDi ~ 0
CH07
Text HLabel 4750 3550 0    60   BiDi ~ 0
CH06
Text HLabel 4750 3650 0    60   BiDi ~ 0
CH05
Text HLabel 4750 3750 0    60   BiDi ~ 0
CH04
Text HLabel 4750 3850 0    60   BiDi ~ 0
CH03
Text HLabel 4750 3950 0    60   BiDi ~ 0
CH02
Text HLabel 4750 4050 0    60   BiDi ~ 0
CH01
Text HLabel 5800 2500 1    60   BiDi ~ 0
OUT
Text GLabel 4750 4700 0    60   Input ~ 0
AGND
Text HLabel 5900 4700 3    60   Input ~ 0
A4
Text HLabel 5800 4700 3    60   Input ~ 0
A3
Text HLabel 5700 4700 3    60   Input ~ 0
A2
Text HLabel 5600 4700 3    60   Input ~ 0
A1
Text HLabel 5500 4700 3    60   Input ~ 0
A0
$Comp
L adg732:ADG732 U401
U 1 1 5F8ABF1E
P 4450 2850
AR Path="/6024D6F3/602989A2/5F8ABF1E" Ref="U401"  Part="1" 
AR Path="/6024D6F3/6039F0CA/5F8ABF1E" Ref="U501"  Part="1" 
AR Path="/6024D6F3/603A69C7/5F8ABF1E" Ref="U601"  Part="1" 
AR Path="/6024D6F3/603B63F9/5F8ABF1E" Ref="U701"  Part="1" 
AR Path="/6024D6F3/603AE648/5F8ABF1E" Ref="U801"  Part="1" 
AR Path="/6056E1C8/602989A2/5F8ABF1E" Ref="U1001"  Part="1" 
AR Path="/6056E1C8/6039F0CA/5F8ABF1E" Ref="U1101"  Part="1" 
AR Path="/6056E1C8/603A69C7/5F8ABF1E" Ref="U1201"  Part="1" 
AR Path="/6056E1C8/603B63F9/5F8ABF1E" Ref="U1301"  Part="1" 
AR Path="/6056E1C8/603AE648/5F8ABF1E" Ref="U1401"  Part="1" 
F 0 "U401" H 5850 1600 60  0000 C CNN
F 1 "ADG732" H 5850 2500 60  0000 C CNN
F 2 "Package_QFP:TQFP-48_7x7mm_P0.5mm" H 4450 2850 60  0001 C CNN
F 3 "" H 4450 2850 60  0000 C CNN
	1    4450 2850
	1    0    0    -1  
$EndComp
Wire Wire Line
	5050 4700 5300 4700
Wire Wire Line
	5400 4700 5300 4700
Connection ~ 5300 4700
$EndSCHEMATC
