EESchema Schematic File Version 4
EELAYER 30 0
EELAYER END
$Descr A4 11693 8268
encoding utf-8
Sheet 49 62
Title ""
Date ""
Rev ""
Comp ""
Comment1 ""
Comment2 ""
Comment3 ""
Comment4 ""
$EndDescr
$Comp
L adg732:ADG732 MB28
U 1 1 5A014DC2
P 4450 2850
AR Path="/5A018C64/5A168420/5A014DC2" Ref="MB28"  Part="1" 
AR Path="/5A018C64/5A33FD79/5A014DC2" Ref="MB15"  Part="1" 
AR Path="/5A018C64/5A33FE25/5A014DC2" Ref="MB14"  Part="1" 
AR Path="/5A018C64/5A33FECF/5A014DC2" Ref="MB13"  Part="1" 
AR Path="/5A018C64/5A33FF79/5A014DC2" Ref="MB12"  Part="1" 
AR Path="/5A018C64/5A340023/5A014DC2" Ref="MB11"  Part="1" 
AR Path="/5A018C64/5A3400CD/5A014DC2" Ref="MB10"  Part="1" 
AR Path="/5A018C64/5A340177/5A014DC2" Ref="MB9"  Part="1" 
AR Path="/5A018C64/5A340221/5A014DC2" Ref="MB8"  Part="1" 
AR Path="/5A018C64/5A3402CB/5A014DC2" Ref="MB7"  Part="1" 
AR Path="/5A018C64/5A340375/5A014DC2" Ref="MB6"  Part="1" 
AR Path="/5A018C64/5A34041F/5A014DC2" Ref="MB5"  Part="1" 
AR Path="/5A018C64/5A3404C9/5A014DC2" Ref="MB4"  Part="1" 
AR Path="/5A018C64/5A340573/5A014DC2" Ref="MB3"  Part="1" 
AR Path="/5A018C64/5A34061D/5A014DC2" Ref="MB2"  Part="1" 
AR Path="/5A018C64/5A3406C7/5A014DC2" Ref="MB1"  Part="1" 
AR Path="/5A018C64/5A340771/5A014DC2" Ref="MB0"  Part="1" 
AR Path="/5A018C64/5A35240D/5A014DC2" Ref="MB28"  Part="1" 
AR Path="/5A018C64/5A3524B7/5A014DC2" Ref="MB27"  Part="1" 
AR Path="/5A018C64/5A352561/5A014DC2" Ref="MB26"  Part="1" 
AR Path="/5A018C64/5A35260B/5A014DC2" Ref="MB25"  Part="1" 
AR Path="/5A018C64/5A3526B5/5A014DC2" Ref="MB24"  Part="1" 
AR Path="/5A018C64/5A35275F/5A014DC2" Ref="MB23"  Part="1" 
AR Path="/5A018C64/5A352809/5A014DC2" Ref="MB22"  Part="1" 
AR Path="/5A018C64/5A3528B3/5A014DC2" Ref="MB21"  Part="1" 
AR Path="/5A018C64/5A35295D/5A014DC2" Ref="MB20"  Part="1" 
AR Path="/5A018C64/5A352A07/5A014DC2" Ref="MB19"  Part="1" 
AR Path="/5A018C64/5A352AB1/5A014DC2" Ref="MB18"  Part="1" 
AR Path="/5A018C64/5A352B5B/5A014DC2" Ref="MB17"  Part="1" 
AR Path="/5A018C64/5A352C05/5A014DC2" Ref="MB16"  Part="1" 
AR Path="/5A220C88/5A168420/5A014DC2" Ref="MA28"  Part="1" 
AR Path="/5A220C88/5A33FD79/5A014DC2" Ref="MA15"  Part="1" 
AR Path="/5A220C88/5A33FE25/5A014DC2" Ref="MA14"  Part="1" 
AR Path="/5A220C88/5A33FECF/5A014DC2" Ref="MA13"  Part="1" 
AR Path="/5A220C88/5A33FF79/5A014DC2" Ref="MA12"  Part="1" 
AR Path="/5A220C88/5A340023/5A014DC2" Ref="MA11"  Part="1" 
AR Path="/5A220C88/5A3400CD/5A014DC2" Ref="MA10"  Part="1" 
AR Path="/5A220C88/5A340177/5A014DC2" Ref="MA9"  Part="1" 
AR Path="/5A220C88/5A340221/5A014DC2" Ref="MA8"  Part="1" 
AR Path="/5A220C88/5A3402CB/5A014DC2" Ref="MA7"  Part="1" 
AR Path="/5A220C88/5A340375/5A014DC2" Ref="MA6"  Part="1" 
AR Path="/5A220C88/5A34041F/5A014DC2" Ref="MA5"  Part="1" 
AR Path="/5A220C88/5A3404C9/5A014DC2" Ref="MA4"  Part="1" 
AR Path="/5A220C88/5A340573/5A014DC2" Ref="MA3"  Part="1" 
AR Path="/5A220C88/5A34061D/5A014DC2" Ref="MA2"  Part="1" 
AR Path="/5A220C88/5A3406C7/5A014DC2" Ref="MA1"  Part="1" 
AR Path="/5A220C88/5A340771/5A014DC2" Ref="MA0"  Part="1" 
AR Path="/5A220C88/5A35240D/5A014DC2" Ref="MA28"  Part="1" 
AR Path="/5A220C88/5A3524B7/5A014DC2" Ref="MA27"  Part="1" 
AR Path="/5A220C88/5A352561/5A014DC2" Ref="MA26"  Part="1" 
AR Path="/5A220C88/5A35260B/5A014DC2" Ref="MA25"  Part="1" 
AR Path="/5A220C88/5A3526B5/5A014DC2" Ref="MA24"  Part="1" 
AR Path="/5A220C88/5A35275F/5A014DC2" Ref="MA23"  Part="1" 
AR Path="/5A220C88/5A352809/5A014DC2" Ref="MA22"  Part="1" 
AR Path="/5A220C88/5A3528B3/5A014DC2" Ref="MA21"  Part="1" 
AR Path="/5A220C88/5A35295D/5A014DC2" Ref="MA20"  Part="1" 
AR Path="/5A220C88/5A352A07/5A014DC2" Ref="MA19"  Part="1" 
AR Path="/5A220C88/5A352AB1/5A014DC2" Ref="MA18"  Part="1" 
AR Path="/5A220C88/5A352B5B/5A014DC2" Ref="MA17"  Part="1" 
AR Path="/5A220C88/5A352C05/5A014DC2" Ref="MA16"  Part="1" 
F 0 "MB27" H 5850 2500 60  0000 C CNN
F 1 "ADG732" H 5850 1650 60  0000 C CNN
F 2 "Housings_QFP:TQFP-48_7x7mm_Pitch0.5mm" H 4450 2850 60  0001 C CNN
F 3 "" H 4450 2850 60  0000 C CNN
	1    4450 2850
	1    0    0    -1  
$EndComp
NoConn ~ 6000 2500
NoConn ~ 5900 2500
NoConn ~ 5700 2500
$Comp
L mega-cable-tester-rescue:C C29
U 1 1 5A014DF9
P 4900 4700
AR Path="/5A018C64/5A168420/5A014DF9" Ref="C29"  Part="1" 
AR Path="/5A018C64/5A33FD79/5A014DF9" Ref="C31"  Part="1" 
AR Path="/5A018C64/5A33FE25/5A014DF9" Ref="C33"  Part="1" 
AR Path="/5A018C64/5A33FECF/5A014DF9" Ref="C35"  Part="1" 
AR Path="/5A018C64/5A33FF79/5A014DF9" Ref="C37"  Part="1" 
AR Path="/5A018C64/5A340023/5A014DF9" Ref="C39"  Part="1" 
AR Path="/5A018C64/5A3400CD/5A014DF9" Ref="C41"  Part="1" 
AR Path="/5A018C64/5A340177/5A014DF9" Ref="C43"  Part="1" 
AR Path="/5A018C64/5A340221/5A014DF9" Ref="C45"  Part="1" 
AR Path="/5A018C64/5A3402CB/5A014DF9" Ref="C47"  Part="1" 
AR Path="/5A018C64/5A340375/5A014DF9" Ref="C49"  Part="1" 
AR Path="/5A018C64/5A34041F/5A014DF9" Ref="C51"  Part="1" 
AR Path="/5A018C64/5A3404C9/5A014DF9" Ref="C53"  Part="1" 
AR Path="/5A018C64/5A340573/5A014DF9" Ref="C55"  Part="1" 
AR Path="/5A018C64/5A34061D/5A014DF9" Ref="C57"  Part="1" 
AR Path="/5A018C64/5A3406C7/5A014DF9" Ref="C59"  Part="1" 
AR Path="/5A018C64/5A340771/5A014DF9" Ref="C61"  Part="1" 
AR Path="/5A018C64/5A35240D/5A014DF9" Ref="C63"  Part="1" 
AR Path="/5A018C64/5A3524B7/5A014DF9" Ref="C65"  Part="1" 
AR Path="/5A018C64/5A352561/5A014DF9" Ref="C67"  Part="1" 
AR Path="/5A018C64/5A35260B/5A014DF9" Ref="C69"  Part="1" 
AR Path="/5A018C64/5A3526B5/5A014DF9" Ref="C71"  Part="1" 
AR Path="/5A018C64/5A35275F/5A014DF9" Ref="C73"  Part="1" 
AR Path="/5A018C64/5A352809/5A014DF9" Ref="C75"  Part="1" 
AR Path="/5A018C64/5A3528B3/5A014DF9" Ref="C77"  Part="1" 
AR Path="/5A018C64/5A35295D/5A014DF9" Ref="C79"  Part="1" 
AR Path="/5A018C64/5A352A07/5A014DF9" Ref="C81"  Part="1" 
AR Path="/5A018C64/5A352AB1/5A014DF9" Ref="C83"  Part="1" 
AR Path="/5A018C64/5A352B5B/5A014DF9" Ref="C85"  Part="1" 
AR Path="/5A018C64/5A352C05/5A014DF9" Ref="C87"  Part="1" 
AR Path="/5A220C88/5A168420/5A014DF9" Ref="C91"  Part="1" 
AR Path="/5A220C88/5A33FD79/5A014DF9" Ref="C93"  Part="1" 
AR Path="/5A220C88/5A33FE25/5A014DF9" Ref="C95"  Part="1" 
AR Path="/5A220C88/5A33FECF/5A014DF9" Ref="C97"  Part="1" 
AR Path="/5A220C88/5A33FF79/5A014DF9" Ref="C99"  Part="1" 
AR Path="/5A220C88/5A340023/5A014DF9" Ref="C101"  Part="1" 
AR Path="/5A220C88/5A3400CD/5A014DF9" Ref="C103"  Part="1" 
AR Path="/5A220C88/5A340177/5A014DF9" Ref="C105"  Part="1" 
AR Path="/5A220C88/5A340221/5A014DF9" Ref="C107"  Part="1" 
AR Path="/5A220C88/5A3402CB/5A014DF9" Ref="C109"  Part="1" 
AR Path="/5A220C88/5A340375/5A014DF9" Ref="C111"  Part="1" 
AR Path="/5A220C88/5A34041F/5A014DF9" Ref="C113"  Part="1" 
AR Path="/5A220C88/5A3404C9/5A014DF9" Ref="C115"  Part="1" 
AR Path="/5A220C88/5A340573/5A014DF9" Ref="C117"  Part="1" 
AR Path="/5A220C88/5A34061D/5A014DF9" Ref="C119"  Part="1" 
AR Path="/5A220C88/5A3406C7/5A014DF9" Ref="C121"  Part="1" 
AR Path="/5A220C88/5A340771/5A014DF9" Ref="C123"  Part="1" 
AR Path="/5A220C88/5A35240D/5A014DF9" Ref="C125"  Part="1" 
AR Path="/5A220C88/5A3524B7/5A014DF9" Ref="C127"  Part="1" 
AR Path="/5A220C88/5A352561/5A014DF9" Ref="C129"  Part="1" 
AR Path="/5A220C88/5A35260B/5A014DF9" Ref="C131"  Part="1" 
AR Path="/5A220C88/5A3526B5/5A014DF9" Ref="C133"  Part="1" 
AR Path="/5A220C88/5A35275F/5A014DF9" Ref="C135"  Part="1" 
AR Path="/5A220C88/5A352809/5A014DF9" Ref="C137"  Part="1" 
AR Path="/5A220C88/5A3528B3/5A014DF9" Ref="C139"  Part="1" 
AR Path="/5A220C88/5A35295D/5A014DF9" Ref="C141"  Part="1" 
AR Path="/5A220C88/5A352A07/5A014DF9" Ref="C143"  Part="1" 
AR Path="/5A220C88/5A352AB1/5A014DF9" Ref="C145"  Part="1" 
AR Path="/5A220C88/5A352B5B/5A014DF9" Ref="C147"  Part="1" 
AR Path="/5A220C88/5A352C05/5A014DF9" Ref="C149"  Part="1" 
AR Path="/5A014DF9" Ref="C127"  Part="1" 
F 0 "C127" H 4925 4800 50  0000 L CNN
F 1 "0.1uF" H 4925 4600 50  0000 L CNN
F 2 "Capacitors_SMD:C_0805" H 4938 4550 50  0001 C CNN
F 3 "" H 4900 4700 50  0000 C CNN
	1    4900 4700
	0    1    1    0   
$EndComp
Wire Wire Line
	5050 4700 5400 4700
Connection ~ 5300 4700
Text GLabel 4750 4700 0    60   Input ~ 0
GND
Text GLabel 5300 4700 3    60   Input ~ 0
A2V5+
Text GLabel 6400 4700 3    60   Input ~ 0
A2V5-
Text GLabel 6000 4700 3    60   Input ~ 0
GND
Text GLabel 6100 4700 3    60   Input ~ 0
GND
Text GLabel 6300 4700 3    60   Input ~ 0
GND
Text HLabel 4750 4150 0    60   BiDi ~ 0
MUX_IN01
Text HLabel 4750 4050 0    60   BiDi ~ 0
MUX_IN02
Text HLabel 4750 3950 0    60   BiDi ~ 0
MUX_IN03
Text HLabel 4750 3850 0    60   BiDi ~ 0
MUX_IN04
Text HLabel 4750 3750 0    60   BiDi ~ 0
MUX_IN05
Text HLabel 4750 3650 0    60   BiDi ~ 0
MUX_IN06
Text HLabel 4750 3550 0    60   BiDi ~ 0
MUX_IN07
Text HLabel 4750 3450 0    60   BiDi ~ 0
MUX_IN08
Text HLabel 4750 3350 0    60   BiDi ~ 0
MUX_IN09
Text HLabel 4750 3250 0    60   BiDi ~ 0
MUX_IN10
Text HLabel 4750 3150 0    60   BiDi ~ 0
MUX_IN11
Text HLabel 4750 3050 0    60   BiDi ~ 0
MUX_IN12
Text HLabel 5400 2500 1    60   BiDi ~ 0
MUX_IN14
Text HLabel 5500 2500 1    60   BiDi ~ 0
MUX_IN15
Text HLabel 5600 2500 1    60   BiDi ~ 0
MUX_IN16
Text HLabel 5800 2500 1    60   BiDi ~ 0
MUX_OUT
Text HLabel 6100 2500 1    60   BiDi ~ 0
MUX_IN32
Text HLabel 6200 2500 1    60   BiDi ~ 0
MUX_IN31
Text HLabel 6300 2500 1    60   BiDi ~ 0
MUX_IN30
Text HLabel 6400 2500 1    60   BiDi ~ 0
MUX_IN29
Text HLabel 6950 3050 2    60   BiDi ~ 0
MUX_IN28
Text HLabel 6950 3150 2    60   BiDi ~ 0
MUX_IN27
Text HLabel 6950 3250 2    60   BiDi ~ 0
MUX_IN26
Text HLabel 6950 3350 2    60   BiDi ~ 0
MUX_IN25
Text HLabel 6950 3450 2    60   BiDi ~ 0
MUX_IN24
Text HLabel 6950 3550 2    60   BiDi ~ 0
MUX_IN23
Text HLabel 6950 3650 2    60   BiDi ~ 0
MUX_IN22
Text HLabel 6950 3750 2    60   BiDi ~ 0
MUX_IN21
Text HLabel 6950 3850 2    60   BiDi ~ 0
MUX_IN20
Text HLabel 6950 3950 2    60   BiDi ~ 0
MUX_IN19
Text HLabel 6950 4050 2    60   BiDi ~ 0
MUX_IN18
Text HLabel 6950 4150 2    60   BiDi ~ 0
MUX_IN17
Text HLabel 5500 4700 3    60   Input ~ 0
MUX_A0
Text HLabel 5600 4700 3    60   Input ~ 0
MUX_A1
Text HLabel 5700 4700 3    60   Input ~ 0
MUX_A2
Text HLabel 5800 4700 3    60   Input ~ 0
MUX_A3
Text HLabel 5900 4700 3    60   Input ~ 0
MUX_A4
Text HLabel 6200 4700 3    60   Input ~ 0
MUX_EN
Text HLabel 5300 2500 1    60   BiDi ~ 0
MUX_IN13
$Comp
L mega-cable-tester-rescue:C C30
U 1 1 5A027FFF
P 6800 4700
AR Path="/5A018C64/5A168420/5A027FFF" Ref="C30"  Part="1" 
AR Path="/5A018C64/5A33FD79/5A027FFF" Ref="C32"  Part="1" 
AR Path="/5A018C64/5A33FE25/5A027FFF" Ref="C34"  Part="1" 
AR Path="/5A018C64/5A33FECF/5A027FFF" Ref="C36"  Part="1" 
AR Path="/5A018C64/5A33FF79/5A027FFF" Ref="C38"  Part="1" 
AR Path="/5A018C64/5A340023/5A027FFF" Ref="C40"  Part="1" 
AR Path="/5A018C64/5A3400CD/5A027FFF" Ref="C42"  Part="1" 
AR Path="/5A018C64/5A340177/5A027FFF" Ref="C44"  Part="1" 
AR Path="/5A018C64/5A340221/5A027FFF" Ref="C46"  Part="1" 
AR Path="/5A018C64/5A3402CB/5A027FFF" Ref="C48"  Part="1" 
AR Path="/5A018C64/5A340375/5A027FFF" Ref="C50"  Part="1" 
AR Path="/5A018C64/5A34041F/5A027FFF" Ref="C52"  Part="1" 
AR Path="/5A018C64/5A3404C9/5A027FFF" Ref="C54"  Part="1" 
AR Path="/5A018C64/5A340573/5A027FFF" Ref="C56"  Part="1" 
AR Path="/5A018C64/5A34061D/5A027FFF" Ref="C58"  Part="1" 
AR Path="/5A018C64/5A3406C7/5A027FFF" Ref="C60"  Part="1" 
AR Path="/5A018C64/5A340771/5A027FFF" Ref="C62"  Part="1" 
AR Path="/5A018C64/5A35240D/5A027FFF" Ref="C64"  Part="1" 
AR Path="/5A018C64/5A3524B7/5A027FFF" Ref="C66"  Part="1" 
AR Path="/5A018C64/5A352561/5A027FFF" Ref="C68"  Part="1" 
AR Path="/5A018C64/5A35260B/5A027FFF" Ref="C70"  Part="1" 
AR Path="/5A018C64/5A3526B5/5A027FFF" Ref="C72"  Part="1" 
AR Path="/5A018C64/5A35275F/5A027FFF" Ref="C74"  Part="1" 
AR Path="/5A018C64/5A352809/5A027FFF" Ref="C76"  Part="1" 
AR Path="/5A018C64/5A3528B3/5A027FFF" Ref="C78"  Part="1" 
AR Path="/5A018C64/5A35295D/5A027FFF" Ref="C80"  Part="1" 
AR Path="/5A018C64/5A352A07/5A027FFF" Ref="C82"  Part="1" 
AR Path="/5A018C64/5A352AB1/5A027FFF" Ref="C84"  Part="1" 
AR Path="/5A018C64/5A352B5B/5A027FFF" Ref="C86"  Part="1" 
AR Path="/5A018C64/5A352C05/5A027FFF" Ref="C88"  Part="1" 
AR Path="/5A220C88/5A168420/5A027FFF" Ref="C92"  Part="1" 
AR Path="/5A220C88/5A33FD79/5A027FFF" Ref="C94"  Part="1" 
AR Path="/5A220C88/5A33FE25/5A027FFF" Ref="C96"  Part="1" 
AR Path="/5A220C88/5A33FECF/5A027FFF" Ref="C98"  Part="1" 
AR Path="/5A220C88/5A33FF79/5A027FFF" Ref="C100"  Part="1" 
AR Path="/5A220C88/5A340023/5A027FFF" Ref="C102"  Part="1" 
AR Path="/5A220C88/5A3400CD/5A027FFF" Ref="C104"  Part="1" 
AR Path="/5A220C88/5A340177/5A027FFF" Ref="C106"  Part="1" 
AR Path="/5A220C88/5A340221/5A027FFF" Ref="C108"  Part="1" 
AR Path="/5A220C88/5A3402CB/5A027FFF" Ref="C110"  Part="1" 
AR Path="/5A220C88/5A340375/5A027FFF" Ref="C112"  Part="1" 
AR Path="/5A220C88/5A34041F/5A027FFF" Ref="C114"  Part="1" 
AR Path="/5A220C88/5A3404C9/5A027FFF" Ref="C116"  Part="1" 
AR Path="/5A220C88/5A340573/5A027FFF" Ref="C118"  Part="1" 
AR Path="/5A220C88/5A34061D/5A027FFF" Ref="C120"  Part="1" 
AR Path="/5A220C88/5A3406C7/5A027FFF" Ref="C122"  Part="1" 
AR Path="/5A220C88/5A340771/5A027FFF" Ref="C124"  Part="1" 
AR Path="/5A220C88/5A35240D/5A027FFF" Ref="C126"  Part="1" 
AR Path="/5A220C88/5A3524B7/5A027FFF" Ref="C128"  Part="1" 
AR Path="/5A220C88/5A352561/5A027FFF" Ref="C130"  Part="1" 
AR Path="/5A220C88/5A35260B/5A027FFF" Ref="C132"  Part="1" 
AR Path="/5A220C88/5A3526B5/5A027FFF" Ref="C134"  Part="1" 
AR Path="/5A220C88/5A35275F/5A027FFF" Ref="C136"  Part="1" 
AR Path="/5A220C88/5A352809/5A027FFF" Ref="C138"  Part="1" 
AR Path="/5A220C88/5A3528B3/5A027FFF" Ref="C140"  Part="1" 
AR Path="/5A220C88/5A35295D/5A027FFF" Ref="C142"  Part="1" 
AR Path="/5A220C88/5A352A07/5A027FFF" Ref="C144"  Part="1" 
AR Path="/5A220C88/5A352AB1/5A027FFF" Ref="C146"  Part="1" 
AR Path="/5A220C88/5A352B5B/5A027FFF" Ref="C148"  Part="1" 
AR Path="/5A220C88/5A352C05/5A027FFF" Ref="C150"  Part="1" 
AR Path="/5A027FFF" Ref="C128"  Part="1" 
F 0 "C128" H 6825 4800 50  0000 L CNN
F 1 "0.1uF" H 6825 4600 50  0000 L CNN
F 2 "Capacitors_SMD:C_0805" H 6838 4550 50  0001 C CNN
F 3 "" H 6800 4700 50  0000 C CNN
	1    6800 4700
	0    -1   -1   0   
$EndComp
Wire Wire Line
	6650 4700 6400 4700
Text GLabel 6950 4700 2    60   Input ~ 0
GND
Connection ~ 6400 4700
Text Notes 7550 4600 0    60   ~ 0
Each ADG732 requires up \nto 20 uA from VDD and VSS
$EndSCHEMATC
