EESchema Schematic File Version 2
LIBS:power
LIBS:device
LIBS:transistors
LIBS:conn
LIBS:linear
LIBS:regul
LIBS:74xx
LIBS:cmos4000
LIBS:adc-dac
LIBS:memory
LIBS:xilinx
LIBS:microcontrollers
LIBS:dsp
LIBS:microchip
LIBS:analog_switches
LIBS:motorola
LIBS:texas
LIBS:intel
LIBS:audio
LIBS:interface
LIBS:digital-audio
LIBS:philips
LIBS:display
LIBS:cypress
LIBS:siliconi
LIBS:opto
LIBS:atmel
LIBS:contrib
LIBS:valves
LIBS:ad5270
LIBS:adg732
LIBS:ads1120
LIBS:arduino
LIBS:connector-header-128
LIBS:lm234-to92
LIBS:lmc7660
LIBS:lp2985
LIBS:mdm
LIBS:teensy
LIBS:vreg
LIBS:logic-level-conversion
LIBS:lm2776
LIBS:mega-cable-tester-cache
EELAYER 25 0
EELAYER END
$Descr A3 16535 11693
encoding utf-8
Sheet 1 62
Title ""
Date ""
Rev ""
Comp ""
Comment1 ""
Comment2 ""
Comment3 ""
Comment4 ""
$EndDescr
$Comp
L LED D6
U 1 1 5763200C
P 14400 1200
F 0 "D6" H 14400 1300 50  0000 C CNN
F 1 "LED" H 14400 1100 50  0000 C CNN
F 2 "LEDs:LED_0805" H 14400 1200 50  0001 C CNN
F 3 "" H 14400 1200 50  0000 C CNN
	1    14400 1200
	-1   0    0    1   
$EndComp
Text Label 14200 1200 2    60   ~ 0
LED0
$Comp
L R R30
U 1 1 576338E2
P 14700 1200
F 0 "R30" V 14780 1200 50  0000 C CNN
F 1 "200Ω" V 14700 1200 50  0000 C CNN
F 2 "Resistors_SMD:R_0805" V 14630 1200 50  0001 C CNN
F 3 "" H 14700 1200 50  0000 C CNN
	1    14700 1200
	0    1    1    0   
$EndComp
$Comp
L R R13
U 1 1 57643663
P 7700 4300
F 0 "R13" V 7700 4300 50  0000 C CNN
F 1 "2MΩ <1%" V 7600 4300 50  0000 C CNN
F 2 "Resistors_SMD:R_0805" V 7630 4300 50  0001 C CNN
F 3 "" H 7700 4300 50  0000 C CNN
	1    7700 4300
	0    1    1    0   
$EndComp
$Comp
L R R12
U 1 1 57643B9A
P 7700 3900
F 0 "R12" V 7700 3900 50  0000 C CNN
F 1 "1kΩ <1%" V 7600 3900 50  0000 C CNN
F 2 "Resistors_SMD:R_0805" V 7630 3900 50  0001 C CNN
F 3 "" H 7700 3900 50  0000 C CNN
	1    7700 3900
	0    -1   -1   0   
$EndComp
Text Label 7900 4600 0    60   ~ 0
I_REF_POS
Text Label 7000 4600 0    60   ~ 0
I_REF_NEG
$Comp
L D D1
U 1 1 57639A92
P 2950 8600
F 0 "D1" H 2950 8700 50  0000 C CNN
F 1 "D" H 2950 8500 50  0000 C CNN
F 2 "Diodes_SMD:D_0805" H 2950 8600 50  0001 C CNN
F 3 "" H 2950 8600 50  0000 C CNN
	1    2950 8600
	1    0    0    -1  
$EndComp
$Comp
L D D2
U 1 1 57639C46
P 2950 8900
F 0 "D2" H 2950 9000 50  0000 C CNN
F 1 "D" H 2950 8800 50  0000 C CNN
F 2 "Diodes_SMD:D_0805" H 2950 8900 50  0001 C CNN
F 3 "" H 2950 8900 50  0000 C CNN
	1    2950 8900
	-1   0    0    1   
$EndComp
$Comp
L D D3
U 1 1 5763B9F8
P 2950 9250
F 0 "D3" H 2950 9350 50  0000 C CNN
F 1 "D" H 2950 9150 50  0000 C CNN
F 2 "Diodes_SMD:D_0805" H 2950 9250 50  0001 C CNN
F 3 "" H 2950 9250 50  0000 C CNN
	1    2950 9250
	1    0    0    -1  
$EndComp
$Comp
L D D4
U 1 1 5763B9FF
P 2950 9550
F 0 "D4" H 2950 9650 50  0000 C CNN
F 1 "D" H 2950 9450 50  0000 C CNN
F 2 "Diodes_SMD:D_0805" H 2950 9550 50  0001 C CNN
F 3 "" H 2950 9550 50  0000 C CNN
	1    2950 9550
	-1   0    0    1   
$EndComp
$Comp
L TEST_1P GND0
U 1 1 576AD011
P 11700 5600
F 0 "GND0" H 11700 5870 50  0000 C CNN
F 1 "TEST_1P" H 11700 5800 50  0000 C CNN
F 2 "banana-jack-pcb:deltron-571-0X00" H 11900 5600 50  0001 C CNN
F 3 "" H 11900 5600 50  0000 C CNN
	1    11700 5600
	0    -1   -1   0   
$EndComp
$Comp
L TEST_1P EXT0
U 1 1 576AE14B
P 11700 5900
F 0 "EXT0" H 11700 6170 50  0000 C CNN
F 1 "TEST_1P" H 11700 6100 50  0000 C CNN
F 2 "banana-jack-pcb:deltron-571-0X00" H 11900 5900 50  0001 C CNN
F 3 "" H 11900 5900 50  0000 C CNN
	1    11700 5900
	0    -1   -1   0   
$EndComp
$Comp
L TEST_1P EXT1
U 1 1 576AE1D7
P 11700 6200
F 0 "EXT1" H 11700 6470 50  0000 C CNN
F 1 "TEST_1P" H 11700 6400 50  0000 C CNN
F 2 "banana-jack-pcb:deltron-571-0X00" H 11900 6200 50  0001 C CNN
F 3 "" H 11900 6200 50  0000 C CNN
	1    11700 6200
	0    -1   -1   0   
$EndComp
$Comp
L R R24
U 1 1 576B875D
P 11700 6900
F 0 "R24" V 11780 6900 50  0000 C CNN
F 1 "330Ω" V 11700 6900 50  0000 C CNN
F 2 "Resistors_SMD:R_0805" V 11630 6900 50  0001 C CNN
F 3 "" H 11700 6900 50  0000 C CNN
	1    11700 6900
	0    1    1    0   
$EndComp
$Comp
L R R25
U 1 1 576B87FF
P 11700 7100
F 0 "R25" V 11780 7100 50  0000 C CNN
F 1 "100kΩ" V 11700 7100 50  0000 C CNN
F 2 "Resistors_SMD:R_0805" V 11630 7100 50  0001 C CNN
F 3 "" H 11700 7100 50  0000 C CNN
	1    11700 7100
	0    1    1    0   
$EndComp
$Comp
L R R22
U 1 1 576B8928
P 11550 7650
F 0 "R22" V 11630 7650 50  0000 C CNN
F 1 "0.1Ω" V 11550 7650 50  0000 C CNN
F 2 "Resistors_SMD:R_0805" V 11480 7650 50  0001 C CNN
F 3 "" H 11550 7650 50  0000 C CNN
	1    11550 7650
	0    -1   -1   0   
$EndComp
$Comp
L R R28
U 1 1 576B89CA
P 11850 7650
F 0 "R28" V 11930 7650 50  0000 C CNN
F 1 "33Ω" V 11850 7650 50  0000 C CNN
F 2 "Resistors_SMD:R_0805" V 11780 7650 50  0001 C CNN
F 3 "" H 11850 7650 50  0000 C CNN
	1    11850 7650
	0    -1   -1   0   
$EndComp
$Comp
L R R26
U 1 1 576B8A53
P 11700 7800
F 0 "R26" V 11780 7800 50  0000 C CNN
F 1 "3.3kΩ" V 11700 7800 50  0000 C CNN
F 2 "Resistors_SMD:R_0805" V 11630 7800 50  0001 C CNN
F 3 "" H 11700 7800 50  0000 C CNN
	1    11700 7800
	-1   0    0    1   
$EndComp
$Comp
L R R23
U 1 1 576BB782
P 11550 7950
F 0 "R23" V 11630 7950 50  0000 C CNN
F 1 "10kΩ" V 11550 7950 50  0000 C CNN
F 2 "Resistors_SMD:R_0805" V 11480 7950 50  0001 C CNN
F 3 "" H 11550 7950 50  0000 C CNN
	1    11550 7950
	0    1    1    0   
$EndComp
$Comp
L R R29
U 1 1 576BB78D
P 11850 7950
F 0 "R29" V 11930 7950 50  0000 C CNN
F 1 "1MΩ" V 11850 7950 50  0000 C CNN
F 2 "Resistors_SMD:R_0805" V 11780 7950 50  0001 C CNN
F 3 "" H 11850 7950 50  0000 C CNN
	1    11850 7950
	0    1    1    0   
$EndComp
Text Label 1450 5100 0    60   ~ 0
SPI0_CLK
Text Label 1450 2400 0    60   ~ 0
SPI0_MOSI
Text Label 1450 2500 0    60   ~ 0
SPI0_MISO
Text Label 1750 2600 0    60   ~ 0
VCC
Text Label 1450 5200 0    60   ~ 0
ADC0_DRDY
Text Label 1450 2300 0    60   ~ 0
ADC0_CS
Text Label 4500 4700 0    60   ~ 0
VCC
NoConn ~ 4450 4500
$Comp
L teensy3.6_breadboard U1
U 1 1 59FDAA2E
P 3450 3300
F 0 "U1" H 3450 5687 60  0000 C CNN
F 1 "teensy3.6_breadboard" H 3450 5581 60  0000 C CNN
F 2 "Teensy:teensy3.6_breadboard" H 150 200 60  0001 C CNN
F 3 "" H 150 200 60  0000 C CNN
	1    3450 3300
	1    0    0    -1  
$EndComp
$Comp
L R R2
U 1 1 59FDAA48
P 2300 2400
F 0 "R2" V 2350 2550 50  0000 C CNN
F 1 "47Ω" V 2300 2400 50  0000 C CNN
F 2 "Resistors_SMD:R_0805" V 2230 2400 50  0001 C CNN
F 3 "" H 2300 2400 50  0000 C CNN
	1    2300 2400
	0    -1   -1   0   
$EndComp
$Comp
L R R3
U 1 1 59FDAA4F
P 2300 2500
F 0 "R3" V 2350 2650 50  0000 C CNN
F 1 "47Ω" V 2300 2500 50  0000 C CNN
F 2 "Resistors_SMD:R_0805" V 2230 2500 50  0001 C CNN
F 3 "" H 2300 2500 50  0000 C CNN
	1    2300 2500
	0    -1   -1   0   
$EndComp
$Comp
L R R4
U 1 1 59FDAA56
P 2300 5100
F 0 "R4" V 2350 5250 50  0000 C CNN
F 1 "47Ω" V 2300 5100 50  0000 C CNN
F 2 "Resistors_SMD:R_0805" V 2230 5100 50  0001 C CNN
F 3 "" H 2300 5100 50  0000 C CNN
	1    2300 5100
	0    -1   -1   0   
$EndComp
$Comp
L R R1
U 1 1 59FDAA5D
P 2300 2300
F 0 "R1" V 2350 2450 50  0000 C CNN
F 1 "47Ω" V 2300 2300 50  0000 C CNN
F 2 "Resistors_SMD:R_0805" V 2230 2300 50  0001 C CNN
F 3 "" H 2300 2300 50  0000 C CNN
	1    2300 2300
	0    -1   -1   0   
$EndComp
$Comp
L R R5
U 1 1 59FDAA64
P 2300 5200
F 0 "R5" V 2350 5350 50  0000 C CNN
F 1 "47Ω" V 2300 5200 50  0000 C CNN
F 2 "Resistors_SMD:R_0805" V 2230 5200 50  0001 C CNN
F 3 "" H 2300 5200 50  0000 C CNN
	1    2300 5200
	0    -1   -1   0   
$EndComp
$Comp
L ADS1120 U2
U 1 1 59FE6177
P 7600 1350
F 0 "U2" H 8500 1500 60  0000 C CNN
F 1 "ADS1220" H 8500 500 60  0000 C CNN
F 2 "Housings_SSOP:TSSOP-16_4.4x5mm_Pitch0.65mm" H 7600 1350 60  0001 C CNN
F 3 "" H 7600 1350 60  0000 C CNN
	1    7600 1350
	1    0    0    -1  
$EndComp
Text Label 9450 1650 0    60   ~ 0
VCC
$Comp
L C C26
U 1 1 59FE6182
P 10500 1900
F 0 "C26" H 10525 2000 50  0000 L CNN
F 1 "0.1uF" H 10525 1800 50  0000 L CNN
F 2 "Capacitors_SMD:C_0805" H 10538 1750 50  0001 C CNN
F 3 "" H 10500 1900 50  0000 C CNN
	1    10500 1900
	-1   0    0    1   
$EndComp
$Comp
L C C25
U 1 1 59FE6189
P 10500 1500
F 0 "C25" H 10525 1600 50  0000 L CNN
F 1 "0.1uF" H 10525 1400 50  0000 L CNN
F 2 "Capacitors_SMD:C_0805" H 10538 1350 50  0001 C CNN
F 3 "" H 10500 1500 50  0000 C CNN
	1    10500 1500
	-1   0    0    1   
$EndComp
$Comp
L C C4
U 1 1 59FE6193
P 6650 1900
F 0 "C4" H 6675 2000 50  0000 L CNN
F 1 "0.1uF" H 6675 1800 50  0000 L CNN
F 2 "Capacitors_SMD:C_0805" H 6688 1750 50  0001 C CNN
F 3 "" H 6650 1900 50  0000 C CNN
	1    6650 1900
	1    0    0    -1  
$EndComp
Text Notes 10750 2250 0    39   ~ 0
\nDatasheet recommends decoupling\nto AGND, not AVSS
$Comp
L C C23
U 1 1 59FE619B
P 9700 2150
F 0 "C23" H 9725 2250 50  0000 L CNN
F 1 "DNF" H 9725 2050 50  0000 L CNN
F 2 "Capacitors_SMD:C_0805" H 9738 2000 50  0001 C CNN
F 3 "" H 9700 2150 50  0000 C CNN
	1    9700 2150
	0    -1   -1   0   
$EndComp
$Comp
L C C22
U 1 1 59FE61A2
P 9400 2300
F 0 "C22" H 9425 2400 50  0000 L CNN
F 1 "DNF" H 9425 2200 50  0000 L CNN
F 2 "Capacitors_SMD:C_0805" H 9438 2150 50  0001 C CNN
F 3 "" H 9400 2300 50  0000 C CNN
	1    9400 2300
	0    -1   -1   0   
$EndComp
$Comp
L C C24
U 1 1 59FE61A9
P 10000 2300
F 0 "C24" H 10025 2400 50  0000 L CNN
F 1 "DNF" H 10025 2200 50  0000 L CNN
F 2 "Capacitors_SMD:C_0805" H 10038 2150 50  0001 C CNN
F 3 "" H 10000 2300 50  0000 C CNN
	1    10000 2300
	0    -1   -1   0   
$EndComp
$Comp
L R R16
U 1 1 59FE61B2
P 9550 2450
F 0 "R16" V 9630 2450 50  0000 C CNN
F 1 "0Ω" V 9550 2450 50  0000 C CNN
F 2 "Resistors_SMD:R_0805" V 9480 2450 50  0001 C CNN
F 3 "" H 9550 2450 50  0000 C CNN
	1    9550 2450
	1    0    0    -1  
$EndComp
$Comp
L R R17
U 1 1 59FE61B9
P 9850 2450
F 0 "R17" V 9930 2450 50  0000 C CNN
F 1 "0Ω" V 9850 2450 50  0000 C CNN
F 2 "Resistors_SMD:R_0805" V 9780 2450 50  0001 C CNN
F 3 "" H 9850 2450 50  0000 C CNN
	1    9850 2450
	1    0    0    -1  
$EndComp
$Comp
L C C6
U 1 1 59FE61C0
P 7300 2150
F 0 "C6" H 7325 2250 50  0000 L CNN
F 1 "DNF" H 7325 2050 50  0000 L CNN
F 2 "Capacitors_SMD:C_0805" H 7338 2000 50  0001 C CNN
F 3 "" H 7300 2150 50  0000 C CNN
	1    7300 2150
	0    1    -1   0   
$EndComp
$Comp
L C C9
U 1 1 59FE61C7
P 7600 2300
F 0 "C9" H 7625 2400 50  0000 L CNN
F 1 "DNF" H 7625 2200 50  0000 L CNN
F 2 "Capacitors_SMD:C_0805" H 7638 2150 50  0001 C CNN
F 3 "" H 7600 2300 50  0000 C CNN
	1    7600 2300
	0    1    -1   0   
$EndComp
$Comp
L C C5
U 1 1 59FE61CE
P 7000 2300
F 0 "C5" H 7025 2400 50  0000 L CNN
F 1 "DNF" H 7025 2200 50  0000 L CNN
F 2 "Capacitors_SMD:C_0805" H 7038 2150 50  0001 C CNN
F 3 "" H 7000 2300 50  0000 C CNN
	1    7000 2300
	0    1    -1   0   
$EndComp
$Comp
L R R11
U 1 1 59FE61D5
P 7450 2450
F 0 "R11" V 7530 2450 50  0000 C CNN
F 1 "0Ω" V 7450 2450 50  0000 C CNN
F 2 "Resistors_SMD:R_0805" V 7380 2450 50  0001 C CNN
F 3 "" H 7450 2450 50  0000 C CNN
	1    7450 2450
	-1   0    0    -1  
$EndComp
$Comp
L R R10
U 1 1 59FE61DC
P 7150 2450
F 0 "R10" V 7230 2450 50  0000 C CNN
F 1 "0Ω" V 7150 2450 50  0000 C CNN
F 2 "Resistors_SMD:R_0805" V 7080 2450 50  0001 C CNN
F 3 "" H 7150 2450 50  0000 C CNN
	1    7150 2450
	-1   0    0    -1  
$EndComp
Text Label 7550 1450 2    60   ~ 0
ADC0_CS
Text Label 7550 1350 2    60   ~ 0
SPI0_CLK
Text Label 9450 1350 0    60   ~ 0
SPI0_MOSI
Text Label 9450 1450 0    60   ~ 0
SPI0_MISO
Text Label 9450 1550 0    60   ~ 0
ADC0_DRDY
Text Notes 10600 2600 0    60   ~ 0
ADS1220 uses up to 890 uA\nfrom the analog supplies.
Text Notes 6900 1550 0    60   ~ 0
Not Used
$Comp
L C C15
U 1 1 59FE621C
P 8500 2350
F 0 "C15" H 8525 2450 50  0000 L CNN
F 1 "DNF" H 8525 2250 50  0000 L CNN
F 2 "Capacitors_SMD:C_0805" H 8538 2200 50  0001 C CNN
F 3 "" H 8500 2350 50  0000 C CNN
	1    8500 2350
	0    1    1    0   
$EndComp
$Comp
L C C14
U 1 1 59FE6223
P 8200 2500
F 0 "C14" H 8225 2600 50  0000 L CNN
F 1 "DNF" H 8225 2400 50  0000 L CNN
F 2 "Capacitors_SMD:C_0805" H 8238 2350 50  0001 C CNN
F 3 "" H 8200 2500 50  0000 C CNN
	1    8200 2500
	0    -1   -1   0   
$EndComp
$Comp
L C C16
U 1 1 59FE622A
P 8800 2500
F 0 "C16" H 8825 2600 50  0000 L CNN
F 1 "DNF" H 8825 2400 50  0000 L CNN
F 2 "Capacitors_SMD:C_0805" H 8838 2350 50  0001 C CNN
F 3 "" H 8800 2500 50  0000 C CNN
	1    8800 2500
	0    -1   -1   0   
$EndComp
$Comp
L R R14
U 1 1 59FE6233
P 8350 2650
F 0 "R14" V 8430 2650 50  0000 C CNN
F 1 "0Ω" V 8350 2650 50  0000 C CNN
F 2 "Resistors_SMD:R_0805" V 8280 2650 50  0001 C CNN
F 3 "" H 8350 2650 50  0000 C CNN
	1    8350 2650
	1    0    0    -1  
$EndComp
$Comp
L R R15
U 1 1 59FE623A
P 8650 2650
F 0 "R15" V 8730 2650 50  0000 C CNN
F 1 "0Ω" V 8650 2650 50  0000 C CNN
F 2 "Resistors_SMD:R_0805" V 8580 2650 50  0001 C CNN
F 3 "" H 8650 2650 50  0000 C CNN
	1    8650 2650
	1    0    0    -1  
$EndComp
Text Label 7900 4300 0    60   ~ 0
EXCITATION
Text Label 7800 2900 0    60   ~ 0
I_REF_NEG
Text Label 8700 2900 0    60   ~ 0
I_REF_POS
Text Label 7500 3600 2    60   ~ 0
I_RET_POS
Text Label 8400 3600 2    60   ~ 0
I_RET_NEG
Text Label 8000 2700 2    60   ~ 0
I_RET_POS
Text Label 7100 2700 2    60   ~ 0
I_RET_NEG
Text Notes 8600 4600 0    60   ~ 0
2MΩ creates 1-2V reference voltage for 0-2MΩ cable resistance at \nconstant 2V total excitation (results in 1 uA max excitation when shorted).\nADS1220 allows 0.75V to 2.5V ref.  External series resistor as ref \nallows ratiometric measurement. Internal V_ref is 2.048V.
Text Notes 8600 3900 0    60   ~ 0
1kΩ current limiting resistor in case an external voltage is applied.\nBulk of resistance on high side keeps signal near ground (ADC CM).\nMonitoring current change over high and low side detects ground shorts.
$Comp
L LED D7
U 1 1 59FFCA1A
P 14400 1500
F 0 "D7" H 14400 1600 50  0000 C CNN
F 1 "LED" H 14400 1400 50  0000 C CNN
F 2 "LEDs:LED_0805" H 14400 1500 50  0001 C CNN
F 3 "" H 14400 1500 50  0000 C CNN
	1    14400 1500
	-1   0    0    1   
$EndComp
Text Label 14200 1500 2    60   ~ 0
LED1
$Comp
L R R31
U 1 1 59FFCA24
P 14700 1500
F 0 "R31" V 14780 1500 50  0000 C CNN
F 1 "200Ω" V 14700 1500 50  0000 C CNN
F 2 "Resistors_SMD:R_0805" V 14630 1500 50  0001 C CNN
F 3 "" H 14700 1500 50  0000 C CNN
	1    14700 1500
	0    1    1    0   
$EndComp
$Comp
L LED D8
U 1 1 59FFCEC5
P 14400 1800
F 0 "D8" H 14400 1900 50  0000 C CNN
F 1 "LED" H 14400 1700 50  0000 C CNN
F 2 "LEDs:LED_0805" H 14400 1800 50  0001 C CNN
F 3 "" H 14400 1800 50  0000 C CNN
	1    14400 1800
	-1   0    0    1   
$EndComp
Text Label 14200 1800 2    60   ~ 0
LED2
$Comp
L R R32
U 1 1 59FFCECF
P 14700 1800
F 0 "R32" V 14780 1800 50  0000 C CNN
F 1 "200Ω" V 14700 1800 50  0000 C CNN
F 2 "Resistors_SMD:R_0805" V 14630 1800 50  0001 C CNN
F 3 "" H 14700 1800 50  0000 C CNN
	1    14700 1800
	0    1    1    0   
$EndComp
$Comp
L LED D9
U 1 1 59FFCED5
P 14400 2300
F 0 "D9" H 14400 2400 50  0000 C CNN
F 1 "LED" H 14400 2200 50  0000 C CNN
F 2 "LEDs:LED_0805" H 14400 2300 50  0001 C CNN
F 3 "" H 14400 2300 50  0000 C CNN
	1    14400 2300
	-1   0    0    1   
$EndComp
Text Label 14200 2300 2    60   ~ 0
LED3
$Comp
L R R33
U 1 1 59FFCEDF
P 14700 2300
F 0 "R33" V 14780 2300 50  0000 C CNN
F 1 "200Ω" V 14700 2300 50  0000 C CNN
F 2 "Resistors_SMD:R_0805" V 14630 2300 50  0001 C CNN
F 3 "" H 14700 2300 50  0000 C CNN
	1    14700 2300
	0    1    1    0   
$EndComp
Text Notes 7350 7100 0    60   ~ 0
ADC Analog Positive (2.5 V, 150 mA)
$Comp
L C C17
U 1 1 5A007A6E
P 8850 7550
F 0 "C17" H 8875 7650 50  0000 L CNN
F 1 "0.1uF" H 8875 7450 50  0000 L CNN
F 2 "Capacitors_SMD:C_0805" H 8888 7400 50  0001 C CNN
F 3 "" H 8850 7550 50  0000 C CNN
	1    8850 7550
	1    0    0    -1  
$EndComp
$Comp
L C C10
U 1 1 5A007A76
P 7700 7550
F 0 "C10" H 7725 7650 50  0000 L CNN
F 1 "10uF" H 7725 7450 50  0000 L CNN
F 2 "Capacitors_SMD:C_0805" H 7738 7400 50  0001 C CNN
F 3 "" H 7700 7550 50  0000 C CNN
	1    7700 7550
	-1   0    0    1   
$EndComp
$Comp
L TPS7Axx U4
U 1 1 5A007A7D
P 8400 7600
F 0 "U4" H 8375 7747 60  0000 C CNN
F 1 "TPS7A49" H 8375 7641 60  0000 C CNN
F 2 "smd-exposed-pad:TI-HVSSOP-PowerPAD-8" H -5350 2950 60  0001 C CNN
F 3 "" H -5350 2950 60  0001 C CNN
	1    8400 7600
	1    0    0    -1  
$EndComp
$Comp
L R R7
U 1 1 5A007A85
P 7000 8150
F 0 "R7" V 7080 8150 50  0000 C CNN
F 1 "10kΩ 1%" V 6900 8100 50  0000 C CNN
F 2 "Resistors_SMD:R_0805" V 6930 8150 50  0001 C CNN
F 3 "" H 7000 8150 50  0000 C CNN
	1    7000 8150
	1    0    0    -1  
$EndComp
$Comp
L R R6
U 1 1 5A007A8C
P 7000 7850
F 0 "R6" V 7080 7850 50  0000 C CNN
F 1 "11.3kΩ 1%" V 6900 7950 50  0000 C CNN
F 2 "Resistors_SMD:R_0805" V 6930 7850 50  0001 C CNN
F 3 "" H 7000 7850 50  0000 C CNN
	1    7000 7850
	1    0    0    -1  
$EndComp
$Comp
L C C11
U 1 1 5A007A93
P 7700 7850
F 0 "C11" H 7725 7950 50  0000 L CNN
F 1 "10nF" H 7725 7750 50  0000 L CNN
F 2 "Capacitors_SMD:C_0805" H 7738 7700 50  0001 C CNN
F 3 "" H 7700 7850 50  0000 C CNN
	1    7700 7850
	-1   0    0    1   
$EndComp
$Comp
L C C20
U 1 1 5A007A9C
P 9200 7900
F 0 "C20" H 9225 8000 50  0000 L CNN
F 1 "10nF" H 9225 7800 50  0000 L CNN
F 2 "Capacitors_SMD:C_0805" H 9238 7750 50  0001 C CNN
F 3 "" H 9200 7900 50  0000 C CNN
	1    9200 7900
	0    -1   -1   0   
$EndComp
Text Notes 7400 8650 0    60   ~ 0
ADC Analog Negative (-2.5 V, 200 mA)
$Comp
L C C18
U 1 1 5A007AA8
P 8900 9100
F 0 "C18" H 8925 9200 50  0000 L CNN
F 1 "0.1uF" H 8925 9000 50  0000 L CNN
F 2 "Capacitors_SMD:C_0805" H 8938 8950 50  0001 C CNN
F 3 "" H 8900 9100 50  0000 C CNN
	1    8900 9100
	1    0    0    -1  
$EndComp
$Comp
L C C12
U 1 1 5A007AB0
P 7750 9100
F 0 "C12" H 7775 9200 50  0000 L CNN
F 1 "10uF" H 7775 9000 50  0000 L CNN
F 2 "Capacitors_SMD:C_0805" H 7788 8950 50  0001 C CNN
F 3 "" H 7750 9100 50  0000 C CNN
	1    7750 9100
	-1   0    0    1   
$EndComp
$Comp
L TPS7Axx U5
U 1 1 5A007AB7
P 8450 9150
F 0 "U5" H 8425 9297 60  0000 C CNN
F 1 "TPS7A30" H 8425 9191 60  0000 C CNN
F 2 "smd-exposed-pad:TI-HVSSOP-PowerPAD-8" H -5300 4500 60  0001 C CNN
F 3 "" H -5300 4500 60  0001 C CNN
	1    8450 9150
	1    0    0    -1  
$EndComp
$Comp
L R R9
U 1 1 5A007ABF
P 7050 9700
F 0 "R9" V 7130 9700 50  0000 C CNN
F 1 "10kΩ 1%" V 6950 9650 50  0000 C CNN
F 2 "Resistors_SMD:R_0805" V 6980 9700 50  0001 C CNN
F 3 "" H 7050 9700 50  0000 C CNN
	1    7050 9700
	1    0    0    -1  
$EndComp
$Comp
L R R8
U 1 1 5A007AC6
P 7050 9400
F 0 "R8" V 7130 9400 50  0000 C CNN
F 1 "11.3kΩ 1%" V 6950 9500 50  0000 C CNN
F 2 "Resistors_SMD:R_0805" V 6980 9400 50  0001 C CNN
F 3 "" H 7050 9400 50  0000 C CNN
	1    7050 9400
	1    0    0    -1  
$EndComp
$Comp
L C C13
U 1 1 5A007ACD
P 7750 9400
F 0 "C13" H 7775 9500 50  0000 L CNN
F 1 "10nF" H 7775 9300 50  0000 L CNN
F 2 "Capacitors_SMD:C_0805" H 7788 9250 50  0001 C CNN
F 3 "" H 7750 9400 50  0000 C CNN
	1    7750 9400
	-1   0    0    1   
$EndComp
$Comp
L C C21
U 1 1 5A007AD6
P 9250 9450
F 0 "C21" H 9275 9550 50  0000 L CNN
F 1 "10nF" H 9275 9350 50  0000 L CNN
F 2 "Capacitors_SMD:C_0805" H 9288 9300 50  0001 C CNN
F 3 "" H 9250 9450 50  0000 C CNN
	1    9250 9450
	0    -1   -1   0   
$EndComp
$Sheet
S 4100 6300 550  1400
U 5A018C64
F0 "Sheet5A018C63" 60
F1 "mux-tree.sch" 60
F2 "MUX_A0" I L 4100 6400 60 
F3 "MUX_A1" I L 4100 6500 60 
F4 "MUX_A2" I L 4100 6600 60 
F5 "MUX_A3" I L 4100 6700 60 
F6 "MUX_A4" I L 4100 6800 60 
F7 "MUX_EN" I L 4100 7450 60 
F8 "MUX_A5" I L 4100 6900 60 
F9 "MUX_A6" I L 4100 7000 60 
F10 "MUX_A7" I L 4100 7100 60 
F11 "MUX_A8" I L 4100 7200 60 
F12 "MUX_A9" I L 4100 7300 60 
F13 "MUX_OUT" B L 4100 7600 60 
$EndSheet
Wire Wire Line
	14250 1200 13900 1200
Wire Wire Line
	7550 4300 6950 4300
Wire Wire Line
	7550 3900 6950 3900
Wire Wire Line
	7550 4300 7550 4600
Wire Wire Line
	7550 4600 6950 4600
Wire Wire Line
	7850 4300 7850 4600
Wire Wire Line
	7850 4600 8450 4600
Connection ~ 7850 4300
Connection ~ 7550 4300
Wire Wire Line
	3100 8750 3800 8750
Wire Wire Line
	3100 8600 3100 8900
Connection ~ 3100 8750
Wire Wire Line
	3100 9400 3800 9400
Wire Wire Line
	3100 9250 3100 9550
Connection ~ 3100 9400
Wire Wire Line
	2150 5100 1400 5100
Wire Wire Line
	2150 2400 1400 2400
Wire Wire Line
	2150 2500 1400 2500
Wire Wire Line
	2450 2600 1700 2600
Wire Wire Line
	2450 4300 1700 4300
Wire Wire Line
	2150 2300 1400 2300
Wire Wire Line
	2150 5200 1400 5200
Wire Wire Line
	5200 4700 4450 4700
Wire Wire Line
	7600 1650 6850 1650
Wire Wire Line
	6650 1750 7600 1750
Wire Wire Line
	9400 1750 10500 1750
Wire Wire Line
	10150 1350 9400 1350
Wire Wire Line
	10150 1450 9400 1450
Wire Wire Line
	10150 1550 9400 1550
Wire Wire Line
	7600 1350 6850 1350
Wire Wire Line
	7600 1450 6850 1450
Wire Wire Line
	7600 1550 6850 1550
Wire Wire Line
	10500 1350 10800 1350
Wire Wire Line
	6650 2050 6250 2050
Wire Wire Line
	9400 1950 9550 1950
Wire Wire Line
	9550 1950 9550 2300
Wire Wire Line
	9400 1850 9850 1850
Wire Wire Line
	9850 1850 9850 2300
Connection ~ 9550 2150
Connection ~ 9850 2150
Wire Wire Line
	9850 2600 9850 2700
Wire Wire Line
	9850 2700 10450 2700
Wire Wire Line
	9550 2600 9550 2700
Wire Wire Line
	9550 2700 8950 2700
Wire Wire Line
	7600 1950 7450 1950
Wire Wire Line
	7450 1950 7450 2300
Wire Wire Line
	7600 1850 7150 1850
Wire Wire Line
	7150 1850 7150 2300
Connection ~ 7450 2150
Connection ~ 7150 2150
Wire Wire Line
	7150 2600 7150 2700
Wire Wire Line
	7150 2700 6550 2700
Wire Wire Line
	7450 2600 7450 2700
Wire Wire Line
	7450 2700 8050 2700
Connection ~ 7150 2300
Connection ~ 7450 2300
Connection ~ 9550 2300
Connection ~ 9850 2300
Connection ~ 8350 2350
Connection ~ 8650 2350
Wire Wire Line
	8650 2800 8650 2900
Wire Wire Line
	8650 2900 9250 2900
Wire Wire Line
	8350 2800 8350 2900
Wire Wire Line
	8350 2900 7750 2900
Connection ~ 8350 2500
Connection ~ 8650 2500
Wire Wire Line
	7600 2050 7600 2200
Wire Wire Line
	7600 2200 8200 2200
Wire Wire Line
	8200 2200 8200 2350
Wire Wire Line
	8200 2350 8350 2350
Wire Wire Line
	9400 2050 9400 2200
Wire Wire Line
	9400 2200 8800 2200
Wire Wire Line
	8800 2200 8800 2350
Wire Wire Line
	8800 2350 8650 2350
Wire Wire Line
	8650 2350 8650 2500
Wire Wire Line
	8350 2350 8350 2500
Wire Wire Line
	7850 4300 8450 4300
Wire Wire Line
	7850 3900 7850 3600
Wire Wire Line
	7850 3600 8450 3600
Wire Wire Line
	7550 3900 7550 3600
Wire Wire Line
	7550 3600 6950 3600
Connection ~ 7850 3900
Connection ~ 7550 3900
Wire Notes Line
	6850 3900 6600 3900
Wire Notes Line
	6600 3900 6600 4300
Wire Notes Line
	6600 4300 6850 4300
Wire Wire Line
	14250 1500 13900 1500
Wire Wire Line
	14250 1800 13900 1800
Wire Wire Line
	14250 2300 13900 2300
Wire Wire Line
	7000 7700 7900 7700
Wire Wire Line
	9450 7700 8850 7700
Wire Wire Line
	9100 8000 8850 8000
Connection ~ 8850 7700
Connection ~ 7700 7700
Wire Wire Line
	7900 7800 7800 7800
Wire Wire Line
	7800 7800 7800 8000
Wire Wire Line
	7800 8000 7000 8000
Connection ~ 7700 8000
Wire Wire Line
	7000 8300 7300 8300
Wire Wire Line
	7900 8000 7900 8300
Connection ~ 7900 8100
Connection ~ 7000 8000
Connection ~ 7000 7700
Connection ~ 7000 8300
Wire Wire Line
	9050 7900 8850 7900
Wire Wire Line
	7050 9250 7950 9250
Wire Wire Line
	9500 9250 8900 9250
Wire Wire Line
	9150 9550 8900 9550
Connection ~ 8900 9250
Connection ~ 7750 9250
Wire Wire Line
	7950 9350 7850 9350
Wire Wire Line
	7850 9350 7850 9550
Wire Wire Line
	7850 9550 7050 9550
Connection ~ 7750 9550
Wire Wire Line
	7050 9850 7350 9850
Wire Wire Line
	7950 9550 7950 9850
Connection ~ 7950 9650
Connection ~ 7050 9550
Connection ~ 7050 9250
Connection ~ 7050 9850
Wire Wire Line
	9100 9450 8900 9450
Wire Wire Line
	4100 6400 3450 6400
Wire Wire Line
	4100 6500 3450 6500
Wire Wire Line
	3450 6600 4100 6600
Wire Wire Line
	4100 6700 3450 6700
Wire Wire Line
	3450 6800 4100 6800
Wire Wire Line
	4100 6900 3450 6900
Wire Wire Line
	3450 7000 4100 7000
Wire Wire Line
	4100 7100 3450 7100
Wire Wire Line
	3450 7200 4100 7200
Wire Wire Line
	4100 7300 3450 7300
Wire Wire Line
	4100 7450 3450 7450
Wire Wire Line
	3450 7600 4100 7600
Text Label 3500 6400 0    60   ~ 0
MUX1_A0
Text Label 3500 6500 0    60   ~ 0
MUX1_A1
Text Label 3500 6600 0    60   ~ 0
MUX1_A2
Text Label 3500 6700 0    60   ~ 0
MUX1_A3
Text Label 3500 6800 0    60   ~ 0
MUX1_A4
Text Label 3500 6900 0    60   ~ 0
MUX1_A5
Text Label 3500 7000 0    60   ~ 0
MUX1_A6
Text Label 3500 7100 0    60   ~ 0
MUX1_A7
Text Label 3500 7200 0    60   ~ 0
MUX1_A8
Text Label 3500 7300 0    60   ~ 0
MUX1_A9
Text Label 3500 7450 0    60   ~ 0
MUX1_EN
Text Label 3500 7600 0    60   ~ 0
MUX1_OUT
$Sheet
S 2350 6300 550  1400
U 5A220C88
F0 "sheet5A220C7A" 60
F1 "mux-tree.sch" 60
F2 "MUX_A0" I L 2350 6400 60 
F3 "MUX_A1" I L 2350 6500 60 
F4 "MUX_A2" I L 2350 6600 60 
F5 "MUX_A3" I L 2350 6700 60 
F6 "MUX_A4" I L 2350 6800 60 
F7 "MUX_EN" I L 2350 7450 60 
F8 "MUX_A5" I L 2350 6900 60 
F9 "MUX_A6" I L 2350 7000 60 
F10 "MUX_A7" I L 2350 7100 60 
F11 "MUX_A8" I L 2350 7200 60 
F12 "MUX_A9" I L 2350 7300 60 
F13 "MUX_OUT" B L 2350 7600 60 
$EndSheet
Wire Wire Line
	2350 6400 1700 6400
Wire Wire Line
	2350 6500 1700 6500
Wire Wire Line
	1700 6600 2350 6600
Wire Wire Line
	2350 6700 1700 6700
Wire Wire Line
	1700 6800 2350 6800
Wire Wire Line
	2350 6900 1700 6900
Wire Wire Line
	1700 7000 2350 7000
Wire Wire Line
	2350 7100 1700 7100
Wire Wire Line
	1700 7200 2350 7200
Wire Wire Line
	2350 7300 1700 7300
Wire Wire Line
	2350 7450 1700 7450
Wire Wire Line
	1700 7600 2350 7600
Text Label 1750 6400 0    60   ~ 0
MUX0_A0
Text Label 1750 6500 0    60   ~ 0
MUX0_A1
Text Label 1750 6600 0    60   ~ 0
MUX0_A2
Text Label 1750 6700 0    60   ~ 0
MUX0_A3
Text Label 1750 6800 0    60   ~ 0
MUX0_A4
Text Label 1750 6900 0    60   ~ 0
MUX0_A5
Text Label 1750 7000 0    60   ~ 0
MUX0_A6
Text Label 1750 7100 0    60   ~ 0
MUX0_A7
Text Label 1750 7200 0    60   ~ 0
MUX0_A8
Text Label 1750 7300 0    60   ~ 0
MUX0_A9
Text Label 1750 7450 0    60   ~ 0
MUX0_EN
Text Label 1750 7600 0    60   ~ 0
MUX0_OUT
Text GLabel 6850 1550 0    60   Input ~ 0
GND
Text GLabel 6850 1650 0    60   Input ~ 0
GND
Text GLabel 6250 2050 0    60   Input ~ 0
GND
Text GLabel 6850 2300 0    60   Input ~ 0
GND
Text GLabel 8050 2500 0    60   Input ~ 0
GND
Text GLabel 8950 2500 2    60   Input ~ 0
GND
Text GLabel 7750 2300 2    60   Input ~ 0
GND
Text GLabel 9250 2300 0    60   Input ~ 0
GND
Text GLabel 10150 2300 2    60   Input ~ 0
GND
Wire Wire Line
	10500 2050 10800 2050
Text GLabel 10800 2050 2    60   Input ~ 0
GND
Text GLabel 10800 1350 2    60   Input ~ 0
GND
Connection ~ 10500 1750
Connection ~ 6650 1750
Text GLabel 6650 1750 0    60   Input ~ 0
A2V5-
Text GLabel 10500 1750 2    60   Input ~ 0
A2V5+
Wire Wire Line
	9400 1650 10500 1650
Text GLabel 9400 9450 2    60   Input ~ 0
GND
Text GLabel 9350 7900 2    60   Input ~ 0
GND
Text GLabel 8850 7400 1    60   Input ~ 0
GND
Text GLabel 7700 7400 1    60   Input ~ 0
GND
Text GLabel 7750 8950 1    60   Input ~ 0
GND
Text GLabel 8900 8950 1    60   Input ~ 0
GND
Text GLabel 7000 7700 1    60   Input ~ 0
A2V5+
Text GLabel 7050 9250 1    60   Input ~ 0
A2V5-
Text GLabel 7900 8300 2    60   Input ~ 0
GND
Text GLabel 7950 9850 2    60   Input ~ 0
GND
Text GLabel 7850 3900 2    60   Input ~ 0
GND
Text Label 7000 3900 0    60   ~ 0
MUX0_OUT
Text Label 7000 4300 0    60   ~ 0
MUX1_OUT
Text GLabel 2800 8600 0    60   Input ~ 0
A2V5+
Text GLabel 2800 9250 0    60   Input ~ 0
A2V5+
Text Label 3200 8750 0    60   ~ 0
MUX0_OUT
Text Label 3200 9400 0    60   ~ 0
MUX1_OUT
Text GLabel 2800 8900 0    60   Input ~ 0
A2V5-
Text GLabel 2800 9550 0    60   Input ~ 0
A2V5-
Text Label 9900 2700 0    60   ~ 0
MUX1_OUT
Text Label 9000 2700 0    60   ~ 0
MUX0_OUT
Text Notes 6550 4500 1    60   ~ 0
Mux + Connectors
$Comp
L LM2776 U3
U 1 1 5A01F6AA
P 8350 6250
F 0 "U3" H 8350 6397 60  0000 C CNN
F 1 "LM2776" H 8350 6291 60  0000 C CNN
F 2 "TO_SOT_Packages_SMD:SOT-23-6" H -150 1000 60  0001 C CNN
F 3 "" H -150 1000 60  0001 C CNN
	1    8350 6250
	1    0    0    -1  
$EndComp
Text Notes 7350 6000 0    60   ~ 0
Negative Inverter (-3.3 V, 200 mA)
$Comp
L C C19
U 1 1 5A024667
P 9150 6350
F 0 "C19" H 9175 6450 50  0000 L CNN
F 1 "1uF" H 9175 6250 50  0000 L CNN
F 2 "Capacitors_SMD:C_0805" H 9188 6200 50  0001 C CNN
F 3 "" H 9150 6350 50  0000 C CNN
	1    9150 6350
	0    -1   -1   0   
$EndComp
Wire Wire Line
	8800 6350 9000 6350
Wire Wire Line
	8800 6450 9300 6450
Wire Wire Line
	9300 6450 9300 6350
Text GLabel 7900 6450 0    60   Input ~ 0
GND
Wire Wire Line
	7900 6550 7900 6650
Wire Wire Line
	7900 6650 7550 6650
Wire Wire Line
	7900 6350 7550 6350
Text Label 7600 6350 0    60   ~ 0
3V3-
Text Label 7600 6650 0    60   ~ 0
VCC
Text Label 8850 6550 0    60   ~ 0
VCC
Wire Wire Line
	8800 6550 9300 6550
$Comp
L C C7
U 1 1 5A0288D5
P 7400 6350
F 0 "C7" H 7425 6450 50  0000 L CNN
F 1 "10uF" H 7425 6250 50  0000 L CNN
F 2 "Capacitors_SMD:C_0805" H 7438 6200 50  0001 C CNN
F 3 "" H 7400 6350 50  0000 C CNN
	1    7400 6350
	0    -1   -1   0   
$EndComp
Text GLabel 7250 6350 0    60   Input ~ 0
GND
$Comp
L C C8
U 1 1 5A028F60
P 9450 7550
F 0 "C8" H 9475 7650 50  0000 L CNN
F 1 "10uF" H 9475 7450 50  0000 L CNN
F 2 "Capacitors_SMD:C_0805" H 9488 7400 50  0001 C CNN
F 3 "" H 9450 7550 50  0000 C CNN
	1    9450 7550
	1    0    0    -1  
$EndComp
Text GLabel 9450 7400 1    60   Input ~ 0
GND
Text Label 9200 9250 0    60   ~ 0
3V3-
Text Label 8900 9550 0    60   ~ 0
3V3-
Text Label 9150 7700 0    60   ~ 0
VCC
Text Label 8900 8000 0    60   ~ 0
VCC
Text Notes 6800 5600 0    60   ~ 0
3.3V VCC provided by Teensy 3.6, up to 250 mA allowed externally
Text GLabel 2450 1200 0    60   Input ~ 0
GND
Text GLabel 2450 5000 0    60   Input ~ 0
GND
Text GLabel 4700 4600 2    60   Input ~ 0
GND
Wire Wire Line
	4450 4600 4700 4600
$Sheet
S 2450 10200 1000 700 
U 5A04A5B6
F0 "Sheet5A04A5B5" 60
F1 "connectors.sch" 60
$EndSheet
Text GLabel 11700 5600 2    60   Input ~ 0
GND
Text GLabel 11700 5900 2    60   Input ~ 0
P612
Text GLabel 11700 6200 2    60   Input ~ 0
P613
Text GLabel 11550 7100 0    60   Input ~ 0
P616
Text GLabel 11850 7100 2    60   Input ~ 0
P617
Text GLabel 11850 6900 2    60   Input ~ 0
P615
Text GLabel 11550 6900 0    60   Input ~ 0
P614
Connection ~ 11700 7950
Connection ~ 11700 7650
Text GLabel 11400 7650 0    60   Input ~ 0
P618
Text GLabel 11400 7950 0    60   Input ~ 0
P621
Text GLabel 12000 7650 2    60   Input ~ 0
P620
Text GLabel 12000 7950 2    60   Input ~ 0
P623
Text GLabel 11700 8000 3    60   Input ~ 0
P622
Text GLabel 11700 7600 1    60   Input ~ 0
P619
Wire Wire Line
	11700 7600 11700 7650
Wire Wire Line
	11700 7950 11700 8000
Text Notes 11150 6650 0    60   ~ 0
Calibration Test Resistors
Text Notes 11450 5350 0    60   ~ 0
BNC Jacks
$Comp
L R R19
U 1 1 5A0DF191
P 11500 8600
F 0 "R19" V 11450 8750 50  0000 C CNN
F 1 "100Ω" V 11500 8600 50  0000 C CNN
F 2 "Resistors_SMD:R_0805" V 11430 8600 50  0001 C CNN
F 3 "" H 11500 8600 50  0000 C CNN
	1    11500 8600
	0    1    1    0   
$EndComp
$Comp
L R R20
U 1 1 5A0DF19F
P 11500 8700
F 0 "R20" V 11450 8850 50  0000 C CNN
F 1 "10kΩ" V 11500 8700 50  0000 C CNN
F 2 "Resistors_SMD:R_0805" V 11430 8700 50  0001 C CNN
F 3 "" H 11500 8700 50  0000 C CNN
	1    11500 8700
	0    1    1    0   
$EndComp
$Comp
L R R18
U 1 1 5A0DF1AD
P 11500 8500
F 0 "R18" V 11450 8650 50  0000 C CNN
F 1 "1Ω" V 11500 8500 50  0000 C CNN
F 2 "Resistors_SMD:R_0805" V 11430 8500 50  0001 C CNN
F 3 "" H 11500 8500 50  0000 C CNN
	1    11500 8500
	0    1    1    0   
$EndComp
$Comp
L R R21
U 1 1 5A0DF1B4
P 11500 8800
F 0 "R21" V 11450 8950 50  0000 C CNN
F 1 "1MΩ" V 11500 8800 50  0000 C CNN
F 2 "Resistors_SMD:R_0805" V 11430 8800 50  0001 C CNN
F 3 "" H 11500 8800 50  0000 C CNN
	1    11500 8800
	0    1    1    0   
$EndComp
Wire Wire Line
	11650 8500 11900 8500
Wire Wire Line
	11650 8600 11900 8600
Wire Wire Line
	11650 8700 11900 8700
Wire Wire Line
	11650 8800 11900 8800
Wire Wire Line
	11350 8500 11350 8800
Wire Wire Line
	11350 8800 11250 8800
Text GLabel 11250 8800 0    60   Input ~ 0
GND
Connection ~ 11350 8800
Connection ~ 11350 8700
Connection ~ 11350 8600
Connection ~ 11350 8500
Text GLabel 11900 8500 2    60   Input ~ 0
P624
Text GLabel 11900 8600 2    60   Input ~ 0
P625
Text GLabel 11900 8700 2    60   Input ~ 0
P626
Text GLabel 11900 8800 2    60   Input ~ 0
P627
Text GLabel 11550 9100 0    60   Input ~ 0
P628
Text GLabel 11850 9100 2    60   Input ~ 0
P629
Text GLabel 11550 9300 0    60   Input ~ 0
P630
Text GLabel 11850 9300 2    60   Input ~ 0
P631
$Comp
L D D5
U 1 1 5A121F45
P 11700 9100
F 0 "D5" H 11700 9200 50  0000 C CNN
F 1 "D" H 11700 9000 50  0000 C CNN
F 2 "Diodes_SMD:D_0805" H 11700 9100 50  0001 C CNN
F 3 "" H 11700 9100 50  0000 C CNN
	1    11700 9100
	-1   0    0    1   
$EndComp
$Comp
L R R27
U 1 1 5A1294B2
P 11700 9300
F 0 "R27" V 11780 9300 50  0000 C CNN
F 1 "2MΩ" V 11700 9300 50  0000 C CNN
F 2 "Resistors_SMD:R_0805" V 11630 9300 50  0001 C CNN
F 3 "" H 11700 9300 50  0000 C CNN
	1    11700 9300
	0    1    1    0   
$EndComp
Text Notes 2700 10600 0    60   ~ 0
Connectors
Text Notes 2600 8350 0    60   ~ 0
ADC Input Protection
Text Notes 3000 6050 0    60   ~ 0
Dual Mux Trees
Text Label 1750 4800 0    60   ~ 0
EXCITATION_DAC
$Comp
L C C2
U 1 1 5A134033
P 7200 5150
F 0 "C2" H 7225 5250 50  0000 L CNN
F 1 "47pF" H 7225 5050 50  0000 L CNN
F 2 "Capacitors_SMD:C_0805" H 7238 5000 50  0001 C CNN
F 3 "" H 7200 5150 50  0000 C CNN
	1    7200 5150
	0    -1   -1   0   
$EndComp
Text GLabel 7050 5150 0    60   Input ~ 0
GND
Wire Wire Line
	1700 4800 2450 4800
Wire Wire Line
	2450 1300 1650 1300
Wire Wire Line
	2450 1400 1650 1400
Wire Wire Line
	1650 1500 2450 1500
Wire Wire Line
	2450 1600 1650 1600
Wire Wire Line
	1650 1700 2450 1700
Wire Wire Line
	2450 1800 1650 1800
Wire Wire Line
	1650 1900 2450 1900
Wire Wire Line
	2450 2000 1650 2000
Wire Wire Line
	1650 2100 2450 2100
Wire Wire Line
	2450 2200 1650 2200
Text Label 1700 1300 0    60   ~ 0
MUX0_A0
Text Label 1700 1400 0    60   ~ 0
MUX0_A1
Text Label 1700 1500 0    60   ~ 0
MUX0_A2
Text Label 1700 1600 0    60   ~ 0
MUX0_A3
Text Label 1700 1700 0    60   ~ 0
MUX0_A4
Text Label 1700 1800 0    60   ~ 0
MUX0_A5
Text Label 1700 1900 0    60   ~ 0
MUX0_A6
Text Label 1700 2000 0    60   ~ 0
MUX0_A7
Text Label 1700 2100 0    60   ~ 0
MUX0_A8
Text Label 1700 2200 0    60   ~ 0
MUX0_A9
Text Label 1750 2700 0    60   ~ 0
MUX0_EN
Wire Wire Line
	2450 2800 1700 2800
Wire Wire Line
	2450 2900 1700 2900
Wire Wire Line
	1700 3000 2450 3000
Wire Wire Line
	2450 3100 1700 3100
Wire Wire Line
	1700 3200 2450 3200
Wire Wire Line
	2450 3300 1700 3300
Wire Wire Line
	1700 3400 2450 3400
Wire Wire Line
	2450 3500 1700 3500
Wire Wire Line
	1700 4100 2450 4100
Wire Wire Line
	2450 4200 1700 4200
Text Label 1750 2800 0    60   ~ 0
MUX1_A0
Text Label 1750 2900 0    60   ~ 0
MUX1_A1
Text Label 1750 3000 0    60   ~ 0
MUX1_A2
Text Label 1750 3100 0    60   ~ 0
MUX1_A3
Text Label 1750 3200 0    60   ~ 0
MUX1_A4
Text Label 1750 3300 0    60   ~ 0
MUX1_A5
Text Label 1750 3400 0    60   ~ 0
MUX1_A6
Text Label 1750 3500 0    60   ~ 0
MUX1_A7
Text Label 1750 4100 0    60   ~ 0
MUX1_A8
Text Label 1750 4200 0    60   ~ 0
MUX1_A9
Wire Wire Line
	1700 2700 2450 2700
Text Label 1750 4300 0    60   ~ 0
MUX1_EN
Text Label 4500 5400 0    60   ~ 0
LED0
Text Label 4500 5300 0    60   ~ 0
LED1
Text Label 4500 5200 0    60   ~ 0
LED2
Text Label 4500 5100 0    60   ~ 0
LED3
Wire Wire Line
	4450 4800 5200 4800
Wire Wire Line
	5200 4900 4450 4900
Wire Wire Line
	4450 5000 5200 5000
Wire Wire Line
	5200 5100 4450 5100
Text Label 4500 5000 0    60   ~ 0
LED4
Text Label 4500 4900 0    60   ~ 0
LED5
Wire Wire Line
	4450 5200 5200 5200
Wire Wire Line
	5200 5300 4450 5300
$Comp
L LED D10
U 1 1 5A14C500
P 14400 2600
F 0 "D10" H 14400 2700 50  0000 C CNN
F 1 "LED" H 14400 2500 50  0000 C CNN
F 2 "LEDs:LED_0805" H 14400 2600 50  0001 C CNN
F 3 "" H 14400 2600 50  0000 C CNN
	1    14400 2600
	-1   0    0    1   
$EndComp
Text Label 14200 2600 2    60   ~ 0
LED4
$Comp
L R R34
U 1 1 5A14C508
P 14700 2600
F 0 "R34" V 14780 2600 50  0000 C CNN
F 1 "200Ω" V 14700 2600 50  0000 C CNN
F 2 "Resistors_SMD:R_0805" V 14630 2600 50  0001 C CNN
F 3 "" H 14700 2600 50  0000 C CNN
	1    14700 2600
	0    1    1    0   
$EndComp
$Comp
L LED D11
U 1 1 5A14C50E
P 14400 2900
F 0 "D11" H 14400 3000 50  0000 C CNN
F 1 "LED" H 14400 2800 50  0000 C CNN
F 2 "LEDs:LED_0805" H 14400 2900 50  0001 C CNN
F 3 "" H 14400 2900 50  0000 C CNN
	1    14400 2900
	-1   0    0    1   
$EndComp
Text Label 14200 2900 2    60   ~ 0
LED5
$Comp
L R R35
U 1 1 5A14C516
P 14700 2900
F 0 "R35" V 14780 2900 50  0000 C CNN
F 1 "200Ω" V 14700 2900 50  0000 C CNN
F 2 "Resistors_SMD:R_0805" V 14630 2900 50  0001 C CNN
F 3 "" H 14700 2900 50  0000 C CNN
	1    14700 2900
	0    1    1    0   
$EndComp
Wire Wire Line
	14250 2600 13900 2600
Wire Wire Line
	14250 2900 13900 2900
Text Label 4500 4800 0    60   ~ 0
LED6
Wire Wire Line
	5200 5400 4450 5400
$Comp
L LED D12
U 1 1 5A152CD7
P 14400 3200
F 0 "D12" H 14400 3300 50  0000 C CNN
F 1 "LED" H 14400 3100 50  0000 C CNN
F 2 "LEDs:LED_0805" H 14400 3200 50  0001 C CNN
F 3 "" H 14400 3200 50  0000 C CNN
	1    14400 3200
	-1   0    0    1   
$EndComp
Text Label 14200 3200 2    60   ~ 0
LED6
$Comp
L R R36
U 1 1 5A152CDF
P 14700 3200
F 0 "R36" V 14780 3200 50  0000 C CNN
F 1 "200Ω" V 14700 3200 50  0000 C CNN
F 2 "Resistors_SMD:R_0805" V 14630 3200 50  0001 C CNN
F 3 "" H 14700 3200 50  0000 C CNN
	1    14700 3200
	0    1    1    0   
$EndComp
Wire Wire Line
	14250 3200 13900 3200
Text Notes 14200 2100 0    60   ~ 0
Progress LEDs
Text Notes 14250 1000 0    60   ~ 0
Status LEDs
$Comp
L CONN_01X02 J1
U 1 1 5A155D9C
P 14550 4300
F 0 "J1" H 14628 4341 50  0000 L CNN
F 1 "CONN_01X02" H 14628 4250 50  0000 L CNN
F 2 "Pin_Headers:Pin_Header_Straight_1x02_Pitch2.54mm" H 1250 3450 50  0001 C CNN
F 3 "" H 1250 3450 50  0001 C CNN
	1    14550 4300
	1    0    0    -1  
$EndComp
Text GLabel 14350 4350 0    60   Input ~ 0
GND
Wire Wire Line
	14350 4250 13950 4250
Text Label 14050 4250 0    60   ~ 0
JMP0
$Comp
L CONN_01X02 J2
U 1 1 5A15C100
P 14550 4600
F 0 "J2" H 14628 4641 50  0000 L CNN
F 1 "CONN_01X02" H 14628 4550 50  0000 L CNN
F 2 "Pin_Headers:Pin_Header_Straight_1x02_Pitch2.54mm" H 1250 3750 50  0001 C CNN
F 3 "" H 1250 3750 50  0001 C CNN
	1    14550 4600
	1    0    0    -1  
$EndComp
Text GLabel 14350 4650 0    60   Input ~ 0
GND
Wire Wire Line
	14350 4550 13950 4550
Text Label 14050 4550 0    60   ~ 0
JMP1
$Comp
L CONN_01X02 J3
U 1 1 5A15C3BD
P 14550 4900
F 0 "J3" H 14628 4941 50  0000 L CNN
F 1 "CONN_01X02" H 14628 4850 50  0000 L CNN
F 2 "Pin_Headers:Pin_Header_Straight_1x02_Pitch2.54mm" H 1250 4050 50  0001 C CNN
F 3 "" H 1250 4050 50  0001 C CNN
	1    14550 4900
	1    0    0    -1  
$EndComp
Text GLabel 14350 4950 0    60   Input ~ 0
GND
Wire Wire Line
	14350 4850 13950 4850
Text Label 14050 4850 0    60   ~ 0
JMP2
$Comp
L CONN_01X02 J4
U 1 1 5A15C3C6
P 14550 5200
F 0 "J4" H 14628 5241 50  0000 L CNN
F 1 "CONN_01X02" H 14628 5150 50  0000 L CNN
F 2 "Pin_Headers:Pin_Header_Straight_1x02_Pitch2.54mm" H 1250 4350 50  0001 C CNN
F 3 "" H 1250 4350 50  0001 C CNN
	1    14550 5200
	1    0    0    -1  
$EndComp
Text GLabel 14350 5250 0    60   Input ~ 0
GND
Wire Wire Line
	14350 5150 13950 5150
Text Label 14050 5150 0    60   ~ 0
JMP3
$Comp
L CONN_01X02 J5
U 1 1 5A15C907
P 14550 5500
F 0 "J5" H 14628 5541 50  0000 L CNN
F 1 "CONN_01X02" H 14628 5450 50  0000 L CNN
F 2 "Pin_Headers:Pin_Header_Straight_1x02_Pitch2.54mm" H 1250 4650 50  0001 C CNN
F 3 "" H 1250 4650 50  0001 C CNN
	1    14550 5500
	1    0    0    -1  
$EndComp
Text GLabel 14350 5550 0    60   Input ~ 0
GND
Wire Wire Line
	14350 5450 13950 5450
Text Label 14050 5450 0    60   ~ 0
JMP4
$Comp
L CONN_01X02 J6
U 1 1 5A15C910
P 14550 5800
F 0 "J6" H 14628 5841 50  0000 L CNN
F 1 "CONN_01X02" H 14628 5750 50  0000 L CNN
F 2 "Pin_Headers:Pin_Header_Straight_1x02_Pitch2.54mm" H 1250 4950 50  0001 C CNN
F 3 "" H 1250 4950 50  0001 C CNN
	1    14550 5800
	1    0    0    -1  
$EndComp
Text GLabel 14350 5850 0    60   Input ~ 0
GND
Wire Wire Line
	14350 5750 13950 5750
Text Label 14050 5750 0    60   ~ 0
JMP5
Text Label 1750 4400 0    60   ~ 0
JMP0
Text Label 1750 4500 0    60   ~ 0
JMP1
Text Label 1750 4600 0    60   ~ 0
JMP2
Text Label 1750 4700 0    60   ~ 0
JMP3
Text Label 1750 5300 0    60   ~ 0
JMP4
Text Label 1750 5400 0    60   ~ 0
JMP5
Wire Wire Line
	1700 4400 2450 4400
Wire Wire Line
	2450 4500 1700 4500
Wire Wire Line
	1700 4600 2450 4600
Wire Wire Line
	2450 4700 1700 4700
Wire Wire Line
	1700 5300 2450 5300
Wire Wire Line
	2450 5400 1700 5400
Text GLabel 14850 1200 2    60   Input ~ 0
GND
Text GLabel 14850 1500 2    60   Input ~ 0
GND
Text GLabel 14850 1800 2    60   Input ~ 0
GND
Text GLabel 14850 2300 2    60   Input ~ 0
GND
Text GLabel 14850 2600 2    60   Input ~ 0
GND
Text GLabel 14850 2900 2    60   Input ~ 0
GND
Text GLabel 14850 3200 2    60   Input ~ 0
GND
Text GLabel 7350 9850 2    60   Input ~ 0
GND
Text GLabel 7300 8300 2    60   Input ~ 0
GND
NoConn ~ 2450 4900
Text Notes 14200 4050 0    60   ~ 0
Settings Jumpers
$Comp
L PWR_FLAG #FLG01
U 1 1 5A16FAB0
P 5200 4700
F 0 "#FLG01" H 5250 4750 50  0001 C CNN
F 1 "PWR_FLAG" H 5200 4874 50  0000 C CNN
F 2 "" H -550 -2750 50  0001 C CNN
F 3 "" H -550 -2750 50  0001 C CNN
	1    5200 4700
	1    0    0    -1  
$EndComp
Connection ~ 5200 4700
$Comp
L PWR_FLAG #FLG02
U 1 1 5A18A48A
P 2450 1200
F 0 "#FLG02" H 2500 1250 50  0001 C CNN
F 1 "PWR_FLAG" H 2450 1374 50  0000 C CNN
F 2 "" H -3300 -6250 50  0001 C CNN
F 3 "" H -3300 -6250 50  0001 C CNN
	1    2450 1200
	1    0    0    -1  
$EndComp
Connection ~ 2450 1200
$Comp
L CONN_01X01 J9
U 1 1 5A0AA81B
P 13800 6900
F 0 "J9" H 13878 6986 50  0000 L CNN
F 1 "CONN_01X01" H 13878 6895 50  0000 L CNN
F 2 "Mounting_Holes:MountingHole_3.2mm_M3_Pad" H 13878 6804 50  0000 L CNN
F 3 "" H 13800 6900 50  0001 C CNN
	1    13800 6900
	1    0    0    -1  
$EndComp
Text GLabel 13600 6900 0    60   Input ~ 0
GND
$Comp
L CONN_01X01 J10
U 1 1 5A0AC0D3
P 13800 7150
F 0 "J10" H 13878 7236 50  0000 L CNN
F 1 "CONN_01X01" H 13878 7145 50  0000 L CNN
F 2 "Mounting_Holes:MountingHole_3.2mm_M3_Pad" H 13878 7054 50  0000 L CNN
F 3 "" H 13800 7150 50  0001 C CNN
	1    13800 7150
	1    0    0    -1  
$EndComp
Text GLabel 13600 7150 0    60   Input ~ 0
GND
$Comp
L CONN_01X01 J7
U 1 1 5A0AC638
P 13800 6650
F 0 "J7" H 13878 6736 50  0000 L CNN
F 1 "CONN_01X01" H 13878 6645 50  0000 L CNN
F 2 "Mounting_Holes:MountingHole_3.2mm_M3_Pad" H 13878 6554 50  0000 L CNN
F 3 "" H 13800 6650 50  0001 C CNN
	1    13800 6650
	1    0    0    -1  
$EndComp
Text GLabel 13600 6650 0    60   Input ~ 0
GND
$Comp
L CONN_01X01 J13
U 1 1 5A0ACD5E
P 13800 7400
F 0 "J13" H 13878 7486 50  0000 L CNN
F 1 "CONN_01X01" H 13878 7395 50  0000 L CNN
F 2 "Mounting_Holes:MountingHole_3.2mm_M3_Pad" H 13878 7304 50  0000 L CNN
F 3 "" H 13800 7400 50  0001 C CNN
	1    13800 7400
	1    0    0    -1  
$EndComp
Text GLabel 13600 7400 0    60   Input ~ 0
GND
Text Label 7550 5150 0    60   ~ 0
EXCITATION
Wire Wire Line
	7350 5150 8250 5150
$Comp
L CONN_01X03 J8
U 1 1 5A2D674F
P 8450 5150
F 0 "J8" H 8528 5191 50  0000 L CNN
F 1 "CONN_01X03" H 8528 5100 50  0000 L CNN
F 2 "Pin_Headers:Pin_Header_Straight_1x03_Pitch2.54mm" H 8450 5150 50  0001 C CNN
F 3 "" H 8450 5150 50  0001 C CNN
	1    8450 5150
	1    0    0    -1  
$EndComp
Text Label 7550 5250 0    60   ~ 0
EXCITATION_DAC
Wire Wire Line
	7500 5250 8250 5250
Text GLabel 8250 5000 0    60   Input ~ 0
A2V5+
Wire Wire Line
	8250 5000 8250 5050
$Comp
L C C125
U 1 1 5A83D712
P 7400 6650
F 0 "C125" H 7425 6750 50  0000 L CNN
F 1 "10uF" H 7425 6550 50  0000 L CNN
F 2 "Capacitors_SMD:C_0805" H 7438 6500 50  0001 C CNN
F 3 "" H 7400 6650 50  0000 C CNN
	1    7400 6650
	0    -1   -1   0   
$EndComp
Text GLabel 7250 6650 0    60   Input ~ 0
GND
Text Notes 7250 6850 0    39   ~ 0
Place all three capacitors as close as possible to inverter!  Picky chip.
$EndSCHEMATC
