(export (version D)
  (design
    (source /home/jhunacek/gdrive/research-caltech/cable-tester/pcb/adapters/gmr7580-37s/adapter-gmr7580-37s.sch)
    (date "Thu 11 Aug 2016 01:00:18 PM PDT")
    (tool "Eeschema 4.0.2+e4-6225~38~ubuntu14.04.1-stable")
    (sheet (number 1) (name /) (tstamps /)
      (title_block
        (title)
        (company)
        (rev)
        (date)
        (source adapter-gmr7580-37s.sch)
        (comment (number 1) (value ""))
        (comment (number 2) (value ""))
        (comment (number 3) (value ""))
        (comment (number 4) (value "")))))
  (components
    (comp (ref U1)
      (value connector-header-128)
      (footprint cable-tester:connector-header-128)
      (libsource (lib connector-header-128) (part connector-header-128))
      (sheetpath (names /) (tstamps /))
      (tstamp 57ABEA1B))
    (comp (ref P001-P037)
      (value MDM-37)
      (footprint mdm:gmr7580-37s)
      (libsource (lib mdm) (part MDM-37))
      (sheetpath (names /) (tstamps /))
      (tstamp 57ACD729))
    (comp (ref P038-P074)
      (value MDM-37)
      (footprint mdm:gmr7580-37s)
      (libsource (lib mdm) (part MDM-37))
      (sheetpath (names /) (tstamps /))
      (tstamp 57ACD7F6))
    (comp (ref P075-P111)
      (value MDM-37)
      (footprint mdm:gmr7580-37s)
      (libsource (lib mdm) (part MDM-37))
      (sheetpath (names /) (tstamps /))
      (tstamp 57ACD92B)))
  (libparts
    (libpart (lib mdm) (part MDM-37)
      (description "51 pin MDM")
      (footprints
        (fp Pin_Header_Straight_2X40)
        (fp Pin_Header_Angled_2X40)
        (fp Socket_Strip_Straight_2X40)
        (fp Socket_Strip_Angled_2X40))
      (fields
        (field (name Reference) P)
        (field (name Value) MDM-37))
      (pins
        (pin (num 1) (name P1) (type passive))
        (pin (num 2) (name P2) (type passive))
        (pin (num 3) (name P3) (type passive))
        (pin (num 4) (name P4) (type passive))
        (pin (num 5) (name P5) (type passive))
        (pin (num 6) (name P6) (type passive))
        (pin (num 7) (name P7) (type passive))
        (pin (num 8) (name P8) (type passive))
        (pin (num 9) (name P9) (type passive))
        (pin (num 10) (name P10) (type passive))
        (pin (num 11) (name P11) (type passive))
        (pin (num 12) (name P12) (type passive))
        (pin (num 13) (name P13) (type passive))
        (pin (num 14) (name P14) (type passive))
        (pin (num 15) (name P15) (type passive))
        (pin (num 16) (name P16) (type passive))
        (pin (num 17) (name P17) (type passive))
        (pin (num 18) (name P18) (type passive))
        (pin (num 19) (name P19) (type passive))
        (pin (num 20) (name P20) (type passive))
        (pin (num 21) (name P21) (type passive))
        (pin (num 22) (name P22) (type passive))
        (pin (num 23) (name P23) (type passive))
        (pin (num 24) (name P24) (type passive))
        (pin (num 25) (name P25) (type passive))
        (pin (num 26) (name P26) (type passive))
        (pin (num 27) (name P27) (type passive))
        (pin (num 28) (name P28) (type passive))
        (pin (num 29) (name P29) (type passive))
        (pin (num 30) (name P30) (type passive))
        (pin (num 31) (name P31) (type passive))
        (pin (num 32) (name P32) (type passive))
        (pin (num 33) (name P33) (type passive))
        (pin (num 34) (name P34) (type passive))
        (pin (num 35) (name P35) (type passive))
        (pin (num 36) (name P36) (type passive))
        (pin (num 37) (name P37) (type passive))
        (pin (num SA) (name PSA) (type passive))
        (pin (num SB) (name PSB) (type passive))))
    (libpart (lib connector-header-128) (part connector-header-128)
      (fields
        (field (name Reference) U)
        (field (name Value) connector-header-128))
      (pins
        (pin (num 1) (name 1) (type input))
        (pin (num 2) (name 2) (type input))
        (pin (num 3) (name 3) (type input))
        (pin (num 4) (name 4) (type input))
        (pin (num 5) (name 5) (type input))
        (pin (num 6) (name 6) (type input))
        (pin (num 7) (name 7) (type input))
        (pin (num 8) (name 8) (type input))
        (pin (num 9) (name 9) (type input))
        (pin (num 10) (name 10) (type input))
        (pin (num 11) (name 11) (type input))
        (pin (num 12) (name 12) (type input))
        (pin (num 13) (name 13) (type input))
        (pin (num 14) (name 14) (type input))
        (pin (num 15) (name 15) (type input))
        (pin (num 16) (name 16) (type input))
        (pin (num 17) (name 17) (type input))
        (pin (num 18) (name 18) (type input))
        (pin (num 19) (name 19) (type input))
        (pin (num 20) (name 20) (type input))
        (pin (num 21) (name 21) (type input))
        (pin (num 22) (name 22) (type input))
        (pin (num 23) (name 23) (type input))
        (pin (num 24) (name 24) (type input))
        (pin (num 25) (name 25) (type input))
        (pin (num 26) (name 26) (type input))
        (pin (num 27) (name 27) (type input))
        (pin (num 28) (name 28) (type input))
        (pin (num 29) (name 29) (type input))
        (pin (num 30) (name 30) (type input))
        (pin (num 31) (name 31) (type input))
        (pin (num 32) (name 32) (type input))
        (pin (num 33) (name 33) (type input))
        (pin (num 34) (name 34) (type input))
        (pin (num 35) (name 35) (type input))
        (pin (num 36) (name 36) (type input))
        (pin (num 37) (name 37) (type input))
        (pin (num 38) (name 38) (type input))
        (pin (num 39) (name 39) (type input))
        (pin (num 40) (name 40) (type input))
        (pin (num 41) (name 41) (type input))
        (pin (num 42) (name 42) (type input))
        (pin (num 43) (name 43) (type input))
        (pin (num 44) (name 44) (type input))
        (pin (num 45) (name 45) (type input))
        (pin (num 46) (name 46) (type input))
        (pin (num 47) (name 47) (type input))
        (pin (num 48) (name 48) (type input))
        (pin (num 49) (name 49) (type input))
        (pin (num 50) (name 50) (type input))
        (pin (num 51) (name 51) (type input))
        (pin (num 52) (name 52) (type input))
        (pin (num 53) (name 53) (type input))
        (pin (num 54) (name 54) (type input))
        (pin (num 55) (name 55) (type input))
        (pin (num 56) (name 56) (type input))
        (pin (num 57) (name 57) (type input))
        (pin (num 58) (name 58) (type input))
        (pin (num 59) (name 59) (type input))
        (pin (num 60) (name 60) (type input))
        (pin (num 61) (name 61) (type input))
        (pin (num 62) (name 62) (type input))
        (pin (num 63) (name 63) (type input))
        (pin (num 64) (name 64) (type input))
        (pin (num 65) (name 65) (type input))
        (pin (num 66) (name 66) (type input))
        (pin (num 67) (name 67) (type input))
        (pin (num 68) (name 68) (type input))
        (pin (num 69) (name 69) (type input))
        (pin (num 70) (name 70) (type input))
        (pin (num 71) (name 71) (type input))
        (pin (num 72) (name 72) (type input))
        (pin (num 73) (name 73) (type input))
        (pin (num 74) (name 74) (type input))
        (pin (num 75) (name 75) (type input))
        (pin (num 76) (name 76) (type input))
        (pin (num 77) (name 77) (type input))
        (pin (num 78) (name 78) (type input))
        (pin (num 79) (name 79) (type input))
        (pin (num 80) (name 80) (type input))
        (pin (num 81) (name 81) (type input))
        (pin (num 82) (name 82) (type input))
        (pin (num 83) (name 83) (type input))
        (pin (num 84) (name 84) (type input))
        (pin (num 85) (name 85) (type input))
        (pin (num 86) (name 86) (type input))
        (pin (num 87) (name 87) (type input))
        (pin (num 88) (name 88) (type input))
        (pin (num 89) (name 89) (type input))
        (pin (num 90) (name 90) (type input))
        (pin (num 91) (name 91) (type input))
        (pin (num 92) (name 92) (type input))
        (pin (num 93) (name 93) (type input))
        (pin (num 94) (name 94) (type input))
        (pin (num 95) (name 95) (type input))
        (pin (num 96) (name 96) (type input))
        (pin (num 97) (name 97) (type input))
        (pin (num 98) (name 98) (type input))
        (pin (num 99) (name 99) (type input))
        (pin (num 100) (name 100) (type input))
        (pin (num 101) (name 101) (type input))
        (pin (num 102) (name 102) (type input))
        (pin (num 103) (name 103) (type input))
        (pin (num 104) (name 104) (type input))
        (pin (num 105) (name 105) (type input))
        (pin (num 106) (name 106) (type input))
        (pin (num 107) (name 107) (type input))
        (pin (num 108) (name 108) (type input))
        (pin (num 109) (name 109) (type input))
        (pin (num 110) (name 110) (type input))
        (pin (num 111) (name 111) (type input))
        (pin (num 112) (name 112) (type input))
        (pin (num 113) (name 113) (type input))
        (pin (num 114) (name 114) (type input))
        (pin (num 115) (name 115) (type input))
        (pin (num 116) (name 116) (type input))
        (pin (num 117) (name 117) (type input))
        (pin (num 118) (name 118) (type input))
        (pin (num 119) (name 119) (type input))
        (pin (num 120) (name 120) (type input))
        (pin (num 121) (name 121) (type input))
        (pin (num 122) (name 122) (type input))
        (pin (num 123) (name 123) (type input))
        (pin (num 124) (name 124) (type input))
        (pin (num 125) (name 125) (type input))
        (pin (num 126) (name 126) (type input))
        (pin (num 127) (name 127) (type input))
        (pin (num 128) (name 128) (type input)))))
  (libraries
    (library (logical mdm)
      (uri /home/jhunacek/gdrive/research-caltech/cable-tester/pcb/libs/mdm.lib))
    (library (logical connector-header-128)
      (uri /home/jhunacek/gdrive/research-caltech/cable-tester/pcb/libs/connector-header-128.lib)))
  (nets
    (net (code 1) (name /P058)
      (node (ref U1) (pin 58))
      (node (ref P038-P074) (pin 21)))
    (net (code 2) (name /P060)
      (node (ref U1) (pin 60))
      (node (ref P038-P074) (pin 23)))
    (net (code 3) (name /P062)
      (node (ref U1) (pin 62))
      (node (ref P038-P074) (pin 25)))
    (net (code 4) (name /P064)
      (node (ref P038-P074) (pin 27))
      (node (ref U1) (pin 64)))
    (net (code 5) (name /P098)
      (node (ref U1) (pin 98))
      (node (ref P075-P111) (pin 24)))
    (net (code 6) (name /P096)
      (node (ref U1) (pin 96))
      (node (ref P075-P111) (pin 22)))
    (net (code 7) (name /P094)
      (node (ref P075-P111) (pin 20))
      (node (ref U1) (pin 94)))
    (net (code 8) (name /P092)
      (node (ref U1) (pin 92))
      (node (ref P075-P111) (pin 18)))
    (net (code 9) (name /P090)
      (node (ref U1) (pin 90))
      (node (ref P075-P111) (pin 16)))
    (net (code 10) (name /P088)
      (node (ref P075-P111) (pin 14))
      (node (ref U1) (pin 88)))
    (net (code 11) (name /P044)
      (node (ref U1) (pin 44))
      (node (ref P038-P074) (pin 7)))
    (net (code 12) (name /P036)
      (node (ref P001-P037) (pin 36))
      (node (ref U1) (pin 36)))
    (net (code 13) (name /P038)
      (node (ref P038-P074) (pin 1))
      (node (ref U1) (pin 38)))
    (net (code 14) (name /P040)
      (node (ref P038-P074) (pin 3))
      (node (ref U1) (pin 40)))
    (net (code 15) (name /P042)
      (node (ref P038-P074) (pin 5))
      (node (ref U1) (pin 42)))
    (net (code 16) (name /P086)
      (node (ref P075-P111) (pin 12))
      (node (ref U1) (pin 86)))
    (net (code 17) (name /P046)
      (node (ref U1) (pin 46))
      (node (ref P038-P074) (pin 9)))
    (net (code 18) (name /P048)
      (node (ref P038-P074) (pin 11))
      (node (ref U1) (pin 48)))
    (net (code 19) (name /P050)
      (node (ref U1) (pin 50))
      (node (ref P038-P074) (pin 13)))
    (net (code 20) (name /P052)
      (node (ref U1) (pin 52))
      (node (ref P038-P074) (pin 15)))
    (net (code 21) (name /P054)
      (node (ref U1) (pin 54))
      (node (ref P038-P074) (pin 17)))
    (net (code 22) (name /P056)
      (node (ref U1) (pin 56))
      (node (ref P038-P074) (pin 19)))
    (net (code 23) (name /P095)
      (node (ref U1) (pin 95))
      (node (ref P075-P111) (pin 21)))
    (net (code 24) (name /P093)
      (node (ref P075-P111) (pin 19))
      (node (ref U1) (pin 93)))
    (net (code 25) (name /P091)
      (node (ref P075-P111) (pin 17))
      (node (ref U1) (pin 91)))
    (net (code 26) (name /P089)
      (node (ref U1) (pin 89))
      (node (ref P075-P111) (pin 15)))
    (net (code 27) (name /P087)
      (node (ref U1) (pin 87))
      (node (ref P075-P111) (pin 13)))
    (net (code 28) (name /P097)
      (node (ref P075-P111) (pin 23))
      (node (ref U1) (pin 97)))
    (net (code 29) (name /P085)
      (node (ref P075-P111) (pin 11))
      (node (ref U1) (pin 85)))
    (net (code 30) (name /P083)
      (node (ref P075-P111) (pin 9))
      (node (ref U1) (pin 83)))
    (net (code 31) (name /P081)
      (node (ref P075-P111) (pin 7))
      (node (ref U1) (pin 81)))
    (net (code 32) (name /P079)
      (node (ref P075-P111) (pin 5))
      (node (ref U1) (pin 79)))
    (net (code 33) (name /P084)
      (node (ref P075-P111) (pin 10))
      (node (ref U1) (pin 84)))
    (net (code 34) (name /P082)
      (node (ref U1) (pin 82))
      (node (ref P075-P111) (pin 8)))
    (net (code 35) (name /P080)
      (node (ref U1) (pin 80))
      (node (ref P075-P111) (pin 6)))
    (net (code 36) (name /P078)
      (node (ref U1) (pin 78))
      (node (ref P075-P111) (pin 4)))
    (net (code 37) (name /P076)
      (node (ref U1) (pin 76))
      (node (ref P075-P111) (pin 2)))
    (net (code 38) (name /P074)
      (node (ref P038-P074) (pin 37))
      (node (ref U1) (pin 74)))
    (net (code 39) (name /P072)
      (node (ref P038-P074) (pin 35))
      (node (ref U1) (pin 72)))
    (net (code 40) (name /P070)
      (node (ref U1) (pin 70))
      (node (ref P038-P074) (pin 33)))
    (net (code 41) (name /P068)
      (node (ref U1) (pin 68))
      (node (ref P038-P074) (pin 31)))
    (net (code 42) (name /P066)
      (node (ref P038-P074) (pin 29))
      (node (ref U1) (pin 66)))
    (net (code 43) (name /P100)
      (node (ref U1) (pin 100))
      (node (ref P075-P111) (pin 26)))
    (net (code 44) (name /P033)
      (node (ref P001-P037) (pin 33))
      (node (ref U1) (pin 33)))
    (net (code 45) (name /P035)
      (node (ref U1) (pin 35))
      (node (ref P001-P037) (pin 35)))
    (net (code 46) (name /P037)
      (node (ref U1) (pin 37))
      (node (ref P001-P037) (pin 37)))
    (net (code 47) (name /P039)
      (node (ref U1) (pin 39))
      (node (ref P038-P074) (pin 2)))
    (net (code 48) (name /P041)
      (node (ref P038-P074) (pin 4))
      (node (ref U1) (pin 41)))
    (net (code 49) (name /P031)
      (node (ref U1) (pin 31))
      (node (ref P001-P037) (pin 31)))
    (net (code 50) (name /P043)
      (node (ref U1) (pin 43))
      (node (ref P038-P074) (pin 6)))
    (net (code 51) (name /P045)
      (node (ref U1) (pin 45))
      (node (ref P038-P074) (pin 8)))
    (net (code 52) (name /P047)
      (node (ref U1) (pin 47))
      (node (ref P038-P074) (pin 10)))
    (net (code 53) (name /P049)
      (node (ref P038-P074) (pin 12))
      (node (ref U1) (pin 49)))
    (net (code 54) (name /P051)
      (node (ref P038-P074) (pin 14))
      (node (ref U1) (pin 51)))
    (net (code 55) (name /P011)
      (node (ref P001-P037) (pin 11))
      (node (ref U1) (pin 11)))
    (net (code 56) (name /P013)
      (node (ref U1) (pin 13))
      (node (ref P001-P037) (pin 13)))
    (net (code 57) (name /P015)
      (node (ref U1) (pin 15))
      (node (ref P001-P037) (pin 15)))
    (net (code 58) (name /P017)
      (node (ref U1) (pin 17))
      (node (ref P001-P037) (pin 17)))
    (net (code 59) (name /P053)
      (node (ref U1) (pin 53))
      (node (ref P038-P074) (pin 16)))
    (net (code 60) (name /P019)
      (node (ref U1) (pin 19))
      (node (ref P001-P037) (pin 19)))
    (net (code 61) (name /P021)
      (node (ref P001-P037) (pin 21))
      (node (ref U1) (pin 21)))
    (net (code 62) (name /P023)
      (node (ref U1) (pin 23))
      (node (ref P001-P037) (pin 23)))
    (net (code 63) (name /P025)
      (node (ref P001-P037) (pin 25))
      (node (ref U1) (pin 25)))
    (net (code 64) (name /P027)
      (node (ref U1) (pin 27))
      (node (ref P001-P037) (pin 27)))
    (net (code 65) (name /P029)
      (node (ref U1) (pin 29))
      (node (ref P001-P037) (pin 29)))
    (net (code 66) (name /P024)
      (node (ref P001-P037) (pin 24))
      (node (ref U1) (pin 24)))
    (net (code 67) (name /P012)
      (node (ref U1) (pin 12))
      (node (ref P001-P037) (pin 12)))
    (net (code 68) (name /P014)
      (node (ref P001-P037) (pin 14))
      (node (ref U1) (pin 14)))
    (net (code 69) (name /P016)
      (node (ref U1) (pin 16))
      (node (ref P001-P037) (pin 16)))
    (net (code 70) (name /P018)
      (node (ref P001-P037) (pin 18))
      (node (ref U1) (pin 18)))
    (net (code 71) (name /P020)
      (node (ref U1) (pin 20))
      (node (ref P001-P037) (pin 20)))
    (net (code 72) (name /P022)
      (node (ref P001-P037) (pin 22))
      (node (ref U1) (pin 22)))
    (net (code 73) (name /P026)
      (node (ref U1) (pin 26))
      (node (ref P001-P037) (pin 26)))
    (net (code 74) (name /P028)
      (node (ref P001-P037) (pin 28))
      (node (ref U1) (pin 28)))
    (net (code 75) (name /P030)
      (node (ref U1) (pin 30))
      (node (ref P001-P037) (pin 30)))
    (net (code 76) (name /P032)
      (node (ref P001-P037) (pin 32))
      (node (ref U1) (pin 32)))
    (net (code 77) (name /P034)
      (node (ref U1) (pin 34))
      (node (ref P001-P037) (pin 34)))
    (net (code 78) (name /P002)
      (node (ref P001-P037) (pin 2))
      (node (ref U1) (pin 2)))
    (net (code 79) (name /P055)
      (node (ref P038-P074) (pin 18))
      (node (ref U1) (pin 55)))
    (net (code 80) (name /P057)
      (node (ref U1) (pin 57))
      (node (ref P038-P074) (pin 20)))
    (net (code 81) (name /P059)
      (node (ref U1) (pin 59))
      (node (ref P038-P074) (pin 22)))
    (net (code 82) (name /P061)
      (node (ref U1) (pin 61))
      (node (ref P038-P074) (pin 24)))
    (net (code 83) (name /P063)
      (node (ref U1) (pin 63))
      (node (ref P038-P074) (pin 26)))
    (net (code 84) (name /P077)
      (node (ref U1) (pin 77))
      (node (ref P075-P111) (pin 3)))
    (net (code 85) (name /P004)
      (node (ref P001-P037) (pin 4))
      (node (ref U1) (pin 4)))
    (net (code 86) (name /P006)
      (node (ref U1) (pin 6))
      (node (ref P001-P037) (pin 6)))
    (net (code 87) (name /P008)
      (node (ref U1) (pin 8))
      (node (ref P001-P037) (pin 8)))
    (net (code 88) (name /P010)
      (node (ref U1) (pin 10))
      (node (ref P001-P037) (pin 10)))
    (net (code 89) (name "Net-(P075-P111-PadSA)")
      (node (ref P075-P111) (pin SA)))
    (net (code 90) (name "Net-(P075-P111-PadSB)")
      (node (ref P075-P111) (pin SB)))
    (net (code 91) (name "Net-(P038-P074-PadSB)")
      (node (ref P038-P074) (pin SB)))
    (net (code 92) (name "Net-(P038-P074-PadSA)")
      (node (ref P038-P074) (pin SA)))
    (net (code 93) (name /P111)
      (node (ref U1) (pin 111))
      (node (ref P075-P111) (pin 37)))
    (net (code 94) (name /P101)
      (node (ref P075-P111) (pin 27))
      (node (ref U1) (pin 101)))
    (net (code 95) (name /P103)
      (node (ref U1) (pin 103))
      (node (ref P075-P111) (pin 29)))
    (net (code 96) (name /P105)
      (node (ref P075-P111) (pin 31))
      (node (ref U1) (pin 105)))
    (net (code 97) (name /P107)
      (node (ref U1) (pin 107))
      (node (ref P075-P111) (pin 33)))
    (net (code 98) (name /P109)
      (node (ref U1) (pin 109))
      (node (ref P075-P111) (pin 35)))
    (net (code 99) (name /P108)
      (node (ref U1) (pin 108))
      (node (ref P075-P111) (pin 34)))
    (net (code 100) (name /P106)
      (node (ref P075-P111) (pin 32))
      (node (ref U1) (pin 106)))
    (net (code 101) (name /P104)
      (node (ref P075-P111) (pin 30))
      (node (ref U1) (pin 104)))
    (net (code 102) (name /P102)
      (node (ref U1) (pin 102))
      (node (ref P075-P111) (pin 28)))
    (net (code 103) (name /P110)
      (node (ref U1) (pin 110))
      (node (ref P075-P111) (pin 36)))
    (net (code 104) (name /P075)
      (node (ref P075-P111) (pin 1))
      (node (ref U1) (pin 75)))
    (net (code 105) (name /P073)
      (node (ref P038-P074) (pin 36))
      (node (ref U1) (pin 73)))
    (net (code 106) (name /P071)
      (node (ref P038-P074) (pin 34))
      (node (ref U1) (pin 71)))
    (net (code 107) (name /P069)
      (node (ref U1) (pin 69))
      (node (ref P038-P074) (pin 32)))
    (net (code 108) (name /P067)
      (node (ref P038-P074) (pin 30))
      (node (ref U1) (pin 67)))
    (net (code 109) (name /P065)
      (node (ref P038-P074) (pin 28))
      (node (ref U1) (pin 65)))
    (net (code 110) (name /P099)
      (node (ref P075-P111) (pin 25))
      (node (ref U1) (pin 99)))
    (net (code 111) (name "Net-(P001-P037-PadSA)")
      (node (ref P001-P037) (pin SA)))
    (net (code 112) (name "Net-(P001-P037-PadSB)")
      (node (ref P001-P037) (pin SB)))
    (net (code 113) (name /P009)
      (node (ref P001-P037) (pin 9))
      (node (ref U1) (pin 9)))
    (net (code 114) (name "Net-(U1-Pad114)")
      (node (ref U1) (pin 114)))
    (net (code 115) (name "Net-(U1-Pad124)")
      (node (ref U1) (pin 124)))
    (net (code 116) (name "Net-(U1-Pad115)")
      (node (ref U1) (pin 115)))
    (net (code 117) (name "Net-(U1-Pad125)")
      (node (ref U1) (pin 125)))
    (net (code 118) (name "Net-(U1-Pad116)")
      (node (ref U1) (pin 116)))
    (net (code 119) (name "Net-(U1-Pad126)")
      (node (ref U1) (pin 126)))
    (net (code 120) (name "Net-(U1-Pad117)")
      (node (ref U1) (pin 117)))
    (net (code 121) (name "Net-(U1-Pad127)")
      (node (ref U1) (pin 127)))
    (net (code 122) (name "Net-(U1-Pad118)")
      (node (ref U1) (pin 118)))
    (net (code 123) (name "Net-(U1-Pad128)")
      (node (ref U1) (pin 128)))
    (net (code 124) (name "Net-(U1-Pad119)")
      (node (ref U1) (pin 119)))
    (net (code 125) (name "Net-(U1-Pad113)")
      (node (ref U1) (pin 113)))
    (net (code 126) (name "Net-(U1-Pad121)")
      (node (ref U1) (pin 121)))
    (net (code 127) (name "Net-(U1-Pad120)")
      (node (ref U1) (pin 120)))
    (net (code 128) (name "Net-(U1-Pad112)")
      (node (ref U1) (pin 112)))
    (net (code 129) (name "Net-(U1-Pad122)")
      (node (ref U1) (pin 122)))
    (net (code 130) (name "Net-(U1-Pad123)")
      (node (ref U1) (pin 123)))
    (net (code 131) (name /P001)
      (node (ref P001-P037) (pin 1))
      (node (ref U1) (pin 1)))
    (net (code 132) (name /P003)
      (node (ref U1) (pin 3))
      (node (ref P001-P037) (pin 3)))
    (net (code 133) (name /P005)
      (node (ref P001-P037) (pin 5))
      (node (ref U1) (pin 5)))
    (net (code 134) (name /P007)
      (node (ref P001-P037) (pin 7))
      (node (ref U1) (pin 7)))))