G04 #@! TF.FileFunction,Copper,L2,Bot,Signal*
%FSLAX46Y46*%
G04 Gerber Fmt 4.6, Leading zero omitted, Abs format (unit mm)*
G04 Created by KiCad (PCBNEW 4.0.2+e4-6225~38~ubuntu14.04.1-stable) date Fri 12 Aug 2016 10:09:30 AM PDT*
%MOMM*%
G01*
G04 APERTURE LIST*
%ADD10C,0.100000*%
%ADD11R,1.778000X1.778000*%
%ADD12C,1.778000*%
%ADD13R,1.270000X1.270000*%
%ADD14C,3.708400*%
%ADD15C,1.270000*%
%ADD16C,0.762000*%
%ADD17C,0.152400*%
G04 APERTURE END LIST*
D10*
D11*
X127000000Y-127000000D03*
D12*
X124460000Y-127000000D03*
X127000000Y-124460000D03*
X124460000Y-124460000D03*
X127000000Y-121920000D03*
X124460000Y-121920000D03*
X127000000Y-119380000D03*
X124460000Y-119380000D03*
X127000000Y-116840000D03*
X124460000Y-116840000D03*
X127000000Y-114300000D03*
X124460000Y-114300000D03*
X127000000Y-111760000D03*
X124460000Y-111760000D03*
X127000000Y-109220000D03*
X124460000Y-109220000D03*
X127000000Y-106680000D03*
X124460000Y-106680000D03*
X127000000Y-104140000D03*
X124460000Y-104140000D03*
X127000000Y-101600000D03*
X124460000Y-101600000D03*
X127000000Y-99060000D03*
X124460000Y-99060000D03*
X127000000Y-96520000D03*
X124460000Y-96520000D03*
X127000000Y-93980000D03*
X124460000Y-93980000D03*
X127000000Y-91440000D03*
X124460000Y-91440000D03*
X127000000Y-88900000D03*
X124460000Y-88900000D03*
X127000000Y-86360000D03*
X124460000Y-86360000D03*
X127000000Y-83820000D03*
X124460000Y-83820000D03*
X127000000Y-81280000D03*
X124460000Y-81280000D03*
X127000000Y-78740000D03*
X124460000Y-78740000D03*
X127000000Y-76200000D03*
X124460000Y-76200000D03*
X127000000Y-73660000D03*
X124460000Y-73660000D03*
X127000000Y-71120000D03*
X124460000Y-71120000D03*
X127000000Y-68580000D03*
X124460000Y-68580000D03*
X127000000Y-66040000D03*
X124460000Y-66040000D03*
X127000000Y-63500000D03*
X124460000Y-63500000D03*
X127000000Y-60960000D03*
X124460000Y-60960000D03*
X127000000Y-58420000D03*
X124460000Y-58420000D03*
X127000000Y-55880000D03*
X124460000Y-55880000D03*
X127000000Y-53340000D03*
X124460000Y-53340000D03*
X127000000Y-50800000D03*
X124460000Y-50800000D03*
X127000000Y-48260000D03*
X124460000Y-48260000D03*
X58420000Y-48260000D03*
X60960000Y-48260000D03*
X58420000Y-50800000D03*
X60960000Y-50800000D03*
X58420000Y-53340000D03*
X60960000Y-53340000D03*
X58420000Y-55880000D03*
X60960000Y-55880000D03*
X58420000Y-58420000D03*
X60960000Y-58420000D03*
X58420000Y-60960000D03*
X60960000Y-60960000D03*
X58420000Y-63500000D03*
X60960000Y-63500000D03*
X58420000Y-66040000D03*
X60960000Y-66040000D03*
X58420000Y-68580000D03*
X60960000Y-68580000D03*
X58420000Y-71120000D03*
X60960000Y-71120000D03*
X58420000Y-73660000D03*
X60960000Y-73660000D03*
X58420000Y-76200000D03*
X60960000Y-76200000D03*
X58420000Y-78740000D03*
X60960000Y-78740000D03*
X58420000Y-81280000D03*
X60960000Y-81280000D03*
X58420000Y-83820000D03*
X60960000Y-83820000D03*
X58420000Y-86360000D03*
X60960000Y-86360000D03*
X58420000Y-88900000D03*
X60960000Y-88900000D03*
X58420000Y-91440000D03*
X60960000Y-91440000D03*
X58420000Y-93980000D03*
X60960000Y-93980000D03*
X58420000Y-96520000D03*
X60960000Y-96520000D03*
X58420000Y-99060000D03*
X60960000Y-99060000D03*
X58420000Y-101600000D03*
X60960000Y-101600000D03*
X58420000Y-104140000D03*
X60960000Y-104140000D03*
X58420000Y-106680000D03*
X60960000Y-106680000D03*
X58420000Y-109220000D03*
X60960000Y-109220000D03*
X58420000Y-111760000D03*
X60960000Y-111760000D03*
X58420000Y-114300000D03*
X60960000Y-114300000D03*
X58420000Y-116840000D03*
X60960000Y-116840000D03*
X58420000Y-119380000D03*
X60960000Y-119380000D03*
X58420000Y-121920000D03*
X60960000Y-121920000D03*
X58420000Y-124460000D03*
X60960000Y-124460000D03*
X58420000Y-127000000D03*
X60960000Y-127000000D03*
D13*
X101600000Y-104140000D03*
D14*
X101600000Y-108762800D03*
X101600000Y-76631800D03*
D15*
X103505000Y-103187500D03*
X103505000Y-101282500D03*
X101600000Y-100330000D03*
X103505000Y-99377500D03*
X103505000Y-97472500D03*
X101600000Y-96520000D03*
X103505000Y-95567500D03*
X103505000Y-93662500D03*
X101600000Y-92710000D03*
X103505000Y-91757500D03*
X103505000Y-89852500D03*
X101600000Y-88900000D03*
X103505000Y-87947500D03*
X103505000Y-86042500D03*
X101600000Y-85090000D03*
X103505000Y-84137500D03*
X103505000Y-82232500D03*
X101600000Y-81280000D03*
X99695000Y-103187500D03*
X101600000Y-102235000D03*
X99695000Y-101282500D03*
X99695000Y-99377500D03*
X101600000Y-98425000D03*
X99695000Y-97472500D03*
X99695000Y-95567500D03*
X101600000Y-94615000D03*
X99695000Y-93662500D03*
X99695000Y-91757500D03*
X101600000Y-90805000D03*
X99695000Y-89852500D03*
X99695000Y-87947500D03*
X101600000Y-86995000D03*
X99695000Y-86042500D03*
X99695000Y-84137500D03*
X101600000Y-83185000D03*
X99695000Y-82232500D03*
D13*
X104140000Y-63500000D03*
D14*
X108762800Y-63500000D03*
X76631800Y-63500000D03*
D15*
X103187500Y-61595000D03*
X101282500Y-61595000D03*
X100330000Y-63500000D03*
X99377500Y-61595000D03*
X97472500Y-61595000D03*
X96520000Y-63500000D03*
X95567500Y-61595000D03*
X93662500Y-61595000D03*
X92710000Y-63500000D03*
X91757500Y-61595000D03*
X89852500Y-61595000D03*
X88900000Y-63500000D03*
X87947500Y-61595000D03*
X86042500Y-61595000D03*
X85090000Y-63500000D03*
X84137500Y-61595000D03*
X82232500Y-61595000D03*
X81280000Y-63500000D03*
X103187500Y-65405000D03*
X102235000Y-63500000D03*
X101282500Y-65405000D03*
X99377500Y-65405000D03*
X98425000Y-63500000D03*
X97472500Y-65405000D03*
X95567500Y-65405000D03*
X94615000Y-63500000D03*
X93662500Y-65405000D03*
X91757500Y-65405000D03*
X90805000Y-63500000D03*
X89852500Y-65405000D03*
X87947500Y-65405000D03*
X86995000Y-63500000D03*
X86042500Y-65405000D03*
X84137500Y-65405000D03*
X83185000Y-63500000D03*
X82232500Y-65405000D03*
D13*
X83820000Y-81280000D03*
D14*
X83820000Y-76657200D03*
X83820000Y-108788200D03*
D15*
X81915000Y-82232500D03*
X81915000Y-84137500D03*
X83820000Y-85090000D03*
X81915000Y-86042500D03*
X81915000Y-87947500D03*
X83820000Y-88900000D03*
X81915000Y-89852500D03*
X81915000Y-91757500D03*
X83820000Y-92710000D03*
X81915000Y-93662500D03*
X81915000Y-95567500D03*
X83820000Y-96520000D03*
X81915000Y-97472500D03*
X81915000Y-99377500D03*
X83820000Y-100330000D03*
X81915000Y-101282500D03*
X81915000Y-103187500D03*
X83820000Y-104140000D03*
X85725000Y-82232500D03*
X83820000Y-83185000D03*
X85725000Y-84137500D03*
X85725000Y-86042500D03*
X83820000Y-86995000D03*
X85725000Y-87947500D03*
X85725000Y-89852500D03*
X83820000Y-90805000D03*
X85725000Y-91757500D03*
X85725000Y-93662500D03*
X83820000Y-94615000D03*
X85725000Y-95567500D03*
X85725000Y-97472500D03*
X83820000Y-98425000D03*
X85725000Y-99377500D03*
X85725000Y-101282500D03*
X83820000Y-102235000D03*
X85725000Y-103187500D03*
D16*
X104851200Y-65836800D03*
D17*
X99695000Y-103187500D02*
X100329999Y-103822499D01*
X100329999Y-103822499D02*
X100329999Y-104742767D01*
X100329999Y-104742767D02*
X100830004Y-105242772D01*
X100830004Y-105242772D02*
X122099993Y-105242772D01*
X122099993Y-105242772D02*
X123202765Y-104140000D01*
X123202765Y-104140000D02*
X124460000Y-104140000D01*
X101600000Y-102235000D02*
X102543543Y-103178543D01*
X122614180Y-104140000D02*
X123890436Y-102863744D01*
X102543543Y-103178543D02*
X102543543Y-103618017D01*
X102543543Y-103618017D02*
X103065526Y-104140000D01*
X123890436Y-102863744D02*
X125736256Y-102863744D01*
X103065526Y-104140000D02*
X122614180Y-104140000D01*
X125736256Y-102863744D02*
X126111001Y-102488999D01*
X126111001Y-102488999D02*
X127000000Y-101600000D01*
X99695000Y-101282500D02*
X102108012Y-101282500D01*
X102108012Y-101282500D02*
X103067371Y-102241859D01*
X103067371Y-102241859D02*
X122560906Y-102241859D01*
X122560906Y-102241859D02*
X123202765Y-101600000D01*
X123202765Y-101600000D02*
X124460000Y-101600000D01*
X99695000Y-99377500D02*
X102111877Y-99377500D01*
X125727006Y-100332994D02*
X126111001Y-99948999D01*
X102111877Y-99377500D02*
X103067371Y-100332994D01*
X103067371Y-100332994D02*
X125727006Y-100332994D01*
X126111001Y-99948999D02*
X127000000Y-99060000D01*
X101600000Y-98425000D02*
X123825000Y-98425000D01*
X123825000Y-98425000D02*
X124460000Y-99060000D01*
X99695000Y-97472500D02*
X102083501Y-97472500D01*
X102083501Y-97472500D02*
X103049615Y-96506386D01*
X103049615Y-96506386D02*
X122611666Y-96506386D01*
X122611666Y-96506386D02*
X123880575Y-97775295D01*
X123880575Y-97775295D02*
X125744705Y-97775295D01*
X125744705Y-97775295D02*
X126111001Y-97408999D01*
X126111001Y-97408999D02*
X127000000Y-96520000D01*
X99695000Y-91757500D02*
X100329999Y-92392499D01*
X123850991Y-92667123D02*
X125772877Y-92667123D01*
X100329999Y-92392499D02*
X100329999Y-92801265D01*
X100329999Y-92801265D02*
X101176263Y-93647529D01*
X101176263Y-93647529D02*
X101975323Y-93647529D01*
X126111001Y-92328999D02*
X127000000Y-91440000D01*
X101975323Y-93647529D02*
X102960830Y-94633036D01*
X102960830Y-94633036D02*
X121885078Y-94633036D01*
X121885078Y-94633036D02*
X123850991Y-92667123D01*
X125772877Y-92667123D02*
X126111001Y-92328999D01*
X101600000Y-90805000D02*
X102234999Y-91439999D01*
X102234999Y-91439999D02*
X102234999Y-91971704D01*
X102234999Y-91971704D02*
X102978587Y-92715292D01*
X102978587Y-92715292D02*
X123184708Y-92715292D01*
X123184708Y-92715292D02*
X123571001Y-92328999D01*
X123571001Y-92328999D02*
X124460000Y-91440000D01*
X99695000Y-89852500D02*
X102226870Y-89852500D01*
X125747517Y-90152483D02*
X126111001Y-89788999D01*
X102226870Y-89852500D02*
X103154162Y-90779792D01*
X123690115Y-90152483D02*
X125747517Y-90152483D01*
X103154162Y-90779792D02*
X123062806Y-90779792D01*
X123062806Y-90779792D02*
X123690115Y-90152483D01*
X126111001Y-89788999D02*
X127000000Y-88900000D01*
X99695000Y-87947500D02*
X101925630Y-87947500D01*
X101925630Y-87947500D02*
X102878130Y-88900000D01*
X102878130Y-88900000D02*
X123202765Y-88900000D01*
X123202765Y-88900000D02*
X124460000Y-88900000D01*
X101600000Y-86995000D02*
X123168704Y-86995000D01*
X123168704Y-86995000D02*
X123781962Y-87608258D01*
X125751742Y-87608258D02*
X126111001Y-87248999D01*
X123781962Y-87608258D02*
X125751742Y-87608258D01*
X126111001Y-87248999D02*
X127000000Y-86360000D01*
X99695000Y-86042500D02*
X101925630Y-86042500D01*
X101925630Y-86042500D02*
X102888296Y-85079834D01*
X102888296Y-85079834D02*
X123179834Y-85079834D01*
X123179834Y-85079834D02*
X123571001Y-85471001D01*
X123571001Y-85471001D02*
X124460000Y-86360000D01*
X99695000Y-84137500D02*
X102074204Y-84137500D01*
X125765828Y-85054172D02*
X126111001Y-84708999D01*
X102074204Y-84137500D02*
X102996343Y-83215361D01*
X102996343Y-83215361D02*
X121992458Y-83215361D01*
X121992458Y-83215361D02*
X123831269Y-85054172D01*
X123831269Y-85054172D02*
X125765828Y-85054172D01*
X126111001Y-84708999D02*
X127000000Y-83820000D01*
X101600000Y-83185000D02*
X102499151Y-82285849D01*
X102499151Y-82285849D02*
X102499151Y-81785932D01*
X103085128Y-81199955D02*
X121839955Y-81199955D01*
X102499151Y-81785932D02*
X103085128Y-81199955D01*
X121839955Y-81199955D02*
X123571001Y-82931001D01*
X123571001Y-82931001D02*
X124460000Y-83820000D01*
X99695000Y-82232500D02*
X100329999Y-81597501D01*
X100329999Y-81597501D02*
X100329999Y-80954172D01*
X100329999Y-80954172D02*
X101121772Y-80162399D01*
X101121772Y-80162399D02*
X121473859Y-80162399D01*
X121473859Y-80162399D02*
X123850992Y-82539532D01*
X125740468Y-82539532D02*
X126111001Y-82168999D01*
X126111001Y-82168999D02*
X127000000Y-81280000D01*
X123850992Y-82539532D02*
X125740468Y-82539532D01*
X104140000Y-63500000D02*
X104140000Y-62712600D01*
X104140000Y-62712600D02*
X106532803Y-60319797D01*
X106532803Y-60319797D02*
X115577275Y-60319797D01*
X115577275Y-60319797D02*
X118363131Y-63105653D01*
X118363131Y-63105653D02*
X118363131Y-75183131D01*
X118363131Y-75183131D02*
X124460000Y-81280000D01*
X103187500Y-61595000D02*
X104767513Y-60014987D01*
X104767513Y-60014987D02*
X115703531Y-60014987D01*
X115703531Y-60014987D02*
X118668670Y-62980126D01*
X118668670Y-62980126D02*
X118668670Y-74714373D01*
X118668670Y-74714373D02*
X123979188Y-80024891D01*
X125715109Y-80024891D02*
X126111001Y-79628999D01*
X123979188Y-80024891D02*
X125715109Y-80024891D01*
X126111001Y-79628999D02*
X127000000Y-78740000D01*
X115829787Y-59710177D02*
X118973480Y-62853870D01*
X118973480Y-62853870D02*
X118973480Y-73253480D01*
X118973480Y-73253480D02*
X123571001Y-77851001D01*
X123571001Y-77851001D02*
X124460000Y-78740000D01*
X103167323Y-59710177D02*
X115829787Y-59710177D01*
X101282500Y-61595000D02*
X103167323Y-59710177D01*
X100330000Y-63500000D02*
X100330000Y-61103500D01*
X100330000Y-61103500D02*
X102028133Y-59405367D01*
X115956043Y-59405367D02*
X119278290Y-62727614D01*
X102028133Y-59405367D02*
X115956043Y-59405367D01*
X119278290Y-62727614D02*
X119278290Y-72977138D01*
X119278290Y-72977138D02*
X123762096Y-77460944D01*
X123762096Y-77460944D02*
X125739056Y-77460944D01*
X125739056Y-77460944D02*
X126111001Y-77088999D01*
X126111001Y-77088999D02*
X127000000Y-76200000D01*
X119583100Y-62601358D02*
X119583100Y-71323100D01*
X119583100Y-71323100D02*
X124460000Y-76200000D01*
X99377500Y-61595000D02*
X101871943Y-59100557D01*
X101871943Y-59100557D02*
X116082299Y-59100557D01*
X116082299Y-59100557D02*
X119583100Y-62601358D01*
X97472500Y-61595000D02*
X100286586Y-58780914D01*
X100286586Y-58780914D02*
X116193722Y-58780914D01*
X116193722Y-58780914D02*
X119887910Y-62475102D01*
X119887910Y-62475102D02*
X119887910Y-71046758D01*
X119887910Y-71046758D02*
X123787908Y-74946756D01*
X123787908Y-74946756D02*
X125713244Y-74946756D01*
X125713244Y-74946756D02*
X126111001Y-74548999D01*
X126111001Y-74548999D02*
X127000000Y-73660000D01*
X123571001Y-72771001D02*
X124460000Y-73660000D01*
X99318590Y-58470780D02*
X116314655Y-58470780D01*
X120192721Y-69392721D02*
X123571001Y-72771001D01*
X116314655Y-58470780D02*
X120192721Y-62348846D01*
X96520000Y-61269370D02*
X99318590Y-58470780D01*
X96520000Y-63500000D02*
X96520000Y-61269370D01*
X120192721Y-62348846D02*
X120192721Y-69392721D01*
X95567500Y-61595000D02*
X98996531Y-58165969D01*
X120497532Y-62222590D02*
X120497532Y-68989452D01*
X120497532Y-68989452D02*
X123884326Y-72376246D01*
X98996531Y-58165969D02*
X116440911Y-58165969D01*
X116440911Y-58165969D02*
X120497532Y-62222590D01*
X123884326Y-72376246D02*
X125743754Y-72376246D01*
X125743754Y-72376246D02*
X126111001Y-72008999D01*
X126111001Y-72008999D02*
X127000000Y-71120000D01*
X120802343Y-67462343D02*
X123571001Y-70231001D01*
X93662500Y-61595000D02*
X97396342Y-57861158D01*
X97396342Y-57861158D02*
X116567167Y-57861158D01*
X116567167Y-57861158D02*
X120802343Y-62096334D01*
X120802343Y-62096334D02*
X120802343Y-67462343D01*
X123571001Y-70231001D02*
X124460000Y-71120000D01*
X92710000Y-63500000D02*
X92710000Y-61269370D01*
X121107154Y-61970078D02*
X121107154Y-67035126D01*
X92710000Y-61269370D02*
X96423023Y-57556347D01*
X123920021Y-69847993D02*
X125732007Y-69847993D01*
X96423023Y-57556347D02*
X116693423Y-57556347D01*
X116693423Y-57556347D02*
X121107154Y-61970078D01*
X121107154Y-67035126D02*
X123920021Y-69847993D01*
X125732007Y-69847993D02*
X126111001Y-69468999D01*
X126111001Y-69468999D02*
X127000000Y-68580000D01*
X96100964Y-57251536D02*
X116819679Y-57251536D01*
X116819679Y-57251536D02*
X121411965Y-61843822D01*
X123571001Y-67691001D02*
X124460000Y-68580000D01*
X91757500Y-61595000D02*
X96100964Y-57251536D01*
X121411965Y-61843822D02*
X121411965Y-65531965D01*
X121411965Y-65531965D02*
X123571001Y-67691001D01*
X89852500Y-61595000D02*
X94500775Y-56946725D01*
X126111001Y-66928999D02*
X127000000Y-66040000D01*
X94500775Y-56946725D02*
X116945935Y-56946725D01*
X116945935Y-56946725D02*
X121716776Y-61717566D01*
X121716776Y-61717566D02*
X121716776Y-65159692D01*
X121716776Y-65159692D02*
X123821407Y-67264323D01*
X123821407Y-67264323D02*
X125775677Y-67264323D01*
X125775677Y-67264323D02*
X126111001Y-66928999D01*
X88900000Y-63500000D02*
X88900000Y-61269370D01*
X122021587Y-61591310D02*
X122021587Y-63601587D01*
X122021587Y-63601587D02*
X123571001Y-65151001D01*
X117072191Y-56641914D02*
X122021587Y-61591310D01*
X93527456Y-56641914D02*
X117072191Y-56641914D01*
X88900000Y-61269370D02*
X93527456Y-56641914D01*
X123571001Y-65151001D02*
X124460000Y-66040000D01*
X87947500Y-61595000D02*
X93205397Y-56337103D01*
X117198447Y-56337103D02*
X122326398Y-61465054D01*
X93205397Y-56337103D02*
X117198447Y-56337103D01*
X122326398Y-61465054D02*
X122326398Y-63215228D01*
X122326398Y-63215228D02*
X123900298Y-64789128D01*
X123900298Y-64789128D02*
X125710872Y-64789128D01*
X125710872Y-64789128D02*
X126111001Y-64388999D01*
X126111001Y-64388999D02*
X127000000Y-63500000D01*
X86042500Y-61595000D02*
X91605208Y-56032292D01*
X117324703Y-56032292D02*
X123571001Y-62278590D01*
X123571001Y-62611001D02*
X124460000Y-63500000D01*
X91605208Y-56032292D02*
X117324703Y-56032292D01*
X123571001Y-62278590D02*
X123571001Y-62611001D01*
X85090000Y-63500000D02*
X85090000Y-61073566D01*
X125744681Y-62215319D02*
X126111001Y-61848999D01*
X85090000Y-61073566D02*
X90436085Y-55727481D01*
X90436085Y-55727481D02*
X117450959Y-55727481D01*
X117450959Y-55727481D02*
X123938797Y-62215319D01*
X123938797Y-62215319D02*
X125744681Y-62215319D01*
X126111001Y-61848999D02*
X127000000Y-60960000D01*
X123202765Y-60960000D02*
X124460000Y-60960000D01*
X117577215Y-55422670D02*
X123114545Y-60960000D01*
X84137500Y-61595000D02*
X90309830Y-55422670D01*
X90309830Y-55422670D02*
X117577215Y-55422670D01*
X123114545Y-60960000D02*
X123202765Y-60960000D01*
X82232500Y-61595000D02*
X88709641Y-55117859D01*
X88709641Y-55117859D02*
X117703470Y-55117859D01*
X117703470Y-55117859D02*
X122256706Y-59671095D01*
X122256706Y-59671095D02*
X125748905Y-59671095D01*
X125748905Y-59671095D02*
X126111001Y-59308999D01*
X126111001Y-59308999D02*
X127000000Y-58420000D01*
X81280000Y-63500000D02*
X81280000Y-61269370D01*
X87736322Y-54813048D02*
X117867614Y-54813048D01*
X81280000Y-61269370D02*
X87736322Y-54813048D01*
X117867614Y-54813048D02*
X121476578Y-58422012D01*
X121476578Y-58422012D02*
X124457988Y-58422012D01*
X124457988Y-58422012D02*
X124460000Y-58420000D01*
X102235000Y-63500000D02*
X103180208Y-64445208D01*
X103180208Y-64445208D02*
X103459608Y-64445208D01*
X103459608Y-64445208D02*
X104851200Y-65836800D01*
X95567500Y-65405000D02*
X95567500Y-66303025D01*
X72999590Y-65353456D02*
X72999591Y-54890143D01*
X95567500Y-66303025D02*
X93849315Y-68021210D01*
X93849315Y-68021210D02*
X75667343Y-68021209D01*
X75667343Y-68021209D02*
X72999590Y-65353456D01*
X123880576Y-46979556D02*
X125719556Y-46979556D01*
X72999591Y-54890143D02*
X79934544Y-47955190D01*
X79934544Y-47955190D02*
X122904942Y-47955190D01*
X122904942Y-47955190D02*
X123880576Y-46979556D01*
X125719556Y-46979556D02*
X126111001Y-47371001D01*
X126111001Y-47371001D02*
X127000000Y-48260000D01*
X73304400Y-55016400D02*
X80060800Y-48260000D01*
X80060800Y-48260000D02*
X124460000Y-48260000D01*
X73304400Y-65227200D02*
X73304400Y-55016400D01*
X75793600Y-67716400D02*
X73304400Y-65227200D01*
X92629230Y-67716400D02*
X75793600Y-67716400D01*
X94615000Y-63500000D02*
X94615000Y-65730630D01*
X94615000Y-65730630D02*
X92629230Y-67716400D01*
X85725000Y-82232500D02*
X85725000Y-81334475D01*
X85725000Y-81334475D02*
X84610031Y-80219506D01*
X84610031Y-80219506D02*
X64560494Y-80219506D01*
X64560494Y-80219506D02*
X61848999Y-82931001D01*
X61848999Y-82931001D02*
X60960000Y-83820000D01*
X83820000Y-83185000D02*
X82867003Y-82232003D01*
X82867003Y-82232003D02*
X82867003Y-81742113D01*
X82867003Y-81742113D02*
X82420371Y-81295481D01*
X82420371Y-81295481D02*
X65138569Y-81295481D01*
X65138569Y-81295481D02*
X61325107Y-85108943D01*
X61325107Y-85108943D02*
X59671057Y-85108943D01*
X59671057Y-85108943D02*
X59308999Y-85471001D01*
X59308999Y-85471001D02*
X58420000Y-86360000D01*
X85725000Y-84137500D02*
X83323604Y-84137500D01*
X83323604Y-84137500D02*
X82379769Y-83193665D01*
X82379769Y-83193665D02*
X64126335Y-83193665D01*
X61848999Y-85471001D02*
X60960000Y-86360000D01*
X64126335Y-83193665D02*
X61848999Y-85471001D01*
X85725000Y-86042500D02*
X83310119Y-86042500D01*
X83310119Y-86042500D02*
X82359467Y-85091848D01*
X82359467Y-85091848D02*
X64187000Y-85091848D01*
X64187000Y-85091848D02*
X61634290Y-87644558D01*
X61634290Y-87644558D02*
X59675442Y-87644558D01*
X59675442Y-87644558D02*
X59308999Y-88011001D01*
X59308999Y-88011001D02*
X58420000Y-88900000D01*
X83820000Y-86995000D02*
X62865000Y-86995000D01*
X62865000Y-86995000D02*
X60960000Y-88900000D01*
X85725000Y-87947500D02*
X83350936Y-87947500D01*
X83350936Y-87947500D02*
X82400070Y-88898366D01*
X82400070Y-88898366D02*
X62795573Y-88898366D01*
X59695479Y-90164521D02*
X59308999Y-90551001D01*
X62795573Y-88898366D02*
X61529418Y-90164521D01*
X61529418Y-90164521D02*
X59695479Y-90164521D01*
X59308999Y-90551001D02*
X58420000Y-91440000D01*
X85725000Y-89852500D02*
X83313667Y-89852500D01*
X83313667Y-89852500D02*
X82369617Y-90796550D01*
X82369617Y-90796550D02*
X62860685Y-90796550D01*
X62860685Y-90796550D02*
X62217235Y-91440000D01*
X62217235Y-91440000D02*
X60960000Y-91440000D01*
X83820000Y-94615000D02*
X82907606Y-93702606D01*
X82907606Y-93702606D02*
X82907606Y-93253023D01*
X82907606Y-93253023D02*
X82379768Y-92725185D01*
X61848999Y-95631001D02*
X60960000Y-96520000D01*
X82379768Y-92725185D02*
X64754815Y-92725185D01*
X64754815Y-92725185D02*
X61848999Y-95631001D01*
X85725000Y-95567500D02*
X83303598Y-95567500D01*
X83303598Y-95567500D02*
X82349316Y-94613218D01*
X82349316Y-94613218D02*
X64975716Y-94613218D01*
X64975716Y-94613218D02*
X61778437Y-97810497D01*
X59669503Y-97810497D02*
X59308999Y-98171001D01*
X59308999Y-98171001D02*
X58420000Y-99060000D01*
X61778437Y-97810497D02*
X59669503Y-97810497D01*
X85725000Y-97472500D02*
X83290114Y-97472500D01*
X83290114Y-97472500D02*
X82329016Y-96511402D01*
X82329016Y-96511402D02*
X63508598Y-96511402D01*
X63508598Y-96511402D02*
X61848999Y-98171001D01*
X61848999Y-98171001D02*
X60960000Y-99060000D01*
X83820000Y-98425000D02*
X63364444Y-98425000D01*
X63364444Y-98425000D02*
X61419854Y-100369590D01*
X61419854Y-100369590D02*
X59650410Y-100369590D01*
X59650410Y-100369590D02*
X59308999Y-100711001D01*
X59308999Y-100711001D02*
X58420000Y-101600000D01*
X85725000Y-99377500D02*
X83279585Y-99377500D01*
X62221779Y-100338221D02*
X61848999Y-100711001D01*
X83279585Y-99377500D02*
X82318864Y-100338221D01*
X82318864Y-100338221D02*
X62221779Y-100338221D01*
X61848999Y-100711001D02*
X60960000Y-101600000D01*
X85725000Y-101282500D02*
X83394577Y-101282500D01*
X83394577Y-101282500D02*
X82430522Y-102246555D01*
X82430522Y-102246555D02*
X62195894Y-102246555D01*
X62195894Y-102246555D02*
X61521592Y-102920857D01*
X61521592Y-102920857D02*
X59639143Y-102920857D01*
X59639143Y-102920857D02*
X59308999Y-103251001D01*
X59308999Y-103251001D02*
X58420000Y-104140000D01*
X83820000Y-102235000D02*
X83185001Y-102869999D01*
X83185001Y-102869999D02*
X83185001Y-103359808D01*
X83185001Y-103359808D02*
X82404809Y-104140000D01*
X82404809Y-104140000D02*
X62217235Y-104140000D01*
X62217235Y-104140000D02*
X60960000Y-104140000D01*
X85725000Y-103187500D02*
X85090001Y-103822499D01*
X85090001Y-103822499D02*
X85090001Y-104297008D01*
X83946189Y-105440820D02*
X59659180Y-105440820D01*
X85090001Y-104297008D02*
X83946189Y-105440820D01*
X59659180Y-105440820D02*
X59308999Y-105791001D01*
X59308999Y-105791001D02*
X58420000Y-106680000D01*
M02*
