M48
;DRILL file {KiCad 4.0.2+e4-6225~38~ubuntu14.04.1-stable} date Fri 12 Aug 2016 10:07:07 AM PDT
;FORMAT={-:-/ absolute / metric / decimal}
FMAT,2
METRIC,TZ
T1C0.406
T2C0.635
T3C1.016
T4C3.175
%
G90
G05
M71
T1
X66.548Y-128.016
X67.564Y-128.016
X68.58Y-128.016
X69.596Y-128.016
X70.612Y-128.016
X71.628Y-128.016
X72.644Y-128.016
X73.66Y-128.016
X74.168Y-48.26
X74.168Y-50.8
X74.168Y-52.324
X74.168Y-53.34
X74.168Y-54.864
X74.168Y-55.88
X74.168Y-57.404
X74.168Y-58.42
X74.676Y-128.016
X75.692Y-128.016
X76.708Y-128.016
X77.013Y-79.197
X77.724Y-128.016
X78.74Y-128.016
X79.756Y-128.016
X80.772Y-128.016
X81.788Y-128.016
X82.24Y-83.256
X82.804Y-128.016
X83.82Y-128.016
X84.328Y-84.836
X84.582Y-95.707
X84.836Y-128.016
X85.852Y-128.016
X86.177Y-90.749
X86.304Y-86.812
X86.868Y-128.016
X87.884Y-128.016
X88.9Y-128.016
X89.916Y-128.016
X90.703Y-71.247
X90.932Y-128.016
X91.694Y-71.247
X91.948Y-72.136
X91.948Y-128.016
X92.964Y-72.136
X94.488Y-72.136
X96.796Y-76.505
X99.06Y-78.74
X99.06Y-86.868
X99.135Y-82.371
X105.664Y-110.236
X106.375Y-86.716
X106.68Y-80.772
X106.68Y-109.22
X107.696Y-106.172
X108.204Y-105.156
X109.068Y-82.347
X109.22Y-68.58
X109.22Y-105.664
X109.728Y-104.648
X110.744Y-105.156
X111.252Y-69.596
X111.252Y-104.14
X112.268Y-62.484
X112.268Y-68.58
X112.268Y-72.136
X112.268Y-76.708
X112.268Y-78.74
X112.268Y-104.648
X112.776Y-103.632
X113.792Y-104.14
X114.3Y-103.124
X115.316Y-103.632
X115.824Y-102.616
X119.888Y-81.178
X121.107Y-81.178
T2
X87.947Y-72.695
X87.947Y-74.6
X87.947Y-76.505
X87.947Y-78.41
X87.947Y-80.315
X87.947Y-82.22
X87.947Y-84.125
X87.947Y-86.03
X87.947Y-87.935
X87.947Y-89.84
X87.947Y-91.745
X87.947Y-93.65
X87.947Y-95.555
X87.947Y-97.46
X87.947Y-99.365
X87.947Y-101.27
X87.947Y-103.175
X87.947Y-105.08
X89.852Y-73.647
X89.852Y-75.552
X89.852Y-77.457
X89.852Y-79.362
X89.852Y-81.267
X89.852Y-83.172
X89.852Y-85.077
X89.852Y-86.982
X89.852Y-88.887
X89.852Y-90.792
X89.852Y-92.697
X89.852Y-94.602
X89.852Y-96.507
X89.852Y-98.412
X89.852Y-100.317
X89.852Y-102.222
X89.852Y-104.127
X91.757Y-74.6
X91.757Y-76.505
X91.757Y-78.41
X91.757Y-80.315
X91.757Y-82.22
X91.757Y-84.125
X91.757Y-86.03
X91.757Y-87.935
X91.757Y-89.84
X91.757Y-91.745
X91.757Y-93.65
X91.757Y-95.555
X91.757Y-97.46
X91.757Y-99.365
X91.757Y-101.27
X91.757Y-103.175
X93.662Y-73.647
X93.662Y-75.552
X93.662Y-77.457
X93.662Y-79.362
X93.662Y-81.267
X93.662Y-83.172
X93.662Y-85.077
X93.662Y-86.982
X93.662Y-90.792
X93.662Y-92.697
X93.662Y-94.602
X93.662Y-96.507
X93.662Y-98.412
X93.662Y-100.317
X93.662Y-102.222
X93.662Y-104.127
X95.567Y-74.6
X95.567Y-76.505
X95.567Y-78.41
X95.567Y-80.315
X95.567Y-82.22
X95.567Y-84.125
X95.567Y-86.03
X95.567Y-87.935
X95.567Y-89.84
X95.567Y-91.745
X95.567Y-93.65
X95.567Y-95.555
X95.567Y-97.46
X95.567Y-99.365
X95.567Y-101.27
X95.567Y-103.175
X97.472Y-73.647
X97.472Y-75.552
X97.472Y-77.457
X97.472Y-79.362
X97.472Y-81.267
X97.472Y-83.172
X97.472Y-85.077
X97.472Y-86.982
X97.472Y-88.887
X97.472Y-90.792
X97.472Y-92.697
X97.472Y-94.602
X97.472Y-96.507
X97.472Y-98.412
X97.472Y-100.317
X97.472Y-102.222
X97.472Y-104.127
T3
X58.42Y-48.26
X58.42Y-50.8
X58.42Y-53.34
X58.42Y-55.88
X58.42Y-58.42
X58.42Y-60.96
X58.42Y-63.5
X58.42Y-66.04
X58.42Y-68.58
X58.42Y-71.12
X58.42Y-73.66
X58.42Y-76.2
X58.42Y-78.74
X58.42Y-81.28
X58.42Y-83.82
X58.42Y-86.36
X58.42Y-88.9
X58.42Y-91.44
X58.42Y-93.98
X58.42Y-96.52
X58.42Y-99.06
X58.42Y-101.6
X58.42Y-104.14
X58.42Y-106.68
X58.42Y-109.22
X58.42Y-111.76
X58.42Y-114.3
X58.42Y-116.84
X58.42Y-119.38
X58.42Y-121.92
X58.42Y-124.46
X58.42Y-127.
X60.96Y-48.26
X60.96Y-50.8
X60.96Y-53.34
X60.96Y-55.88
X60.96Y-58.42
X60.96Y-60.96
X60.96Y-63.5
X60.96Y-66.04
X60.96Y-68.58
X60.96Y-71.12
X60.96Y-73.66
X60.96Y-76.2
X60.96Y-78.74
X60.96Y-81.28
X60.96Y-83.82
X60.96Y-86.36
X60.96Y-88.9
X60.96Y-91.44
X60.96Y-93.98
X60.96Y-96.52
X60.96Y-99.06
X60.96Y-101.6
X60.96Y-104.14
X60.96Y-106.68
X60.96Y-109.22
X60.96Y-111.76
X60.96Y-114.3
X60.96Y-116.84
X60.96Y-119.38
X60.96Y-121.92
X60.96Y-124.46
X60.96Y-127.
X124.46Y-48.26
X124.46Y-50.8
X124.46Y-53.34
X124.46Y-55.88
X124.46Y-58.42
X124.46Y-60.96
X124.46Y-63.5
X124.46Y-66.04
X124.46Y-68.58
X124.46Y-71.12
X124.46Y-73.66
X124.46Y-76.2
X124.46Y-78.74
X124.46Y-81.28
X124.46Y-83.82
X124.46Y-86.36
X124.46Y-88.9
X124.46Y-91.44
X124.46Y-93.98
X124.46Y-96.52
X124.46Y-99.06
X124.46Y-101.6
X124.46Y-104.14
X124.46Y-106.68
X124.46Y-109.22
X124.46Y-111.76
X124.46Y-114.3
X124.46Y-116.84
X124.46Y-119.38
X124.46Y-121.92
X124.46Y-124.46
X124.46Y-127.
X127.Y-48.26
X127.Y-50.8
X127.Y-53.34
X127.Y-55.88
X127.Y-58.42
X127.Y-60.96
X127.Y-63.5
X127.Y-66.04
X127.Y-68.58
X127.Y-71.12
X127.Y-73.66
X127.Y-76.2
X127.Y-78.74
X127.Y-81.28
X127.Y-83.82
X127.Y-86.36
X127.Y-88.9
X127.Y-91.44
X127.Y-93.98
X127.Y-96.52
X127.Y-99.06
X127.Y-101.6
X127.Y-104.14
X127.Y-106.68
X127.Y-109.22
X127.Y-111.76
X127.Y-114.3
X127.Y-116.84
X127.Y-119.38
X127.Y-121.92
X127.Y-124.46
X127.Y-127.
T4
X92.71Y-66.04
X92.71Y-111.76
T0
M30
