G04 #@! TF.FileFunction,Copper,L1,Top,Signal*
%FSLAX46Y46*%
G04 Gerber Fmt 4.6, Leading zero omitted, Abs format (unit mm)*
G04 Created by KiCad (PCBNEW 4.0.2+e4-6225~38~ubuntu14.04.1-stable) date Fri 12 Aug 2016 10:06:59 AM PDT*
%MOMM*%
G01*
G04 APERTURE LIST*
%ADD10C,0.100000*%
%ADD11R,1.270000X1.270000*%
%ADD12C,1.270000*%
%ADD13C,4.445000*%
%ADD14R,1.778000X1.778000*%
%ADD15C,1.778000*%
%ADD16C,0.762000*%
%ADD17C,0.152400*%
G04 APERTURE END LIST*
D10*
D11*
X87947500Y-105079800D03*
D12*
X87947500Y-103174800D03*
X89852500Y-102222300D03*
X87947500Y-101269800D03*
X87947500Y-99364800D03*
X89852500Y-98412300D03*
X87947500Y-97459800D03*
X87947500Y-95554800D03*
X89852500Y-94602300D03*
X87947500Y-93649800D03*
X87947500Y-91744800D03*
X89852500Y-90792300D03*
X87947500Y-89839800D03*
X87947500Y-87934800D03*
X89852500Y-86982300D03*
X87947500Y-86029800D03*
X87947500Y-84124800D03*
X89852500Y-83172300D03*
X87947500Y-82219800D03*
X87947500Y-80314800D03*
X89852500Y-79362300D03*
X87947500Y-78409800D03*
X87947500Y-76504800D03*
X89852500Y-75552300D03*
X87947500Y-74599800D03*
X87947500Y-72694800D03*
X89852500Y-104127300D03*
X91757500Y-103174800D03*
X91757500Y-101269800D03*
X89852500Y-100317300D03*
X91757500Y-99364800D03*
X91757500Y-97459800D03*
X89852500Y-96507300D03*
X91757500Y-95554800D03*
X91757500Y-93649800D03*
X89852500Y-92697300D03*
X91757500Y-91744800D03*
X91757500Y-89839800D03*
X89852500Y-88887300D03*
X91757500Y-87934800D03*
X91757500Y-86029800D03*
X89852500Y-85077300D03*
X91757500Y-84124800D03*
X91757500Y-82219800D03*
X89852500Y-81267300D03*
X91757500Y-80314800D03*
X91757500Y-78409800D03*
X89852500Y-77457300D03*
X91757500Y-76504800D03*
X91757500Y-74599800D03*
X89852500Y-73647300D03*
X93662500Y-104127300D03*
X93662500Y-102222300D03*
X95567500Y-101269800D03*
X93662500Y-100317300D03*
X93662500Y-98412300D03*
X95567500Y-97459800D03*
X93662500Y-96507300D03*
X93662500Y-94602300D03*
X95567500Y-93649800D03*
X93662500Y-92697300D03*
X93662500Y-90792300D03*
X95567500Y-89839800D03*
X95567500Y-87934800D03*
X93662500Y-86982300D03*
X93662500Y-85077300D03*
X95567500Y-84124800D03*
X93662500Y-83172300D03*
X93662500Y-81267300D03*
X95567500Y-80314800D03*
X93662500Y-79362300D03*
X93662500Y-77457300D03*
X95567500Y-76504800D03*
X93662500Y-75552300D03*
X93662500Y-73647300D03*
X97472500Y-104127300D03*
X95567500Y-103174800D03*
X97472500Y-102222300D03*
X97472500Y-100317300D03*
X95567500Y-99364800D03*
X97472500Y-98412300D03*
X97472500Y-96507300D03*
X95567500Y-95554800D03*
X97472500Y-94602300D03*
X97472500Y-92697300D03*
X95567500Y-91744800D03*
X97472500Y-90792300D03*
X97472500Y-88887300D03*
X97472500Y-86982300D03*
X95567500Y-86029800D03*
X97472500Y-85077300D03*
X97472500Y-83172300D03*
X95567500Y-82219800D03*
X97472500Y-81267300D03*
X97472500Y-79362300D03*
X95567500Y-78409800D03*
X97472500Y-77457300D03*
X97472500Y-75552300D03*
X95567500Y-74599800D03*
X97472500Y-73647300D03*
D13*
X92710000Y-66040000D03*
X92710000Y-111760000D03*
D14*
X127000000Y-127000000D03*
D15*
X124460000Y-127000000D03*
X127000000Y-124460000D03*
X124460000Y-124460000D03*
X127000000Y-121920000D03*
X124460000Y-121920000D03*
X127000000Y-119380000D03*
X124460000Y-119380000D03*
X127000000Y-116840000D03*
X124460000Y-116840000D03*
X127000000Y-114300000D03*
X124460000Y-114300000D03*
X127000000Y-111760000D03*
X124460000Y-111760000D03*
X127000000Y-109220000D03*
X124460000Y-109220000D03*
X127000000Y-106680000D03*
X124460000Y-106680000D03*
X127000000Y-104140000D03*
X124460000Y-104140000D03*
X127000000Y-101600000D03*
X124460000Y-101600000D03*
X127000000Y-99060000D03*
X124460000Y-99060000D03*
X127000000Y-96520000D03*
X124460000Y-96520000D03*
X127000000Y-93980000D03*
X124460000Y-93980000D03*
X127000000Y-91440000D03*
X124460000Y-91440000D03*
X127000000Y-88900000D03*
X124460000Y-88900000D03*
X127000000Y-86360000D03*
X124460000Y-86360000D03*
X127000000Y-83820000D03*
X124460000Y-83820000D03*
X127000000Y-81280000D03*
X124460000Y-81280000D03*
X127000000Y-78740000D03*
X124460000Y-78740000D03*
X127000000Y-76200000D03*
X124460000Y-76200000D03*
X127000000Y-73660000D03*
X124460000Y-73660000D03*
X127000000Y-71120000D03*
X124460000Y-71120000D03*
X127000000Y-68580000D03*
X124460000Y-68580000D03*
X127000000Y-66040000D03*
X124460000Y-66040000D03*
X127000000Y-63500000D03*
X124460000Y-63500000D03*
X127000000Y-60960000D03*
X124460000Y-60960000D03*
X127000000Y-58420000D03*
X124460000Y-58420000D03*
X127000000Y-55880000D03*
X124460000Y-55880000D03*
X127000000Y-53340000D03*
X124460000Y-53340000D03*
X127000000Y-50800000D03*
X124460000Y-50800000D03*
X127000000Y-48260000D03*
X124460000Y-48260000D03*
X58420000Y-48260000D03*
X60960000Y-48260000D03*
X58420000Y-50800000D03*
X60960000Y-50800000D03*
X58420000Y-53340000D03*
X60960000Y-53340000D03*
X58420000Y-55880000D03*
X60960000Y-55880000D03*
X58420000Y-58420000D03*
X60960000Y-58420000D03*
X58420000Y-60960000D03*
X60960000Y-60960000D03*
X58420000Y-63500000D03*
X60960000Y-63500000D03*
X58420000Y-66040000D03*
X60960000Y-66040000D03*
X58420000Y-68580000D03*
X60960000Y-68580000D03*
X58420000Y-71120000D03*
X60960000Y-71120000D03*
X58420000Y-73660000D03*
X60960000Y-73660000D03*
X58420000Y-76200000D03*
X60960000Y-76200000D03*
X58420000Y-78740000D03*
X60960000Y-78740000D03*
X58420000Y-81280000D03*
X60960000Y-81280000D03*
X58420000Y-83820000D03*
X60960000Y-83820000D03*
X58420000Y-86360000D03*
X60960000Y-86360000D03*
X58420000Y-88900000D03*
X60960000Y-88900000D03*
X58420000Y-91440000D03*
X60960000Y-91440000D03*
X58420000Y-93980000D03*
X60960000Y-93980000D03*
X58420000Y-96520000D03*
X60960000Y-96520000D03*
X58420000Y-99060000D03*
X60960000Y-99060000D03*
X58420000Y-101600000D03*
X60960000Y-101600000D03*
X58420000Y-104140000D03*
X60960000Y-104140000D03*
X58420000Y-106680000D03*
X60960000Y-106680000D03*
X58420000Y-109220000D03*
X60960000Y-109220000D03*
X58420000Y-111760000D03*
X60960000Y-111760000D03*
X58420000Y-114300000D03*
X60960000Y-114300000D03*
X58420000Y-116840000D03*
X60960000Y-116840000D03*
X58420000Y-119380000D03*
X60960000Y-119380000D03*
X58420000Y-121920000D03*
X60960000Y-121920000D03*
X58420000Y-124460000D03*
X60960000Y-124460000D03*
X58420000Y-127000000D03*
X60960000Y-127000000D03*
D16*
X91948000Y-128016000D03*
X90932000Y-128016000D03*
X89916000Y-128016000D03*
X88900000Y-128016000D03*
X87884000Y-128016000D03*
X86868000Y-128016000D03*
X85852000Y-128016000D03*
X84836000Y-128016000D03*
X83820000Y-128016000D03*
X82804000Y-128016000D03*
X81788000Y-128016000D03*
X80772000Y-128016000D03*
X79756000Y-128016000D03*
X78740000Y-128016000D03*
X77724000Y-128016000D03*
X76708000Y-128016000D03*
X75692000Y-128016000D03*
X74676000Y-128016000D03*
X73660000Y-128016000D03*
X72644000Y-128016000D03*
X71628000Y-128016000D03*
X70612000Y-128016000D03*
X69596000Y-128016000D03*
X68580000Y-128016000D03*
X67564000Y-128016000D03*
X66548000Y-128016000D03*
X115824000Y-102616000D03*
X115316000Y-103632000D03*
X114300000Y-103124000D03*
X113792000Y-104140000D03*
X112776000Y-103632000D03*
X112268000Y-104648000D03*
X111252000Y-104140000D03*
X84582000Y-95707200D03*
X110744000Y-105156000D03*
X109728000Y-104648000D03*
X109220000Y-105664000D03*
X108204000Y-105156000D03*
X86176590Y-90748590D03*
X107696000Y-106172000D03*
X86303591Y-86811591D03*
X106375200Y-86715600D03*
X99060000Y-86868000D03*
X109067600Y-82346800D03*
X99135459Y-82371459D03*
X121107200Y-81178400D03*
X106680000Y-109220000D03*
X84328000Y-84836000D03*
X112268000Y-78740000D03*
X99060000Y-78740000D03*
X112268000Y-76708000D03*
X96795813Y-76504801D03*
X112268000Y-72136000D03*
X94488000Y-72136000D03*
X119888000Y-81178400D03*
X105664000Y-110236000D03*
X82239591Y-83255591D03*
X112268000Y-68580000D03*
X91694000Y-71247000D03*
X111252000Y-69596000D03*
X92964000Y-72136000D03*
X109220000Y-68580000D03*
X91948000Y-72136000D03*
X112268000Y-62484000D03*
X90703400Y-71247000D03*
X74168000Y-48260000D03*
X106680000Y-80772000D03*
X74168000Y-50800000D03*
X74168000Y-52324000D03*
X74168000Y-53340000D03*
X74168000Y-54864000D03*
X74168000Y-55880000D03*
X74168000Y-57404000D03*
X74168000Y-58420000D03*
X77012800Y-79197200D03*
D17*
X84175600Y-112420400D02*
X84175600Y-120243600D01*
X84175600Y-120243600D02*
X91948000Y-128016000D01*
X84175600Y-112420400D02*
X84175600Y-112522000D01*
X84175600Y-106527600D02*
X84175600Y-112420400D01*
X85623400Y-105079800D02*
X84175600Y-106527600D01*
X87947500Y-105079800D02*
X85623400Y-105079800D01*
X90932000Y-128016000D02*
X83870791Y-120954791D01*
X83870791Y-120954791D02*
X83870790Y-106401344D01*
X83870790Y-106401344D02*
X86462335Y-103809799D01*
X86462335Y-103809799D02*
X87312501Y-103809799D01*
X87312501Y-103809799D02*
X87947500Y-103174800D01*
X83515200Y-113993732D02*
X83515200Y-121615200D01*
X83515200Y-121615200D02*
X89916000Y-128016000D01*
X83515200Y-112623600D02*
X83515200Y-106325868D01*
X83515200Y-112723732D02*
X83515200Y-112623600D01*
X83515200Y-112623600D02*
X83515200Y-113993732D01*
X83515200Y-106325868D02*
X87618768Y-102222300D01*
X87618768Y-102222300D02*
X89852500Y-102222300D01*
X83210391Y-114119989D02*
X83210391Y-122326391D01*
X83210391Y-122326391D02*
X88900000Y-128016000D01*
X87947500Y-101269800D02*
X83210390Y-106006910D01*
X83210390Y-106006910D02*
X83210391Y-114119989D01*
X82905582Y-114246246D02*
X82905582Y-123037582D01*
X82905582Y-123037582D02*
X87884000Y-128016000D01*
X87947500Y-99364800D02*
X82905582Y-104406718D01*
X82905582Y-104406718D02*
X82905582Y-114246246D01*
X82600773Y-114372503D02*
X82600773Y-123748773D01*
X82600773Y-123748773D02*
X86868000Y-128016000D01*
X89852500Y-98412300D02*
X87621870Y-98412300D01*
X87621870Y-98412300D02*
X82600772Y-103433398D01*
X82600772Y-103433398D02*
X82600773Y-114372503D01*
X82295965Y-114498760D02*
X82295965Y-124459965D01*
X82295965Y-124459965D02*
X85852000Y-128016000D01*
X87947500Y-97459800D02*
X82295964Y-103111336D01*
X82295964Y-103111336D02*
X82295965Y-114498760D01*
X81991157Y-114625017D02*
X81991157Y-125171157D01*
X81991157Y-125171157D02*
X84836000Y-128016000D01*
X87947500Y-95554800D02*
X81991154Y-101511146D01*
X81991154Y-101511146D02*
X81991157Y-114625017D01*
X89852500Y-94602300D02*
X87472475Y-94602300D01*
X87472475Y-94602300D02*
X81635600Y-100439175D01*
X81635600Y-100439175D02*
X81635600Y-125831600D01*
X81635600Y-125831600D02*
X83820000Y-128016000D01*
X81330791Y-114826772D02*
X81330791Y-126542791D01*
X81330791Y-126542791D02*
X82804000Y-128016000D01*
X87947500Y-93649800D02*
X81330791Y-100266509D01*
X81330791Y-100266509D02*
X81330791Y-114826772D01*
X81025982Y-114953029D02*
X81025982Y-127253982D01*
X81025982Y-127253982D02*
X81788000Y-128016000D01*
X87947500Y-91744800D02*
X87100436Y-91744800D01*
X87100436Y-91744800D02*
X81025981Y-97819255D01*
X81025981Y-97819255D02*
X81025982Y-114953029D01*
X80670400Y-115028509D02*
X80670400Y-127914400D01*
X80670400Y-127914400D02*
X80772000Y-128016000D01*
X89852500Y-90792300D02*
X87621870Y-90792300D01*
X87621870Y-90792300D02*
X80670400Y-97743770D01*
X80670400Y-97743770D02*
X80670400Y-115028509D01*
X80365591Y-115154766D02*
X80365591Y-127406409D01*
X80365591Y-127406409D02*
X79756000Y-128016000D01*
X87947500Y-89839800D02*
X80365590Y-97421710D01*
X80365590Y-97421710D02*
X80365591Y-115154766D01*
X80037940Y-98336100D02*
X80037940Y-95844360D01*
X80037940Y-95844360D02*
X87947500Y-87934800D01*
X78740000Y-128016000D02*
X80035400Y-126720600D01*
X80035400Y-125625860D02*
X80037940Y-125623320D01*
X80035400Y-126720600D02*
X80035400Y-125625860D01*
X80037940Y-125623320D02*
X80037940Y-98336100D01*
X80037940Y-98336100D02*
X80035400Y-98333560D01*
X77724000Y-128016000D02*
X79705200Y-126034800D01*
X79705200Y-126034800D02*
X79705200Y-94898970D01*
X79705200Y-94898970D02*
X87621870Y-86982300D01*
X87621870Y-86982300D02*
X89852500Y-86982300D01*
X79400391Y-115482762D02*
X79400391Y-125323609D01*
X79400391Y-125323609D02*
X76708000Y-128016000D01*
X87947500Y-86029800D02*
X79400390Y-94576910D01*
X79400390Y-94576910D02*
X79400391Y-115482762D01*
X79044800Y-115558235D02*
X79044800Y-124663200D01*
X79044800Y-124663200D02*
X75692000Y-128016000D01*
X87947500Y-84124800D02*
X79044800Y-93027500D01*
X79044800Y-93027500D02*
X79044800Y-115558235D01*
X78739991Y-115684492D02*
X78739991Y-123952009D01*
X78739991Y-123952009D02*
X74676000Y-128016000D01*
X89852500Y-83172300D02*
X87621870Y-83172300D01*
X87621870Y-83172300D02*
X78739990Y-92054180D01*
X78739990Y-92054180D02*
X78739991Y-115684492D01*
X78435182Y-115810749D02*
X78435182Y-123240818D01*
X78435182Y-123240818D02*
X73660000Y-128016000D01*
X87947500Y-82219800D02*
X78435182Y-91732118D01*
X78435182Y-91732118D02*
X78435182Y-115810749D01*
X78130373Y-115937006D02*
X78130373Y-122529627D01*
X78130373Y-122529627D02*
X72644000Y-128016000D01*
X87947500Y-80314800D02*
X78130372Y-90131928D01*
X78130372Y-90131928D02*
X78130373Y-115937006D01*
X77825564Y-116063263D02*
X77825564Y-121818436D01*
X77825564Y-121818436D02*
X71628000Y-128016000D01*
X89852500Y-79362300D02*
X87621870Y-79362300D01*
X87621870Y-79362300D02*
X77825564Y-89158606D01*
X77825564Y-89158606D02*
X77825564Y-116063263D01*
X77520755Y-116189520D02*
X77520755Y-121107245D01*
X77520755Y-121107245D02*
X70612000Y-128016000D01*
X87947500Y-78409800D02*
X77520754Y-88836546D01*
X77520754Y-88836546D02*
X77520755Y-116189520D01*
X77215944Y-116315775D02*
X77215944Y-120396056D01*
X77215944Y-120396056D02*
X69596000Y-128016000D01*
X77215944Y-87236356D02*
X77215944Y-116315775D01*
X77215944Y-87236356D02*
X87947500Y-76504800D01*
X76911136Y-116442031D02*
X76911136Y-119684864D01*
X76911136Y-119684864D02*
X68580000Y-128016000D01*
X89852500Y-75552300D02*
X87621870Y-75552300D01*
X87621870Y-75552300D02*
X76911136Y-86263034D01*
X76911136Y-86263034D02*
X76911136Y-116442031D01*
X76606327Y-116568288D02*
X76606327Y-118973673D01*
X76606327Y-118973673D02*
X67564000Y-128016000D01*
X87947500Y-74599800D02*
X76606326Y-85940974D01*
X76606326Y-85940974D02*
X76606327Y-116568288D01*
X76301518Y-116694545D02*
X76301518Y-118262482D01*
X76301518Y-118262482D02*
X66548000Y-128016000D01*
X76301518Y-84340782D02*
X76301518Y-116694545D01*
X87947500Y-72694800D02*
X76301518Y-84340782D01*
X127000000Y-91440000D02*
X125730282Y-92709718D01*
X125730282Y-92709718D02*
X123637611Y-92709718D01*
X123637611Y-92709718D02*
X115824000Y-100523329D01*
X115824000Y-100523329D02*
X115824000Y-102077185D01*
X115824000Y-102077185D02*
X115824000Y-102616000D01*
X124460000Y-91440000D02*
X115214399Y-100685601D01*
X115214399Y-100685601D02*
X115214399Y-103530399D01*
X115214399Y-103530399D02*
X115316000Y-103632000D01*
X127000000Y-88900000D02*
X125733083Y-90166917D01*
X125733083Y-90166917D02*
X123637612Y-90166917D01*
X123637612Y-90166917D02*
X114300000Y-99504529D01*
X114300000Y-99504529D02*
X114300000Y-103124000D01*
X124460000Y-88900000D02*
X113690399Y-99669601D01*
X113690399Y-104038399D02*
X113792000Y-104140000D01*
X113690399Y-99669601D02*
X113690399Y-104038399D01*
X127000000Y-86360000D02*
X125741520Y-87618480D01*
X125741520Y-87618480D02*
X123655774Y-87618480D01*
X123655774Y-87618480D02*
X112776000Y-98498254D01*
X112776000Y-98498254D02*
X112776000Y-103632000D01*
X124460000Y-86360000D02*
X112166399Y-98653601D01*
X112166399Y-98653601D02*
X112166399Y-104546399D01*
X112166399Y-104546399D02*
X112268000Y-104648000D01*
X127000000Y-83820000D02*
X125724279Y-85095721D01*
X125724279Y-85095721D02*
X123676442Y-85095721D01*
X123676442Y-85095721D02*
X111252000Y-97520163D01*
X111252000Y-97520163D02*
X111252000Y-104140000D01*
X84582000Y-95707200D02*
X84582000Y-95168385D01*
X84582000Y-95168385D02*
X87053085Y-92697300D01*
X87053085Y-92697300D02*
X88954475Y-92697300D01*
X88954475Y-92697300D02*
X89852500Y-92697300D01*
X124460000Y-83820000D02*
X110642399Y-97637601D01*
X110642399Y-97637601D02*
X110642399Y-105054399D01*
X110642399Y-105054399D02*
X110744000Y-105156000D01*
X127000000Y-81280000D02*
X125754637Y-82525363D01*
X123652643Y-82525363D02*
X109728000Y-96450006D01*
X125754637Y-82525363D02*
X123652643Y-82525363D01*
X109728000Y-96450006D02*
X109728000Y-104648000D01*
X124460000Y-81280000D02*
X109118399Y-96621601D01*
X109118399Y-96621601D02*
X109118399Y-105562399D01*
X109118399Y-105562399D02*
X109220000Y-105664000D01*
X89852500Y-88887300D02*
X87451288Y-88887300D01*
X87451288Y-88887300D02*
X86176590Y-90161998D01*
X86176590Y-90161998D02*
X86176590Y-90748590D01*
X127000000Y-78740000D02*
X125761195Y-79978805D01*
X125761195Y-79978805D02*
X123843040Y-79978805D01*
X123843040Y-79978805D02*
X108204000Y-95617845D01*
X108204000Y-95617845D02*
X108204000Y-105156000D01*
X91757500Y-87934800D02*
X91122501Y-87299801D01*
X91122501Y-87299801D02*
X91122501Y-86861065D01*
X89374092Y-86027284D02*
X88414297Y-85067489D01*
X91122501Y-86861065D02*
X90288720Y-86027284D01*
X90288720Y-86027284D02*
X89374092Y-86027284D01*
X88414297Y-85067489D02*
X87510961Y-85067489D01*
X87510961Y-85067489D02*
X86303591Y-86274859D01*
X86303591Y-86274859D02*
X86303591Y-86811591D01*
X124460000Y-78740000D02*
X107594399Y-95605601D01*
X107594399Y-95605601D02*
X107594399Y-106070399D01*
X107594399Y-106070399D02*
X107696000Y-106172000D01*
X91757500Y-86029800D02*
X92392499Y-86664799D01*
X92392499Y-86664799D02*
X92392499Y-86990429D01*
X96181670Y-88900000D02*
X97157379Y-87924291D01*
X97157379Y-87924291D02*
X98003709Y-87924291D01*
X92392499Y-86990429D02*
X94302070Y-88900000D01*
X94302070Y-88900000D02*
X96181670Y-88900000D01*
X98003709Y-87924291D02*
X99060000Y-86868000D01*
X127000000Y-76200000D02*
X125732054Y-77467946D01*
X108508800Y-86715600D02*
X106375200Y-86715600D01*
X125732054Y-77467946D02*
X120016320Y-77467946D01*
X110768666Y-86715600D02*
X108508800Y-86715600D01*
X120016320Y-77467946D02*
X110768666Y-86715600D01*
X89852500Y-85077300D02*
X92263288Y-85077300D01*
X92263288Y-85077300D02*
X93213272Y-86027284D01*
X99135459Y-82787471D02*
X99135459Y-82371459D01*
X93213272Y-86027284D02*
X94094026Y-86027284D01*
X94094026Y-86027284D02*
X95044010Y-85077300D01*
X95044010Y-85077300D02*
X96194370Y-85077300D01*
X96194370Y-85077300D02*
X97152684Y-84118986D01*
X97152684Y-84118986D02*
X97803944Y-84118986D01*
X97803944Y-84118986D02*
X99135459Y-82787471D01*
X109067600Y-82346800D02*
X113385600Y-82346800D01*
X120853200Y-76200000D02*
X114706400Y-82346800D01*
X114706400Y-82346800D02*
X113385600Y-82346800D01*
X124460000Y-76200000D02*
X120853200Y-76200000D01*
X91757500Y-84124800D02*
X90893899Y-83261199D01*
X90893899Y-83261199D02*
X90893899Y-82935569D01*
X90167405Y-82209075D02*
X89332153Y-82209075D01*
X90893899Y-82935569D02*
X90167405Y-82209075D01*
X86868000Y-82296000D02*
X84328000Y-84836000D01*
X89332153Y-82209075D02*
X88373971Y-81250893D01*
X86868000Y-82021170D02*
X86868000Y-82296000D01*
X88373971Y-81250893D02*
X87638277Y-81250893D01*
X87638277Y-81250893D02*
X86868000Y-82021170D01*
X111646067Y-91122867D02*
X121107200Y-81661734D01*
X121107200Y-81661734D02*
X121107200Y-81178400D01*
X107289590Y-95479344D02*
X111646067Y-91122867D01*
X106680000Y-109220000D02*
X106680000Y-96088934D01*
X106680000Y-96088934D02*
X107289590Y-95479344D01*
X91757500Y-82219800D02*
X94130081Y-82219800D01*
X94130081Y-82219800D02*
X95076405Y-81273476D01*
X95076405Y-81273476D02*
X96064752Y-81273476D01*
X96064752Y-81273476D02*
X97047130Y-80291098D01*
X97047130Y-80291098D02*
X97921913Y-80291098D01*
X97921913Y-80291098D02*
X99060000Y-79153011D01*
X99060000Y-79153011D02*
X99060000Y-78740000D01*
X117856000Y-78740000D02*
X122936000Y-73660000D01*
X122936000Y-73660000D02*
X124460000Y-73660000D01*
X112268000Y-78740000D02*
X117856000Y-78740000D01*
X89852500Y-81267300D02*
X92206572Y-81267300D01*
X94163928Y-80302389D02*
X94615069Y-79851248D01*
X92206572Y-81267300D02*
X93171483Y-80302389D01*
X93171483Y-80302389D02*
X94163928Y-80302389D01*
X96795813Y-76720311D02*
X96795813Y-76504801D01*
X94615069Y-79851248D02*
X94615069Y-77986351D01*
X94615069Y-77986351D02*
X95151578Y-77449842D01*
X95151578Y-77449842D02*
X96066282Y-77449842D01*
X96066282Y-77449842D02*
X96795813Y-76720311D01*
X126111001Y-72008999D02*
X127000000Y-71120000D01*
X112268000Y-76708000D02*
X116622741Y-72353259D01*
X116622741Y-72353259D02*
X125766741Y-72353259D01*
X125766741Y-72353259D02*
X126111001Y-72008999D01*
X91757500Y-80314800D02*
X92697709Y-79374591D01*
X94200498Y-76491162D02*
X94703899Y-75987761D01*
X92697709Y-79374591D02*
X92697709Y-76930923D01*
X92697709Y-76930923D02*
X93137470Y-76491162D01*
X93137470Y-76491162D02*
X94200498Y-76491162D01*
X94703899Y-75987761D02*
X94703899Y-72351899D01*
X94703899Y-72351899D02*
X94488000Y-72136000D01*
X113284000Y-71120000D02*
X123202765Y-71120000D01*
X112268000Y-72136000D02*
X113284000Y-71120000D01*
X123202765Y-71120000D02*
X124460000Y-71120000D01*
X91757500Y-78409800D02*
X89330414Y-78409800D01*
X89330414Y-78409800D02*
X88379251Y-77458637D01*
X88379251Y-77458637D02*
X87464547Y-77458637D01*
X87464547Y-77458637D02*
X82239591Y-82683593D01*
X82239591Y-82683593D02*
X82239591Y-83255591D01*
X119685534Y-82652334D02*
X119888000Y-82449868D01*
X119888000Y-82449868D02*
X119888000Y-81178400D01*
X115468400Y-86869468D02*
X119685534Y-82652334D01*
X106375191Y-95962677D02*
X115468400Y-86869468D01*
X105664000Y-110236000D02*
X106044999Y-109855001D01*
X106044999Y-109855001D02*
X106044999Y-96292869D01*
X106044999Y-96292869D02*
X106375191Y-95962677D01*
X91694000Y-71247000D02*
X91135200Y-71805800D01*
X91135200Y-71805800D02*
X91135200Y-73779189D01*
X91135200Y-73779189D02*
X90805451Y-74108938D01*
X90805451Y-74108938D02*
X90805451Y-76504349D01*
X90805451Y-76504349D02*
X89852500Y-77457300D01*
X112268000Y-68580000D02*
X124460000Y-68580000D01*
X91757500Y-76504800D02*
X92706504Y-75555796D01*
X92706504Y-75555796D02*
X92706504Y-72932311D01*
X92706504Y-72932311D02*
X92964000Y-72674815D01*
X92964000Y-72674815D02*
X92964000Y-72136000D01*
X111252000Y-69596000D02*
X111252000Y-68275200D01*
X111252000Y-68275200D02*
X112239729Y-67287471D01*
X112239729Y-67287471D02*
X125752529Y-67287471D01*
X125752529Y-67287471D02*
X126111001Y-66928999D01*
X126111001Y-66928999D02*
X127000000Y-66040000D01*
X92964000Y-72136000D02*
X92964000Y-72186800D01*
X91757500Y-74599800D02*
X91757500Y-72326500D01*
X91757500Y-72326500D02*
X91948000Y-72136000D01*
X109220000Y-68580000D02*
X111760000Y-66040000D01*
X111760000Y-66040000D02*
X124460000Y-66040000D01*
X112268000Y-62484000D02*
X112806815Y-62484000D01*
X112806815Y-62484000D02*
X113059315Y-62231500D01*
X113059315Y-62231500D02*
X125731500Y-62231500D01*
X125731500Y-62231500D02*
X126111001Y-62611001D01*
X126111001Y-62611001D02*
X127000000Y-63500000D01*
X90703400Y-71247000D02*
X90703400Y-72796400D01*
X90703400Y-72796400D02*
X89852500Y-73647300D01*
X60960000Y-48260000D02*
X74168000Y-48260000D01*
X106680000Y-80772000D02*
X106680000Y-64119892D01*
X106680000Y-64119892D02*
X92092226Y-49532118D01*
X92092226Y-49532118D02*
X59687882Y-49532118D01*
X59687882Y-49532118D02*
X59308999Y-49911001D01*
X59308999Y-49911001D02*
X58420000Y-50800000D01*
X60960000Y-50800000D02*
X74168000Y-50800000D01*
X58420000Y-53340000D02*
X59681393Y-52078607D01*
X59681393Y-52078607D02*
X73922607Y-52078607D01*
X73922607Y-52078607D02*
X74168000Y-52324000D01*
X60960000Y-53340000D02*
X74168000Y-53340000D01*
X58420000Y-55880000D02*
X59699869Y-54600131D01*
X59699869Y-54600131D02*
X73904131Y-54600131D01*
X73904131Y-54600131D02*
X74168000Y-54864000D01*
X60960000Y-55880000D02*
X74168000Y-55880000D01*
X58420000Y-58420000D02*
X59655932Y-57184068D01*
X59655932Y-57184068D02*
X73948068Y-57184068D01*
X73948068Y-57184068D02*
X74168000Y-57404000D01*
X60960000Y-58420000D02*
X74168000Y-58420000D01*
X92291420Y-70561210D02*
X85648790Y-70561210D01*
X85648790Y-70561210D02*
X77012800Y-79197200D01*
X93662500Y-73647300D02*
X93662500Y-71932290D01*
X93662500Y-71932290D02*
X92291420Y-70561210D01*
X97472500Y-104127300D02*
X105613210Y-95986590D01*
X105613209Y-63484165D02*
X99177353Y-57048309D01*
X105613210Y-95986590D02*
X105613209Y-63484165D01*
X83329616Y-60960000D02*
X60960000Y-60960000D01*
X99177353Y-57048309D02*
X87241306Y-57048310D01*
X87241306Y-57048310D02*
X83329616Y-60960000D01*
X95567500Y-103174800D02*
X97849091Y-103174800D01*
X97849091Y-103174800D02*
X105308400Y-95715491D01*
X105308400Y-95715491D02*
X105308400Y-63610422D01*
X105308400Y-63610422D02*
X99051097Y-57353119D01*
X59308999Y-62611001D02*
X58420000Y-63500000D01*
X99051097Y-57353119D02*
X87367563Y-57353119D01*
X82468602Y-62252080D02*
X59667920Y-62252080D01*
X87367563Y-57353119D02*
X82468602Y-62252080D01*
X59667920Y-62252080D02*
X59308999Y-62611001D01*
X97472500Y-102222300D02*
X98370525Y-102222300D01*
X98370525Y-102222300D02*
X104952846Y-95639979D01*
X104952846Y-95639979D02*
X104952845Y-63685923D01*
X104952845Y-63685923D02*
X98924839Y-57657927D01*
X98924839Y-57657927D02*
X87493820Y-57657928D01*
X87493820Y-57657928D02*
X81651748Y-63500000D01*
X81651748Y-63500000D02*
X60960000Y-63500000D01*
X97472500Y-100317300D02*
X104648036Y-93141764D01*
X59686397Y-64773603D02*
X59308999Y-65151001D01*
X104648036Y-93141764D02*
X104648036Y-63812180D01*
X104648036Y-63812180D02*
X98798584Y-57962736D01*
X98798584Y-57962736D02*
X87620077Y-57962737D01*
X87620077Y-57962737D02*
X80809211Y-64773603D01*
X59308999Y-65151001D02*
X58420000Y-66040000D01*
X80809211Y-64773603D02*
X59686397Y-64773603D01*
X95567500Y-99364800D02*
X97849091Y-99364800D01*
X97849091Y-99364800D02*
X104343228Y-92870661D01*
X104343228Y-92870661D02*
X104343227Y-63938437D01*
X104343227Y-63938437D02*
X98672329Y-58267545D01*
X98672329Y-58267545D02*
X87746334Y-58267546D01*
X87746334Y-58267546D02*
X79973880Y-66040000D01*
X79973880Y-66040000D02*
X60960000Y-66040000D01*
X97472500Y-98412300D02*
X98370525Y-98412300D01*
X104038419Y-92744406D02*
X104038418Y-64064694D01*
X98546074Y-58572354D02*
X87872591Y-58572355D01*
X87872591Y-58572355D02*
X79149820Y-67295126D01*
X98370525Y-98412300D02*
X104038419Y-92744406D01*
X104038418Y-64064694D02*
X98546074Y-58572354D01*
X79149820Y-67295126D02*
X59704874Y-67295126D01*
X59704874Y-67295126D02*
X59308999Y-67691001D01*
X59308999Y-67691001D02*
X58420000Y-68580000D01*
X97472500Y-96507300D02*
X103733610Y-90246190D01*
X103733610Y-90246190D02*
X103733609Y-64190951D01*
X103733609Y-64190951D02*
X98419819Y-58877163D01*
X98419819Y-58877163D02*
X87998848Y-58877164D01*
X87998848Y-58877164D02*
X78296012Y-68580000D01*
X78296012Y-68580000D02*
X60960000Y-68580000D01*
X95567500Y-95554800D02*
X97849091Y-95554800D01*
X97849091Y-95554800D02*
X103428800Y-89975091D01*
X103428800Y-89975091D02*
X103428800Y-64317208D01*
X77440498Y-69866580D02*
X59673420Y-69866580D01*
X103428800Y-64317208D02*
X98293564Y-59181972D01*
X98293564Y-59181972D02*
X88125105Y-59181973D01*
X59673420Y-69866580D02*
X59308999Y-70231001D01*
X88125105Y-59181973D02*
X77440498Y-69866580D01*
X59308999Y-70231001D02*
X58420000Y-71120000D01*
X97472500Y-94602300D02*
X98370525Y-94602300D01*
X76618144Y-71120000D02*
X60960000Y-71120000D01*
X98370525Y-94602300D02*
X103073210Y-89899615D01*
X103073210Y-89899615D02*
X103073209Y-64392679D01*
X103073209Y-64392679D02*
X98167309Y-59486781D01*
X98167309Y-59486781D02*
X88251362Y-59486782D01*
X88251362Y-59486782D02*
X76618144Y-71120000D01*
X97472500Y-92697300D02*
X102768400Y-87401400D01*
X102768400Y-87401400D02*
X102768400Y-64518936D01*
X102768400Y-64518936D02*
X98041054Y-59791590D01*
X98041054Y-59791590D02*
X88377619Y-59791591D01*
X88377619Y-59791591D02*
X75781106Y-72388104D01*
X75781106Y-72388104D02*
X59691896Y-72388104D01*
X59691896Y-72388104D02*
X59308999Y-72771001D01*
X59308999Y-72771001D02*
X58420000Y-73660000D01*
X95567500Y-91744800D02*
X97798130Y-91744800D01*
X97798130Y-91744800D02*
X102412800Y-87130130D01*
X102412800Y-87130130D02*
X102412800Y-86283066D01*
X102412800Y-86283066D02*
X102412810Y-86283056D01*
X102412810Y-86283056D02*
X102412809Y-64594411D01*
X102412809Y-64594411D02*
X97914798Y-60096400D01*
X97914798Y-60096400D02*
X88503876Y-60096400D01*
X88503876Y-60096400D02*
X74940276Y-73660000D01*
X74940276Y-73660000D02*
X60960000Y-73660000D01*
X97472500Y-90792300D02*
X102108000Y-86156800D01*
X102108000Y-86156800D02*
X102108000Y-64720668D01*
X102108000Y-64720668D02*
X97839322Y-60451990D01*
X74071784Y-74959558D02*
X59660442Y-74959558D01*
X59660442Y-74959558D02*
X59308999Y-75311001D01*
X97839322Y-60451990D02*
X88579351Y-60451991D01*
X59308999Y-75311001D02*
X58420000Y-76200000D01*
X88579351Y-60451991D02*
X74071784Y-74959558D01*
X88553276Y-60909123D02*
X73262400Y-76200000D01*
X97865390Y-60909123D02*
X88553276Y-60909123D01*
X101787310Y-85470515D02*
X101787310Y-64831043D01*
X98370525Y-88887300D02*
X101787310Y-85470515D01*
X73262400Y-76200000D02*
X62217235Y-76200000D01*
X62217235Y-76200000D02*
X60960000Y-76200000D01*
X101787310Y-64831043D02*
X97865390Y-60909123D01*
X97472500Y-88887300D02*
X98370525Y-88887300D01*
X101482499Y-64957299D02*
X97739134Y-61213934D01*
X59703884Y-77456116D02*
X59308999Y-77851001D01*
X101482499Y-82972301D02*
X101482499Y-64957299D01*
X59308999Y-77851001D02*
X58420000Y-78740000D01*
X72437351Y-77456116D02*
X59703884Y-77456116D01*
X88679532Y-61213934D02*
X72437351Y-77456116D01*
X97739134Y-61213934D02*
X88679532Y-61213934D01*
X97472500Y-86982300D02*
X101482499Y-82972301D01*
X101177688Y-82650242D02*
X101177688Y-65087953D01*
X97798130Y-86029800D02*
X101177688Y-82650242D01*
X88805788Y-61518745D02*
X71584534Y-78740000D01*
X101177688Y-65087953D02*
X97608480Y-61518745D01*
X71584534Y-78740000D02*
X62217235Y-78740000D01*
X97608480Y-61518745D02*
X88805788Y-61518745D01*
X95567500Y-86029800D02*
X97798130Y-86029800D01*
X62217235Y-78740000D02*
X60960000Y-78740000D01*
X59308999Y-80391001D02*
X58420000Y-81280000D01*
X70765479Y-79990122D02*
X59709878Y-79990122D01*
X88932044Y-61823556D02*
X70765479Y-79990122D01*
X97482224Y-61823556D02*
X88932044Y-61823556D01*
X100872877Y-81676923D02*
X100872877Y-65214209D01*
X97472500Y-85077300D02*
X100872877Y-81676923D01*
X59709878Y-79990122D02*
X59308999Y-80391001D01*
X100872877Y-65214209D02*
X97482224Y-61823556D01*
X97355968Y-62128367D02*
X89058300Y-62128367D01*
X97472500Y-83172300D02*
X100568066Y-80076734D01*
X62217235Y-81280000D02*
X60960000Y-81280000D01*
X100568066Y-80076734D02*
X100568066Y-65340465D01*
X69906668Y-81280000D02*
X62217235Y-81280000D01*
X100568066Y-65340465D02*
X97355968Y-62128367D01*
X89058300Y-62128367D02*
X69906668Y-81280000D01*
X100263255Y-65466721D02*
X97229712Y-62433178D01*
X59308999Y-82931001D02*
X58420000Y-83820000D01*
X59703389Y-82536611D02*
X59308999Y-82931001D01*
X97229712Y-62433178D02*
X89184556Y-62433178D01*
X97967800Y-82219800D02*
X100263255Y-79924345D01*
X95567500Y-82219800D02*
X97967800Y-82219800D01*
X89184556Y-62433178D02*
X69081124Y-82536611D01*
X69081124Y-82536611D02*
X59703389Y-82536611D01*
X100263255Y-79924345D02*
X100263255Y-65466721D01*
X97472500Y-81267300D02*
X99958444Y-78781356D01*
X89310812Y-62737989D02*
X68228801Y-83820000D01*
X99958444Y-78781356D02*
X99958444Y-65592977D01*
X68228801Y-83820000D02*
X62217235Y-83820000D01*
X62217235Y-83820000D02*
X60960000Y-83820000D01*
X97103456Y-62737989D02*
X89310812Y-62737989D01*
X99958444Y-65592977D02*
X97103456Y-62737989D01*
X99653633Y-77181167D02*
X99653633Y-65719233D01*
X89437068Y-63042800D02*
X67409251Y-85070617D01*
X67409251Y-85070617D02*
X59709383Y-85070617D01*
X59308999Y-85471001D02*
X58420000Y-86360000D01*
X59709383Y-85070617D02*
X59308999Y-85471001D01*
X96977200Y-63042800D02*
X89437068Y-63042800D01*
X99653633Y-65719233D02*
X96977200Y-63042800D01*
X97472500Y-79362300D02*
X99653633Y-77181167D01*
X99348822Y-72680288D02*
X95654912Y-68986378D01*
X95654912Y-68986378D02*
X83924556Y-68986378D01*
X83924556Y-68986378D02*
X66550934Y-86360000D01*
X97798130Y-78409800D02*
X99348822Y-76859108D01*
X66550934Y-86360000D02*
X62217235Y-86360000D01*
X95567500Y-78409800D02*
X97798130Y-78409800D01*
X62217235Y-86360000D02*
X60960000Y-86360000D01*
X99348822Y-76859108D02*
X99348822Y-72680288D01*
X84050812Y-69291189D02*
X65674966Y-87667036D01*
X99044011Y-72806544D02*
X95528656Y-69291189D01*
X59308999Y-88011001D02*
X58420000Y-88900000D01*
X95528656Y-69291189D02*
X84050812Y-69291189D01*
X99044011Y-75885789D02*
X99044011Y-72806544D01*
X97472500Y-77457300D02*
X99044011Y-75885789D01*
X59652964Y-87667036D02*
X59308999Y-88011001D01*
X65674966Y-87667036D02*
X59652964Y-87667036D01*
X62217235Y-88900000D02*
X60960000Y-88900000D01*
X84177068Y-69596000D02*
X64873068Y-88900000D01*
X64873068Y-88900000D02*
X62217235Y-88900000D01*
X95402400Y-69596000D02*
X84177068Y-69596000D01*
X98739200Y-72932800D02*
X95402400Y-69596000D01*
X98739200Y-74285600D02*
X98739200Y-72932800D01*
X97472500Y-75552300D02*
X98739200Y-74285600D01*
X95567500Y-74599800D02*
X97948849Y-74599800D01*
X64053023Y-90151111D02*
X59708889Y-90151111D01*
X59708889Y-90151111D02*
X59308999Y-90551001D01*
X97948849Y-74599800D02*
X98434389Y-74114260D01*
X98434389Y-74114260D02*
X98434389Y-73060523D01*
X98434389Y-73060523D02*
X95325456Y-69951590D01*
X95325456Y-69951590D02*
X84252543Y-69951591D01*
X84252543Y-69951591D02*
X64053023Y-90151111D01*
X59308999Y-90551001D02*
X58420000Y-91440000D01*
X97472500Y-73647300D02*
X97472500Y-72529700D01*
X97472500Y-72529700D02*
X95199200Y-70256400D01*
X95199200Y-70256400D02*
X84378800Y-70256400D01*
X84378800Y-70256400D02*
X63195200Y-91440000D01*
X63195200Y-91440000D02*
X60960000Y-91440000D01*
M02*
