(module arduino_shields:ARDUINO_SHIELD_040pins (layer F.Cu) (tedit 4E06D824)
  (fp_text reference SHIELD** (at 5.715 -57.15) (layer F.SilkS)
    (effects (font (thickness 0.3048)))
  )
  (fp_text value ARDUINO_SHIELD (at 10.16 -54.61) (layer F.SilkS) hide
    (effects (font (thickness 0.3048)))
  )
  (fp_line (start 66.04 -40.64) (end 66.04 -52.07) (layer F.SilkS) (width 0.381))
  (fp_line (start 66.04 -52.07) (end 64.77 -53.34) (layer F.SilkS) (width 0.381))
  (fp_line (start 64.77 -53.34) (end 0 -53.34) (layer F.SilkS) (width 0.381))
  (fp_line (start 66.04 0) (end 0 0) (layer F.SilkS) (width 0.381))
  (fp_line (start 0 0) (end 0 -53.34) (layer F.SilkS) (width 0.381))
  (fp_line (start 66.04 -40.64) (end 68.58 -38.1) (layer F.SilkS) (width 0.381))
  (fp_line (start 68.58 -38.1) (end 68.58 -5.08) (layer F.SilkS) (width 0.381))
  (fp_line (start 68.58 -5.08) (end 66.04 -2.54) (layer F.SilkS) (width 0.381))
  (fp_line (start 66.04 -2.54) (end 66.04 0) (layer F.SilkS) (width 0.381))
  (pad AD5 thru_hole oval (at 63.5 -2.54 90) (size 2.54 1.524) (drill 1.016) (layers *.Cu *.Mask F.SilkS))
  (pad AD4 thru_hole oval (at 60.96 -2.54 90) (size 2.54 1.524) (drill 1.016) (layers *.Cu *.Mask F.SilkS))
  (pad AD3 thru_hole oval (at 58.42 -2.54 90) (size 2.54 1.524) (drill 1.016) (layers *.Cu *.Mask F.SilkS))
  (pad AD0 thru_hole oval (at 50.8 -2.54 90) (size 2.54 1.524) (drill 1.016) (layers *.Cu *.Mask F.SilkS))
  (pad AD1 thru_hole oval (at 53.34 -2.54 90) (size 2.54 1.524) (drill 1.016) (layers *.Cu *.Mask F.SilkS))
  (pad AD2 thru_hole oval (at 55.88 -2.54 90) (size 2.54 1.524) (drill 1.016) (layers *.Cu *.Mask F.SilkS))
  (pad V_IN thru_hole oval (at 45.72 -2.54 90) (size 2.54 1.524) (drill 1.016) (layers *.Cu *.Mask F.SilkS))
  (pad GND2 thru_hole oval (at 43.18 -2.54 90) (size 2.54 1.524) (drill 1.016) (layers *.Cu *.Mask F.SilkS))
  (pad GND1 thru_hole oval (at 40.64 -2.54 90) (size 2.54 1.524) (drill 1.016) (layers *.Cu *.Mask F.SilkS))
  (pad 3V3 thru_hole oval (at 35.56 -2.54 90) (size 2.54 1.524) (drill 1.016) (layers *.Cu *.Mask F.SilkS))
  (pad RST thru_hole oval (at 33.02 -2.54 90) (size 2.54 1.524) (drill 1.016) (layers *.Cu *.Mask F.SilkS))
  (pad 0 thru_hole oval (at 63.5 -50.8 90) (size 2.54 1.524) (drill 1.016) (layers *.Cu *.Mask F.SilkS))
  (pad 1 thru_hole oval (at 60.96 -50.8 90) (size 2.54 1.524) (drill 1.016) (layers *.Cu *.Mask F.SilkS))
  (pad 2 thru_hole oval (at 58.42 -50.8 90) (size 2.54 1.524) (drill 1.016) (layers *.Cu *.Mask F.SilkS))
  (pad 3 thru_hole oval (at 55.88 -50.8 90) (size 2.54 1.524) (drill 1.016) (layers *.Cu *.Mask F.SilkS))
  (pad 4 thru_hole oval (at 53.34 -50.8 90) (size 2.54 1.524) (drill 1.016) (layers *.Cu *.Mask F.SilkS))
  (pad 5 thru_hole oval (at 50.8 -50.8 90) (size 2.54 1.524) (drill 1.016) (layers *.Cu *.Mask F.SilkS))
  (pad 6 thru_hole oval (at 48.26 -50.8 90) (size 2.54 1.524) (drill 1.016) (layers *.Cu *.Mask F.SilkS))
  (pad 7 thru_hole oval (at 45.72 -50.8 90) (size 2.54 1.524) (drill 1.016) (layers *.Cu *.Mask F.SilkS))
  (pad 8 thru_hole oval (at 41.656 -50.8 90) (size 2.54 1.524) (drill 1.016) (layers *.Cu *.Mask F.SilkS))
  (pad 9 thru_hole oval (at 39.116 -50.8 90) (size 2.54 1.524) (drill 1.016) (layers *.Cu *.Mask F.SilkS))
  (pad 10 thru_hole oval (at 36.576 -50.8 90) (size 2.54 1.524) (drill 1.016) (layers *.Cu *.Mask F.SilkS))
  (pad 11 thru_hole oval (at 34.036 -50.8 90) (size 2.54 1.524) (drill 1.016) (layers *.Cu *.Mask F.SilkS))
  (pad 12 thru_hole oval (at 31.496 -50.8 90) (size 2.54 1.524) (drill 1.016) (layers *.Cu *.Mask F.SilkS))
  (pad 13 thru_hole oval (at 28.956 -50.8 90) (size 2.54 1.524) (drill 1.016) (layers *.Cu *.Mask F.SilkS))
  (pad GND3 thru_hole oval (at 26.416 -50.8 90) (size 2.54 1.524) (drill 1.016) (layers *.Cu *.Mask F.SilkS))
  (pad AREF thru_hole oval (at 23.876 -50.8 90) (size 2.54 1.524) (drill 1.016) (layers *.Cu *.Mask F.SilkS))
  (pad 5V thru_hole oval (at 38.1 -2.54 90) (size 2.54 1.524) (drill 1.016) (layers *.Cu *.Mask F.SilkS))
  (pad "" thru_hole circle (at 66.04 -7.62 90) (size 3.937 3.937) (drill 3.175) (layers *.Cu *.Mask F.SilkS))
  (pad "" thru_hole circle (at 66.04 -35.56 90) (size 3.937 3.937) (drill 3.175) (layers *.Cu *.Mask F.SilkS))
  (pad "" thru_hole circle (at 15.24 -50.8 90) (size 3.937 3.937) (drill 3.175) (layers *.Cu *.Mask F.SilkS))
  (pad "" thru_hole circle (at 13.97 -2.54 90) (size 3.937 3.937) (drill 3.175) (layers *.Cu *.Mask F.SilkS))
)
