G04 #@! TF.GenerationSoftware,KiCad,Pcbnew,5.1.6-c6e7f7d~86~ubuntu18.04.1*
G04 #@! TF.CreationDate,2020-10-19T09:42:13-07:00*
G04 #@! TF.ProjectId,mux-box,6d75782d-626f-4782-9e6b-696361645f70,rev?*
G04 #@! TF.SameCoordinates,Original*
G04 #@! TF.FileFunction,Other,Comment*
%FSLAX46Y46*%
G04 Gerber Fmt 4.6, Leading zero omitted, Abs format (unit mm)*
G04 Created by KiCad (PCBNEW 5.1.6-c6e7f7d~86~ubuntu18.04.1) date 2020-10-19 09:42:13*
%MOMM*%
%LPD*%
G01*
G04 APERTURE LIST*
%ADD10C,0.150000*%
G04 APERTURE END LIST*
D10*
X33250000Y-29540000D02*
G75*
G03*
X33250000Y-29540000I-2850000J0D01*
G01*
X33250000Y-139540000D02*
G75*
G03*
X33250000Y-139540000I-2850000J0D01*
G01*
X115750000Y-139540000D02*
G75*
G03*
X115750000Y-139540000I-2850000J0D01*
G01*
X115750000Y-29540000D02*
G75*
G03*
X115750000Y-29540000I-2850000J0D01*
G01*
X198250000Y-139540000D02*
G75*
G03*
X198250000Y-139540000I-2850000J0D01*
G01*
X198250000Y-29540000D02*
G75*
G03*
X198250000Y-29540000I-2850000J0D01*
G01*
X86372857Y-143768571D02*
X86039523Y-143768571D01*
X86039523Y-144292380D02*
X86039523Y-143292380D01*
X86515714Y-143292380D01*
X86896666Y-144292380D02*
X86896666Y-143625714D01*
X86896666Y-143816190D02*
X86944285Y-143720952D01*
X86991904Y-143673333D01*
X87087142Y-143625714D01*
X87182380Y-143625714D01*
X87658571Y-144292380D02*
X87563333Y-144244761D01*
X87515714Y-144197142D01*
X87468095Y-144101904D01*
X87468095Y-143816190D01*
X87515714Y-143720952D01*
X87563333Y-143673333D01*
X87658571Y-143625714D01*
X87801428Y-143625714D01*
X87896666Y-143673333D01*
X87944285Y-143720952D01*
X87991904Y-143816190D01*
X87991904Y-144101904D01*
X87944285Y-144197142D01*
X87896666Y-144244761D01*
X87801428Y-144292380D01*
X87658571Y-144292380D01*
X88420476Y-143625714D02*
X88420476Y-144292380D01*
X88420476Y-143720952D02*
X88468095Y-143673333D01*
X88563333Y-143625714D01*
X88706190Y-143625714D01*
X88801428Y-143673333D01*
X88849047Y-143768571D01*
X88849047Y-144292380D01*
X89182380Y-143625714D02*
X89563333Y-143625714D01*
X89325238Y-143292380D02*
X89325238Y-144149523D01*
X89372857Y-144244761D01*
X89468095Y-144292380D01*
X89563333Y-144292380D01*
X67322857Y-143768571D02*
X66989523Y-143768571D01*
X66989523Y-144292380D02*
X66989523Y-143292380D01*
X67465714Y-143292380D01*
X67846666Y-144292380D02*
X67846666Y-143625714D01*
X67846666Y-143816190D02*
X67894285Y-143720952D01*
X67941904Y-143673333D01*
X68037142Y-143625714D01*
X68132380Y-143625714D01*
X68608571Y-144292380D02*
X68513333Y-144244761D01*
X68465714Y-144197142D01*
X68418095Y-144101904D01*
X68418095Y-143816190D01*
X68465714Y-143720952D01*
X68513333Y-143673333D01*
X68608571Y-143625714D01*
X68751428Y-143625714D01*
X68846666Y-143673333D01*
X68894285Y-143720952D01*
X68941904Y-143816190D01*
X68941904Y-144101904D01*
X68894285Y-144197142D01*
X68846666Y-144244761D01*
X68751428Y-144292380D01*
X68608571Y-144292380D01*
X69370476Y-143625714D02*
X69370476Y-144292380D01*
X69370476Y-143720952D02*
X69418095Y-143673333D01*
X69513333Y-143625714D01*
X69656190Y-143625714D01*
X69751428Y-143673333D01*
X69799047Y-143768571D01*
X69799047Y-144292380D01*
X70132380Y-143625714D02*
X70513333Y-143625714D01*
X70275238Y-143292380D02*
X70275238Y-144149523D01*
X70322857Y-144244761D01*
X70418095Y-144292380D01*
X70513333Y-144292380D01*
X48272857Y-143768571D02*
X47939523Y-143768571D01*
X47939523Y-144292380D02*
X47939523Y-143292380D01*
X48415714Y-143292380D01*
X48796666Y-144292380D02*
X48796666Y-143625714D01*
X48796666Y-143816190D02*
X48844285Y-143720952D01*
X48891904Y-143673333D01*
X48987142Y-143625714D01*
X49082380Y-143625714D01*
X49558571Y-144292380D02*
X49463333Y-144244761D01*
X49415714Y-144197142D01*
X49368095Y-144101904D01*
X49368095Y-143816190D01*
X49415714Y-143720952D01*
X49463333Y-143673333D01*
X49558571Y-143625714D01*
X49701428Y-143625714D01*
X49796666Y-143673333D01*
X49844285Y-143720952D01*
X49891904Y-143816190D01*
X49891904Y-144101904D01*
X49844285Y-144197142D01*
X49796666Y-144244761D01*
X49701428Y-144292380D01*
X49558571Y-144292380D01*
X50320476Y-143625714D02*
X50320476Y-144292380D01*
X50320476Y-143720952D02*
X50368095Y-143673333D01*
X50463333Y-143625714D01*
X50606190Y-143625714D01*
X50701428Y-143673333D01*
X50749047Y-143768571D01*
X50749047Y-144292380D01*
X51082380Y-143625714D02*
X51463333Y-143625714D01*
X51225238Y-143292380D02*
X51225238Y-144149523D01*
X51272857Y-144244761D01*
X51368095Y-144292380D01*
X51463333Y-144292380D01*
X184272857Y-25168571D02*
X183939523Y-25168571D01*
X183939523Y-25692380D02*
X183939523Y-24692380D01*
X184415714Y-24692380D01*
X184796666Y-25692380D02*
X184796666Y-25025714D01*
X184796666Y-25216190D02*
X184844285Y-25120952D01*
X184891904Y-25073333D01*
X184987142Y-25025714D01*
X185082380Y-25025714D01*
X185558571Y-25692380D02*
X185463333Y-25644761D01*
X185415714Y-25597142D01*
X185368095Y-25501904D01*
X185368095Y-25216190D01*
X185415714Y-25120952D01*
X185463333Y-25073333D01*
X185558571Y-25025714D01*
X185701428Y-25025714D01*
X185796666Y-25073333D01*
X185844285Y-25120952D01*
X185891904Y-25216190D01*
X185891904Y-25501904D01*
X185844285Y-25597142D01*
X185796666Y-25644761D01*
X185701428Y-25692380D01*
X185558571Y-25692380D01*
X186320476Y-25025714D02*
X186320476Y-25692380D01*
X186320476Y-25120952D02*
X186368095Y-25073333D01*
X186463333Y-25025714D01*
X186606190Y-25025714D01*
X186701428Y-25073333D01*
X186749047Y-25168571D01*
X186749047Y-25692380D01*
X187082380Y-25025714D02*
X187463333Y-25025714D01*
X187225238Y-24692380D02*
X187225238Y-25549523D01*
X187272857Y-25644761D01*
X187368095Y-25692380D01*
X187463333Y-25692380D01*
X165222857Y-25168571D02*
X164889523Y-25168571D01*
X164889523Y-25692380D02*
X164889523Y-24692380D01*
X165365714Y-24692380D01*
X165746666Y-25692380D02*
X165746666Y-25025714D01*
X165746666Y-25216190D02*
X165794285Y-25120952D01*
X165841904Y-25073333D01*
X165937142Y-25025714D01*
X166032380Y-25025714D01*
X166508571Y-25692380D02*
X166413333Y-25644761D01*
X166365714Y-25597142D01*
X166318095Y-25501904D01*
X166318095Y-25216190D01*
X166365714Y-25120952D01*
X166413333Y-25073333D01*
X166508571Y-25025714D01*
X166651428Y-25025714D01*
X166746666Y-25073333D01*
X166794285Y-25120952D01*
X166841904Y-25216190D01*
X166841904Y-25501904D01*
X166794285Y-25597142D01*
X166746666Y-25644761D01*
X166651428Y-25692380D01*
X166508571Y-25692380D01*
X167270476Y-25025714D02*
X167270476Y-25692380D01*
X167270476Y-25120952D02*
X167318095Y-25073333D01*
X167413333Y-25025714D01*
X167556190Y-25025714D01*
X167651428Y-25073333D01*
X167699047Y-25168571D01*
X167699047Y-25692380D01*
X168032380Y-25025714D02*
X168413333Y-25025714D01*
X168175238Y-24692380D02*
X168175238Y-25549523D01*
X168222857Y-25644761D01*
X168318095Y-25692380D01*
X168413333Y-25692380D01*
X146172857Y-25168571D02*
X145839523Y-25168571D01*
X145839523Y-25692380D02*
X145839523Y-24692380D01*
X146315714Y-24692380D01*
X146696666Y-25692380D02*
X146696666Y-25025714D01*
X146696666Y-25216190D02*
X146744285Y-25120952D01*
X146791904Y-25073333D01*
X146887142Y-25025714D01*
X146982380Y-25025714D01*
X147458571Y-25692380D02*
X147363333Y-25644761D01*
X147315714Y-25597142D01*
X147268095Y-25501904D01*
X147268095Y-25216190D01*
X147315714Y-25120952D01*
X147363333Y-25073333D01*
X147458571Y-25025714D01*
X147601428Y-25025714D01*
X147696666Y-25073333D01*
X147744285Y-25120952D01*
X147791904Y-25216190D01*
X147791904Y-25501904D01*
X147744285Y-25597142D01*
X147696666Y-25644761D01*
X147601428Y-25692380D01*
X147458571Y-25692380D01*
X148220476Y-25025714D02*
X148220476Y-25692380D01*
X148220476Y-25120952D02*
X148268095Y-25073333D01*
X148363333Y-25025714D01*
X148506190Y-25025714D01*
X148601428Y-25073333D01*
X148649047Y-25168571D01*
X148649047Y-25692380D01*
X148982380Y-25025714D02*
X149363333Y-25025714D01*
X149125238Y-24692380D02*
X149125238Y-25549523D01*
X149172857Y-25644761D01*
X149268095Y-25692380D01*
X149363333Y-25692380D01*
X127122857Y-25168571D02*
X126789523Y-25168571D01*
X126789523Y-25692380D02*
X126789523Y-24692380D01*
X127265714Y-24692380D01*
X127646666Y-25692380D02*
X127646666Y-25025714D01*
X127646666Y-25216190D02*
X127694285Y-25120952D01*
X127741904Y-25073333D01*
X127837142Y-25025714D01*
X127932380Y-25025714D01*
X128408571Y-25692380D02*
X128313333Y-25644761D01*
X128265714Y-25597142D01*
X128218095Y-25501904D01*
X128218095Y-25216190D01*
X128265714Y-25120952D01*
X128313333Y-25073333D01*
X128408571Y-25025714D01*
X128551428Y-25025714D01*
X128646666Y-25073333D01*
X128694285Y-25120952D01*
X128741904Y-25216190D01*
X128741904Y-25501904D01*
X128694285Y-25597142D01*
X128646666Y-25644761D01*
X128551428Y-25692380D01*
X128408571Y-25692380D01*
X129170476Y-25025714D02*
X129170476Y-25692380D01*
X129170476Y-25120952D02*
X129218095Y-25073333D01*
X129313333Y-25025714D01*
X129456190Y-25025714D01*
X129551428Y-25073333D01*
X129599047Y-25168571D01*
X129599047Y-25692380D01*
X129932380Y-25025714D02*
X130313333Y-25025714D01*
X130075238Y-24692380D02*
X130075238Y-25549523D01*
X130122857Y-25644761D01*
X130218095Y-25692380D01*
X130313333Y-25692380D01*
M02*
